.Xil/Vivado-67144-llc/send_send64to32/zip_work/send_send64to32.vcd
$date
        2025-Jul-23 14:05:01
$end
$version
        Vivado v2018.3 (64-bit)
$end
$timescale
        1ps
$end
$scope module dut $end
$var reg 1 " test_top_aurora_inst/pcie_aurora_64_m_axis_tvalid $end
$var reg 1 # test_top_aurora_inst/pcie_aurora_64_m_axis_tready $end
$var reg 64 $ test_top_aurora_inst/pcie_aurora_64_m_axis_tdata [63:0] $end
$var reg 8 d test_top_aurora_inst/pcie_aurora_64_m_axis_tkeep [7:0] $end
$var reg 1 l test_top_aurora_inst/pcie_aurora_64_m_axis_tlast $end
$var reg 1 m test_top_aurora_inst/pcie_aurora_32_axis_tvalid $end
$var reg 1 n test_top_aurora_inst/pcie_aurora_32_axis_tready $end
$var reg 32 o test_top_aurora_inst/pcie_aurora_32_axis_tdata [31:0] $end
$var reg 4 1" test_top_aurora_inst/pcie_aurora_32_axis_tkeep [3:0] $end
$var reg 1 5" test_top_aurora_inst/pcie_aurora_32_axis_tlast $end
$var reg 1 6" _TRIGGER $end
$var reg 1 7" _WINDOW $end
$var reg 1 8" _GAP $end
$upscope $end
$enddefinitions $end
#0
$dumpvars
0"
1#
b0 $
b0 d
0l
0m
1n
b0 o
b0 1"
05"
06"
17"
08"
$end
#450
b10101000000000001010110111100101101010001011100010111 $
b11111111 d
#451
b10111100101101010001011100010111 o
b1111 1"
#512
1"
16"
#513
0#
b1110101110010000000000000000000000000000111100100000000000000000 $
1m
#514
1#
b101010000000000010101 o
#515
0#
b110110001100101000000000000000000000000000000010100011001101001 $
b111100100000000000000000 o
#516
1#
b11101011100100000000000000000000 o
#517
0#
b100110100011010011011010110000100011111111000000000000000000000 $
b10100011001101001 o
#518
1#
b1101100011001010000000000000000 o
#519
0#
b111001101110100111001111001010001101011011001010110110001101001 $
b11111111000000000000000000000 o
#520
1#
b1001101000110100110110101100001 o
#521
0#
b1110100010110111101011111110010110011111111001101000100010010000 $
b1101011011001010110110001101001 o
#522
1#
b1110011011101001110011110010100 o
#523
0#
b1000110111100101100011111010111110111110100001001110010010111000 $
b10011111111001101000100010010000 o
#524
1#
b11101000101101111010111111100101 o
#525
0#
b1001010010111001111011111011110011100100101111111010111011100110 $
b10111110100001001110010010111000 o
#526
1#
b10001101111001011000111110101111 o
#527
0#
b1110011110010100101010001110100110001100111010011000011110000111 $
b11100100101111111010111011100110 o
#528
1#
b10010100101110011110111110111100 o
#529
0#
b1010010011101000101101111010111110111011100110001110100010101110 $
b10001100111010011000011110000111 o
#530
1#
b11100111100101001010100011101001 o
#531
0#
b1011110010001100111001011001000011100101101111101000010011101111 $
b10111011100110001110100010101110 o
#532
1#
b10100100111010001011011110101111 o
#533
0#
b1110011110010100100111111110011010100110111001011000100010011001 $
b11100101101111101000010011101111 o
#534
1#
b10111100100011001110010110010000 o
#535
0#
b1000010011100101101110101001001110001000100100001110011110011010 $
b10100110111001011000100010011001 o
#536
1#
b11100111100101001001111111100110 o
#537
0#
b1000111110101111111010001010001011100100101110001000110111100101 $
b10001000100100001110011110011010 o
#538
1#
b10000100111001011011101010010011 o
#539
0#
b1110010110101110100000111110011110101011111001011000010110110110 $
b11100100101110001000110111100101 o
#540
1#
b10001111101011111110100010100010 o
#541
0#
b1001000111100101100110011010100010111100100101101110100010101111 $
b10101011111001011000010110110110 o
#542
1#
b11100101101011101000001111100111 o
#543
0#
b1000100010101011000011010000101011101000101011111000011011100101 $
b10111100100101101110100010101111 o
#544
1#
b10010001111001011001100110101000 o
#545
0#
b110110001101001011100110111010001101101011000010110101101100101 $
b11101000101011111000011011100101 o
#546
1#
b10001000101010110000110100001010 o
#547
0#
b1000100010010000111010001011011111100111100101001001111111100110 $
b1101101011000010110101101100101 o
#548
1#
b1101100011010010111001101110100 o
#549
0#
b1110010010111000100011011110010110101111111001011011111010000100 $
b11100111100101001001111111100110 o
#550
1#
b10001000100100001110100010110111 o
#551
0#
b1010111011100110100101001011100110001111101011111110010010111111 $
b10101111111001011011111010000100 o
#552
1#
b11100100101110001000110111100101 o
#553
0#
b1000011110000111111001111001010011101111101111001000110011101001 $
b10001111101011111110010010111111 o
#554
1#
b10101110111001101001010010111001 o
#555
0#
b1110100010101110101001001110100010101000111010011011101110011000 $
b11101111101111001000110011101001 o
#556
1#
b10000111100001111110011110010100 o
#557
0#
b1000010011101111101111001000110010110111101011111110010110111110 $
b10101000111010011011101110011000 o
#558
1#
b11101000101011101010010011101000 o
#559
0#
b1000100010011001111001111001010011100101100100001010011011100101 $
b10110111101011111110010110111110 o
#560
1#
b10000100111011111011110010001100 o
#561
0#
b1110011110011010100001001110010110011111111001101000100010010000 $
b11100101100100001010011011100101 o
#562
1#
b10001000100110011110011110010100 o
#563
0#
b1000110111100101100011111010111110111010100100111110010010111000 $
b10011111111001101000100010010000 o
#564
1#
b11100111100110101000010011100101 o
#565
0#
b1000010110110110111001011010111011101000101000101010101111100101 $
b10111010100100111110010010111000 o
#566
1#
b10001101111001011000111110101111 o
#567
0#
b1110100010101111100100011110010110000011111001111011110010010110 $
b11101000101000101010101111100101 o
#568
1#
b10000101101101101110010110101110 o
#569
0#
b1000011011100101100010001010101110011001101010001110100010101111 $
b10000011111001111011110010010110 o
#570
1#
b11101000101011111001000111100101 o
#571
0#
b110101101100101011011000110100100001101000010100110110101100001 $
b10011001101010001110100010101111 o
#572
1#
b10000110111001011000100010101011 o
#573
0#
b101010010001110101000110101010101110011011101001101001101110100 $
b1101000010100110110101100001 o
#574
1#
b1101011011001010110110001101001 o
#575
0#
b10111100100101010111010101110101 $
b1110011011101001101001101110100 o
#576
1#
b1010100100011101010001101010101 o
#577
0#
b0 $
b10111100100101010111010101110101 o
#578
1#
b0 o
#579
0#
#580
1#
#581
0#
#582
1#
#583
0#
#584
1#
#585
0#
#586
1#
#587
0#
#588
1#
#589
0#
#590
1#
#591
0#
#592
1#
#593
0#
#594
1#
#595
0#
#596
1#
#597
0#
#598
1#
#599
0#
#600
1#
#601
0#
#602
1#
#603
0#
#604
1#
#605
0#
#606
1#
#607
0#
#608
1#
#609
0#
#610
1#
#611
0#
#612
1#
#613
0#
#614
1#
#615
0#
#616
1#
#617
0#
#618
1#
#619
0#
#620
1#
#621
0#
#622
1#
#623
0#
#624
1#
#625
0#
#626
1#
#627
0#
#628
1#
#629
0#
#630
1#
#631
0#
#632
1#
#633
0#
#634
1#
#635
0#
#636
1#
#637
0#
1l
#638
1#
#639
0"
0#
#640
1#
15"
#641
0m
0n
05"
#642
1n
