.Xil/Vivado-109444-llc/hw_ila_data_1/zip_work/waveform.vcd
$date
        2025-Aug-14 16:08:15
$end
$version
        Vivado v2022.2 (64-bit)
$end
$timescale
        1ps
$end
$scope module dut $end
$var reg 4 " design_1_wrapper_inst/design_1_i/system_ila_0/inst/SLOT_0_JESD204_RX_BUS_rxcharisk_1 [3:0] $end
$var reg 32 & design_1_wrapper_inst/design_1_i/system_ila_0/inst/SLOT_0_JESD204_RX_BUS_rxdata_1 [31:0] $end
$var reg 4 F design_1_wrapper_inst/design_1_i/system_ila_0/inst/SLOT_0_JESD204_RX_BUS_rxdisperr_1 [3:0] $end
$var reg 4 J design_1_wrapper_inst/design_1_i/system_ila_0/inst/SLOT_0_JESD204_RX_BUS_rxnotintable_1 [3:0] $end
$var reg 1 N _TRIGGER $end
$var reg 1 O _WINDOW $end
$var reg 1 P _GAP $end
$upscope $end
$enddefinitions $end
#0
$dumpvars
b0 "
b11111101101011010101010110110010 &
b0 F
b0 J
0N
1O
0P
$end
#1
b101001011010000000110011101100 &
#2
b110010001000101111011101110000 &
#3
b11100111101010111010111011001100 &
#4
b11100000000100010101000011111000 &
#5
b10000111010110010100000101100100 &
#6
b1100010111111100001000011010101 &
#7
b10101000000111110100110000000101 &
#8
b100101100001001111000101000001 &
#9
b11000101010100101101111000011000 &
#10
b1001001011001111001110011101110 &
#11
b10110000111010011011011101010011 &
#12
b11000110001111011010000101110101 &
#13
b1110010001010111001011110001100 &
#14
b11100100000110100010111011111011 &
#15
b11010100110001010101100101011110 &
#16
b11011010010101111101110011100 &
#17
b11010101100010010101100110111100 &
#18
b111101110101111111000110100 &
#19
b1100111010010000001000110011100 &
#20
b11100101101001110101000110110001 &
#21
b11001010111000010101110011010000 &
#22
b10001101100110111011110101000100 &
#23
b11100000110101100010111101011001 &
#24
b10001100001101010100001011110110 &
#25
b11111001100011100010101110111101 &
#26
b1110110110101000001011000100110 &
#27
b10110100000101100011011011111001 &
#28
b10010110001100011011100101110111 &
#29
b110000110111110111011110100101 &
#30
b11001111100011111010001011000010 &
#31
b11001110110000111010001000100000 &
#32
b11010010001100111010011110001000 &
#33
b1100000111100101110111110101000 &
#34
b10000010111011110100000000101101 &
#35
b101111010001100000110101100001 &
#36
b1000111011110101110000110010100 &
#37
b1101101010011011001001000011101 &
#38
b1101100111000110110110110101111 &
#39
b1110101101110110110100101001011 &
#40
b10001111010110100011110110011011 &
#41
b11000010110000100010000011011111 &
#42
b100010001001111000111110001110 &
#43
b10100110111011101100111011010010 &
#44
b11111111010100001101010101100111 &
#45
b1010011000000000011100010 &
#46
b11100111100000000010110101000 &
#47
b10110010110000010100100000100000 &
#48
b11100010000111011010111110000101 &
#49
b10101101101010010100110101001100 &
#50
b1101000001111001110110011110101 &
#51
b101010001101110111001110001001 &
#52
b1101011101111111110110010 &
#53
b11001010110000000010011100100 &
#54
b11111010111000010101010011010000 &
#55
b1001101100110000001110101000100 &
#56
b11100000111001011010111101010001 &
#57
b10000100110010010100000101011100 &
#58
b1011001101111100001101110110101 &
#59
b11111110000111001101010110000101 &
#60
b11101101111000000010101001010 &
#61
b10101110001100010100110110001000 &
#62
b1010000110111001110011110100101 &
#63
b1001111101101001110001011001001 &
#64
b11000101100101011010000110111001 &
#65
b1000010000010111001111101111100 &
#66
b101011100110011000110000111011 &
#67
b11000111101101111101101010110 &
#68
b11100011101110010101000000110100 &
#69
b10110111011110010100100110010100 &
#70
b10101101011111011011001000010101 &
#71
b1100100001011001110111000001101 &
#72
b11011101011101110101101011101001 &
#73
b10100111101000101100111000110000 &
#74
b11100011101000001101000011001111 &
#75
b10110011100011010100100011000010 &
#76
b11111110111011011010101000101101 &
#77
b11111011010000000010101101100 &
#78
b10001010001000010100001101110000 &
#79
b10000111100111100011111011000101 &
#80
b1101001100100100001001101000111 &
#81
b110011011011110111011101101101 &
#82
b11111011010011111010101101100010 &
#83
b1010100110000000001100110100000 &
#84
b11010000001001111101110000001 &
#85
b11001001010100010101110000011000 &
#86
b10111001010110111011010011100100 &
#87
b1111010110101011001010011011001 &
#88
b1000100000000100001111011111111 &
#89
b1010000001011011001100000001101 &
#90
b1001101011000001110001011101111 &
#91
b11100001100001011010111101000001 &
#92
b10010101010010010100011000011100 &
#93
b1101101111110111110110110101 &
#94
b11101110000011000010110110000010 &
#95
b1011010111111010110010000101010 &
#96
b11001000001000001101110000001111 &
#97
b10101111100011111011001011000010 &
#98
b1001110110001001110001000100001 &
#99
b11010011010101011010011110011001 &
#100
b1 "
b1110000000010101110100011111100 &
1N
#101
b0 "
b11000011100011100010000000111101 &
#102
b111110110101111000101000100110 &
#103
b10100001011111000011011110010 &
#104
b11101010011010111101011100010 &
#105
b10101100111001010100110110101110 &
#106
b1110100110011001110100101011101 &
#107
b10011000111101100011101110101001 &
#108
b11100011101100110101000000110111 &
#109
b10110100111100010100100110101000 &
#110
b10010010110111011011100000100101 &
#111
b1100111101011110110111011001101 &
#112
b11100001010010110101000011100011 &
#113
b10011101100100010100010110111000 &
#114
b10100011010111110100111101100101 &
#115
b10110011100001001100100011000001 &
#116
b11111101010110011010101000011011 &
#117
b101010111110000000110011010100 &
#118
b1001011000101111110000010000 &
#119
b10110001101010000011011101001100 &
#120
b11011000001010011010010011110011 &
#121
b11101100001110101101001011110100 &
#122
b1111011010001010110101110011110 &
#123
b1010111010000100001100110011111 &
#124
b100110001011001111000110001101 &
#125
b11110101011100101101011011101000 &
#126
b10000110111001000011111000101110 &
#127
b1111100110110100001010101011011 &
#128
b111110110011100000101011011101 &
#129
b10000110110111000011110100100 &
#130
b1001110110111010110001011011010 &
#131
b11010111101000011010011011001111 &
#132
b100011100110101111000011000100 &
#133
b10111000110010101100101101011100 &
#134
b1101001100000011001001110111111 &
#135
b110100000100110111011000000111 &
#136
b10010111011111111011100101101010 &
#137
b101100000001110111001000000001 &
#138
b1110001011011101110100000010010 &
#139
b11010011010111100010011101100101 &
#140
b1110011100101101110100011000110 &
#141
b11111010001111100010101101110101 &
#142
b1000010000101000001111110000110 &
#143
b101110000101011000110101111001 &
#144
b1011110000001101110010101111110 &
#145
b10011001011111001100010000010101 &
#146
b11110100001110110101011000001011 &
#147
b10011011010100000011101110011000 &
#148
b11010001010010110101100011100011 &
#149
b1011101100100101110010110111000 &
#150
b10100011011011001100111101101101 &
#151
b10111011011110001100101101101011 &
#152
b1011101011010011001101000010011 &
#153
b10100010001100001100111101110111 &
#154
b10100000110010001100111110100011 &
#155
b10001001101010001100001110110011 &
#156
b10111000001010100011010011110011 &
#157
b1101100000000011001001011111111 &
#158
b1110000000100110110100000000111 &
#159
b11000111011110100010000101101011 &
#160
b1101101010001111001001000011110 &
#161
b1101111011010110110110110010011 &
#162
b1001010000110110110001101111011 &
#163
b10001100110110011011110101011011 &
#164
b11111110111111100010101011010101 &
#165
b11000000101000000010000000110 &
#166
b11100110000100010101000101111000 &
#167
b11111111010110010101010101100100 &
#168
b10111110000000000011010100 &
#169
b101001011000000000110000010000 &
#170
b110001100000101111011101000000 &
#171
b11010100001010111010011000001100 &
#172
b11100000100101111101011111000 &
#173
b10110111011010010100100101101100 &
#174
b10101010001111011011001101110101 &
#175
b10001011001111111110001101 &
#176
b100101011100000000111011101000 &
#177
b11000110110000101101111000100000 &
#178
b1110010001001111001011110001110 &
#179
b11100110111010100010111011010011 &
#180
b11111110000001010101010101111110 &
#181
b11001010010000000010000011100 &
#182
b11111101101000010101010110110000 &
#183
b101011100110000000110011000100 &
#184
b11000111000101111101101010000 &
#185
b11100101101010010101000101001100 &
#186
b11001000001110010101110011110100 &
#187
b10101011011110111011001110010100 &
#188
b11101010101001111101000011001 &
#189
b10101000000100010100110011111000 &
#190
b100111010111001111000101100101 &
#191
b11100011101100101101000011001000 &
#192
b10110100111001010100100110101110 &
#193
b10010100110011011011100101011101 &
#194
b11000111011110111101110101101 &
#195
b11100111010011010101000101100010 &
#196
b11100100111010010101000110101100 &
#197
b11010110001110010101100101110100 &
#198
b110011011110101111011110010100 &
#199
b11111101010010111010101000011100 &
#200
b101101100100000000110110111000 &
#201
b1100011010000101110111101100000 &
#202
b10110110001011110100100110001101 &
#203
b10110101010001011011011011100001 &
#204
b10001111010011011011110110011101 &
#205
b11000100111011100010000110101101 &
#206
b1010111010101111001100101100110 &
#207
b100000001010001111000011110011 &
#208
b10001100001000101100001011110000 &
#209
b11111111101000100010101011001111 &
#210
b11101001000000000011001110 &
#211
b110010110100000000100011011000 &
#212
b11100101010000111010111011100000 &
#213
b11001110001100010101110110001000 &
#214
b11010000110110111010011110100100 &
#215
b1001110110100101110001011011000 &
#216
b11010101011011011010011011101101 &
#217
b11011010101111111101101100 &
#218
b111010000010000000101101111100 &
#219
b1001011101000111001110000110000 &
#220
b10010011101110011011100011001011 &
#221
b1110111011111110110100110010101 &
#222
b10101100000010100011001000000011 &
#223
b1110011100000001110100000111111 &
#224
b11111100000001100010101000000001 &
#225
b110001011101000000100000010110 &
#226
b11010111100100111010011000111000 &
#227
b101011011100101111001101101000 &
#228
b11110111010101111101000101100 &
#229
b10011110000010010100010101111100 &
#230
b10011011101111110100010000110101 &
#231
b11010110000001110101100110000001 &
#232
b111001011000101111010000010000 &
#233
b1110001101010111001011101001100 &
#234
b11011000000110100010010011111011 &
#235
b11100100110001101101000101011110 &
#236
b11011011011101010101101110010110 &
#237
b11011111100010101101101000111100 &
#238
b10001111100001101100001000111110 &
#239
b11001101011100100010001000010111 &
#240
b11100110111001111010111000101110 &
#241
b11111100111000010101010101010000 &
#242
b110101100110000000100101000100 &
#243
b10000000111000111011111101010000 &
#244
b101101101100000000101001001 &
#245
b1001101101110000001110110110100 &
#246
b11101111011001011010110110010001 &
#247
b1001000110010010110001101011100 &
#248
b10101001101100011011001110110111 &
#249
b111100110111001111010110100101 &
#250
b111111101100111000101011001000 &
#251
b100111111111000000110101010 &
#252
b1010000000011000001100000000010 &
#253
b1000010111101001110000000101001 &
#254
b101011100101011000110000111001 &
#255
b11010000001101111101101111110 &
#256
b11001001011110010101110000010100 &
#257
b10110101011110111011011000010100 &
#258
b10000101010101011011111000011001 &
#259
b1001000000011100001110011111101 &
#260
b10100010110111011011000000100101 &
#261
b10100111101011001100111011001101 &
#262
b11100001011110001101000011101011 &
#263
b10010101011011010100011000010010 &
#264
b11011011110111111101101101 &
#265
b111011010011000000101101100010 &
#266
b1010100111100111001100110101000 &
#267
b10010111110001111100000101011 &
#268
b1101001011000010110110000010000 &
#269
b110001100100110111011101000111 &
#270
b11010011011111111010011101101010 &
#271
b1111100000000101110101000000000 &
#272
b110000001011100000100000001101 &
#273
b11001101010110111010001011100100 &
#274
b11101010110100111010110011011000 &
#275
b101011100010111111011101000 &
#276
b1000110110101000001111000100110 &
#277
b1110100000101011001011011111001 &
#278
b10010110000000100011100101111111 &
#279
b111000001000110111010000001111 &
#280
b1101111101111111001001011001010 &
#281
b1000110000010110110000110000011 &
#282
b1111011100110011001010000111011 &
#283
b1011000111100100001101101010111 &
#284
b11100010111011001101000000101101 &
#285
b10101111011111010100110101101010 &
#286
b1001100001011001110001000001101 &
#287
b11111101011101011010101011101001 &
#288
b100111100010000000111000111100 &
#289
b11101111101000101101001000110000 &
#290
b1000011101001010110000011001110 &
#291
b110010110000011000100011011111 &
#292
b11100010000101111010111110000110 &
#293
b10101110001000010100110101110000 &
#294
b1010111100111001110011011000101 &
#295
b101001101101001111001101001001 &
#296
b111101100100101111010110111000 &
#297
b100011011010111000111101101100 &
#298
b10111010000111101100101101111010 &
#299
b1001101100100011001110101000111 &
#300
b11100011010100011010111101100111 &
#301
b10110001010110010100100011100100 &
#302
b11011010111111011010010011010101 &
#303
b11001000001010101101110000001100 &
#304
b10101100000001111011001011111110 &
#305
b1110001011001001110100000010001 &
#306
b11010000110101100010011101011001 &
#307
b1001100001101101110001011110110 &
#308
b11111001101111011010101110110101 &
#309
b1111110001010000001010110001100 &
#310
b10100001001100000011011110001 &
#311
b11110111110010111101011010100 &
#312
b10011001011101010100010000010110 &
#313
b11110111100011110101011000111101 &
#314
b10101110110000000011001000100000 &
#315
b1010010000010001110011110000011 &
#316
b1101011101001001110110000110001 &
#317
b10010110101110111100011011001 &
#318
b1100100001011010110111011110010 &
#319
b11011101011000110101101011101111 &
#320
b10100001101100101100111101001000 &
#321
b10011100111000001100010110101111 &
#322
b10110101100010110100100101000011 &
#323
b10000111100101011011111000111001 &
#324
b1101010000011100001001101111101 &
#325
b1010110111110111110000100101 &
#326
b10000111100011000011111011000010 &
#327
b1101110111110100001001000101011 &
#328
b1011001010011110110010000011101 &
#329
b11111100110010001101010110100011 &
#330
b111001101011000000101110110010 &
#331
b1111001011100111001010011101000 &
#332
b1110110111110100001011000101011 &
#333
b10111001010011100011010000011101 &
#334
b1111100110100011001010110100111 &
#335
b111101010100100000101011100111 &
#336
b101001011010111000110011101100 &
#337
b110010000111101111011101111010 &
#338
b11101101100110111010110101000100 &
#339
b1100000110100010110111101011000 &
#340
b10001101010100110100001011100111 &
#341
b11101001011101100010110011101001 &
#342
b110111101101010111011000110110 &
#343
b10100101100001111011000110111110 &
#344
b11000101011001001101111000010001 &
#345
b1000000110111111001111101011010 &
#346
b1111100010011000001011000011 &
#347
b11001111101101000010001000110110 &
#348
b11000101100111111010000110111010 &
#349
b1000001100000111001111101000000 &
#350
b10100001110011000011000001011 &
#351
b11011011101010111101110010110 &
#352
b11011111100001010101101000111110 &
#353
b10001101010010101100001000011100 &
#354
b11101101100000100010110110111111 &
#355
b1100100001001010110111000001110 &
#356
b11011110110000110101101011011111 &
#357
b10010010001100101100011110001000 &
#358
b1100000111000110110111110101111 &
#359
b10000101101110110100000101001011 &
#360
b1001111010101100001110110011001 &
#361
b11000000001111011010000011110101 &
#362
b1010001010111000001110001100 &
#363
b10000100000111000011111011111010 &
#364
b1010101101110100001100101001011 &
#365
b1111010011001111110110011101 &
#366
b11000100111100000010000110101000 &
#367
b1010010110011111001100000100010 &
#368
b1100000110010001110111110100011 &
#369
b10001001101001110100001110110001 &
#370
b10111010111001100011010011010001 &
#371
b1001100111100011001110101010111 &
#372
b11110010110100011010100000100111 &
#373
b11100101010110000010111011100100 &
#374
b11001010111011010101110011010010 &
#375
b10001111011010111011110101101100 &
#376
b11001010000101100010001101111001 &
#377
b10001110001101111011110101110110 &
#378
b11010001101001100010011110110001 &
#379
b1011010111101101110010011010110 &
#380
b11001011101111001101110000110101 &
#381
b10010110001111111011100110001010 &
#382
b110010000001110111011110000001 &
#383
b11101001011011111010110000010010 &
#384
b110011010000010111011101100000 &
#385
b11110110000101111010100110000110 &
#386
b10111110001000000011010101110000 &
#387
b10111100010011000011011000011 &
#388
b101111101101010111001000110110 &
#389
b1000101100001101110000110111110 &
#390
b1000101011111011001111000010101 &
#391
b1000100001000011001111000001111 &
#392
b1011111100100011001101011000111 &
#393
b10001011010100001100001101100111 &
#394
b10010001010010100011100011100011 &
#395
b1011101100000110110010110111111 &
#396
b10100100001110001100111000001011 &
#397
b11011011011010001101101110010011 &
#398
b11011010001011101101101101110010 &
#399
b11000101010101101101111011100110 &
#400
b1001000001101111001110011110110 &
#401
b10101001101010011011001110110011 &
#402
b111000001111001111010011110101 &
#403
b1101010001100111001001110001000 &
#404
b111110110111111110101011 &
#405
b1010111000000000000011010 &
#406
b11011101100000000010011001000 &
#407
b11010100110000010101100110100000 &
#408
b11010000110101111101110000100 &
#409
b11001100110010010101110101011100 &
#410
b11111001101110111010101110110100 &
#411
b1111111010100000001010110011000 &
#412
b1010001100000000011100001 &
#413
b11111011110000000010110010100 &
#414
b10001101011000010100001000010000 &
#415
b11100001100111100010111101000101 &
#416
b10010001100101010100011101000110 &
#417
b1010010000011110110011101111101 &
#418
b1101010110010001110110000100011 &
#419
b1101001110111111110110001 &
#420
b11010111011000000010011010010 &
#421
b11001111011100010101110101101000 &
#422
b11001110110110111010001000100100 &
#423
b11010110110100111010011011011000 &
#424
b110101011100101111011011101000 &
#425
b10000110111010111011111000101100 &
#426
b1111110000101100001010101111001 &
#427
b11110001111100000010101110101 &
#428
b10010010000110010100011110000100 &
#429
b1101100111111110110110101010101 &
#430
b1110000000010110110100000000011 &
#431
b11000011100110100010000000111011 &
#432
b111000110001111000101101011110 &
#433
b1101011011011111001001110010010 &
#434
b11011010010110111101101100011 &
#435
b11010101100111010101100110111010 &
#436
b1101010101111111101001100 &
#437
b11000000010000000010011111100 &
#438
b11100011101000010101000000110000 &
#439
b10110011100110010100100011000100 &
#440
b11111000111111011010101101010101 &
#441
b1100000001010000001000000001100 &
#442
b10001100001001110100001011110001 &
#443
b11111110111001100010101011010001 &
#444
b11100111101000000010101010110 &
#445
b10110011100100010100100000111000 &
#446
b11111011010111011010101101100101 &
#447
b1010011101010000001100011001100 &
#448
b1110000001001001110100011110001 &
#449
b11001110110101100010001011011001 &
#450
b11010100001101111010011011110110 &
#451
b11001101000101111101110110000 &
#452
b11111011101010010101010011001100 &
#453
b1010000001110000001100011110100 &
#454
b1001011011001001110001110010001 &
#455
b10011000110101011011101101011001 &
#456
b11101100000011110101001011111101 &
#457
b1110010110000010110100000100000 &
#458
b11100010000100100010111110000111 &
#459
b10101111011001010100110101101110 &
#460
b1001000110011001110001101011101 &
#461
b10101000111101011011001110101001 &
#462
b100011100011001111000000111101 &
#463
b10111110111100101100101000101000 &
#464
b11010111000011000010000101111 &
#465
b11001101100101010101110101000110 &
#466
b11100010000010111010111101111100 &
#467
b10101011100100010100110000111000 &
#468
b11011010111001111101101100101 &
#469
b11010011101100010101100011001000 &
#470
b1110100110110101110100110100100 &
#471
b10011110110011100011101011011101 &
#472
b10010000110100110100011110100111 &
#473
b1001101011101110110001011101001 &
#474
b11100111101010011010111000110011 &
#475
b11100000001110010101000011110100 &
#476
b10001011011110010100001110010100 &
#477
b10011101011111100011101000010101 &
#478
b10100100000100110100111000000111 &
#479
b11010111011101001101100101101001 &
#480
b101111100111101111001000111010 &
#481
b1001001100110101110001101000100 &
#482
b10110000110011011011011101011101 &
#483
b11001000111011011010001110101101 &
#484
b10100111011010111011000101101100 &
#485
b11101010000101001101001101111001 &
#486
b1110000111010111110101111010 &
#487
b11011101101001000010010101001110 &
#488
b10101010110111101100110011011010 &
#489
b111100100001111111011000111 &
#490
b1101011010000000001001101100000 &
#491
b10110000001110111100110000001 &
#492
b111001011011010111010000010010 &
#493
b1110011011001111001011101101110 &
#494
b11111000111010100010101101010011 &
#495
b1100110000001000001000101111110 &
#496
b11111001010101110101010000011001 &
#497
b1111000001000000001010011110000 &
#498
b1101111100001100001001011000001 &
#499
b1001101011111110110001000010101 &
#500
b11100100000010011010111000000011 &
#501
b11010011101110010101100000110100 &
#502
b1110111011110101110100110010100 &
#503
b10101101010011100011001000011101 &
#504
b1101100110100001110110110100111 &
#505
b1111101010001110110101011100001 &
#506
b101111011010100000110110010011 &
#507
b1001010000010101110001101111100 &
#508
b10001011100011011011110000111101 &
#509
b10011110111011100011101000101101 &
#510
b10011111010100110100010101100111 &
#511
b10000001011101110100000011101001 &
#512
b10111101001100000011000110001 &
#513
b100010111110010111000011010100 &
#514
b10101001011101101100110000010110 &
#515
b110111101100001111011000110111 &
#516
b10100100110000111011000110100000 &
#517
b11011010001101001101101110001001 &
#518
b11000001100111101101111110111010 &
#519
b10001100101111000011101000110 &
#520
b1010010001011010110011101110010 &
#521
b1100101011000001110111011101111 &
#522
b11000001100001110101111101000001 &
#523
b10101011000111000011000010000 &
#524
b1101111010111111101001010 &
#525
b11110001001000000010110001110 &
#526
b10010110110100010100011011011000 &
#527
b110101010111110111011011100101 &
#528
b10001011100011111011110011000010 &
#529
b10011110110001100011101000100001 &
#530
b10010011011100110100011110010111 &
#531
b1111110111101110110101000101001 &
#532
b11011101010100000010000110011 &
#533
b11010000000010010101100011111100 &
#534
b1000011101110101110000000110100 &
#535
b110111010011011000100110011101 &
#536
b10100100111001111011000110101110 &
#537
b11010100111001001101100101010001 &
#538
b10100110111101111100101011010 &
#539
b11111100110010111101011000100 &
#540
b10001000111101010100001101010110 &
#541
b10100011100011100011000000111101 &
#542
b10111110110100001100101000100111 &
#543
b10101010010011000011011100011 &
#544
b1101101101010111110110110110 &
#545
b11101101100001000010110110111110 &
#546
b1100101010111010110111000011010 &
#547
b11001011101000110101110011001111 &
#548
b10010011101100111011100011001000 &
#549
b1110100111101110110100110101001 &
#550
b10010011101010100011100000110011 &
#551
b1110000000000110110100011111111 &
#552
b11000000001110100010000000001011 &
#553
b1011010001111000001110011110 &
#554
b10010111011011000011100110010010 &
#555
b101011011110110111001101101011 &
#556
b11101010111101111101000011010 &
#557
b10101011100110010100110011000100 &
#558
b11000111111001111101101010101 &
#559
b11100000001100010101000000001000 &
#560
b10001000110110010100001110100100 &
#561
b10101110111111100011001011010101 &
#562
b1011000000100001110010000000111 &
#563
b11100111010001001101000101100001 &
#564
b11100111010111010101000110011010 &
#565
b11100011101010010101000011001100 &
#566
b10110000001110010100100011110100 &
#567
b11001011011111011010001110010101 &
#568
b10011100001010111011101000001100 &
#569
b10111100000101110100101011111001 &
#570
b110110001001011000100101110001 &
#571
b10110110110001111011011011011110 &
#572
b10110011011001011011011110010001 &
#573
b11111000110011011010101101011101 &
#574
b1101000111010000001001110101100 &
#575
b100110001001110111000101110001 &
#576
b11110110111011101101011011010010 &
#577
b10111111010101000011010101100110 &
#578
b110011000000011111011 &
#579
b100111101000000000101010110 &
#580
b1010011100100000001100000111000 &
#581
b1111011010001001110101101100001 &
#582
b1010111010101100001100110011001 &
#583
b100000001111001111000011110101 &
#584
b10001010001100101100001110001000 &
#585
b10000000111000100011111110101111 &
#586
b101101000100000000101001111 &
#587
b1001011101010000001110011001100 &
#588
b10010000001001011011100011110001 &
#589
b1001110110011110110001011011101 &
#590
b11010000110010011010011110100011 &
#591
b1001001101110101110001110110100 &
#592
b10111111010011011011010110011101 &
#593
b100111011011000000110101101 &
#594
b1010111011001000001100101101110 &
#595
b101000110101001111001101011001 &
#596
b101100000100101111001011111000 &
#597
b1110111011010101110100101101100 &
#598
b10101010000011100011001101111101 &
#599
b1010110100001111110000100111 &
#600
b10000101010000000011111011100000 &
#601
b1001110000010100001110110000011 &
#602
b11011011100011011010010000111101 &
#603
b11011110111010101101101000101100 &
#604
b10011110000001101100010101111110 &
#605
b10011001011100110100010000010111 &
#606
b11110110111101110101011000101001 &
#607
b10111011101000000011010000110000 &
#608
b1010011100010011001100011000011 &
#609
b1111111101100001110101000110111 &
#610
b100110001100000000110100001 &
#611
b1011011011110000001101110010100 &
#612
b11011101011001001101101000010001 &
#613
b10100000110111101100111101011010 &
#614
b10001111100100001100001011000111 &
#615
b11001011010010100010001101100011 &
#616
b10010101100001111011100110111110 &
#617
b101011001110111111000010001 &
#618
b1000000111011000001111101010010 &
#619
b111011101011000000101101001 &
#620
b1101111100001000001001000111110 &
#621
b1001101010101110110001000011001 &
#622
b11101000001010011010110011110011 &
#623
b101100001110010111001011110100 &
#624
b1111011011101101110101110010110 &
#625
b1011111101111100001101000110101 &
#626
b10000110000111001100000110000101 &
#627
b1111101101110100001010101001011 &
#628
b101111010011100000110110011101 &
#629
b1000100110110101110000110100100 &
#630
b1011110110011011001101011011101 &
#631
b10010000111000001100011110101111 &
#632
b1000101100010110110000101000011 &
#633
b1000111100110011001111000111011 &
#634
b1101000111100011001001101010111 &
#635
b100010110100110111000000100111 &
#636
b10100101011111101100111011101010 &
#637
b11000100000100001101111000000111 &
#638
b1010111010011111001100101100010 &
#639
b100100110010001111000110100011 &
#640
b11011001101000101101101110110000 &
#641
b11111011101001101101010011001110 &
#642
b1010010111101000001100011010110 &
#643
b1101011100101001110110000111001 &
#644
b11010000101110111101101111001 &
#645
b11001110001011010101110101110010 &
#646
b11010101011010111010011011101100 &
#647
b10000100101111111101111000 &
#648
b101111011010000000110101101100 &
#649
b1001010001000101110001101110000 &
#650
b10000111101011011011111011001101 &
#651
b1100001011011100001000011101101 &
#652
b10010011010111110100011101100101 &
#653
b1110011100001110110100011000001 &
#654
b11111101011010100010101000010011 &
#655
b100010000001000000111101111110 &
#656
b10101001010100101100110000011000 &
#657
b111001011000001111010011101111 &
#658
b1110001100000111001011101000000 &
#659
b11010100001110100010011000001011 &
#660
b11011010001101111101110011110 &
#661
b11010111011110010101100110010100 &
#662
b101101011110101111001000010100 &
#663
b1100101010010101110111000011100 &
#664
b11001101100011110101110110111101 &
#665
b11100110110000111010111000100000 &
#666
b11110010001100010101011110001000 &
#667
b11100000110110000010111110100100 &
#668
b10001110111011010100001011010010 &
#669
b11011111011011100010010101101101 &
#670
b10001011010101101100001101100110 &
#671
b10010000001100100011100011110111 &
#672
b1001000111000110110001110101111 &
#673
b10100101101110011011000101001011 &
#674
b11001111011111001101110110010101 &
#675
b11001100001111111010001000001010 &
#676
b11111010000000111010101110000000 &
#677
b1001000001100000001110000001000 &
#678
b10101000110001011011001110100001 &
#679
b101011010011001111001110011101 &
#680
b10100111100101111100110101000 &
#681
b10010111010010111100000101100 &
#682
b1101110001101010110110101110110 &
#683
b1010001100000110110011110111111 &
#684
b1010100001110001110011000001011 &
#685
b11011011001001111101110010001 &
#686
b11011000110100010101101101011000 &
#687
b11101101010110101101001011100100 &
#688
b1101010110001010110110011011110 &
#689
b11010000110111111110011111 &
#690
b110110001111000000100110001010 &
#691
b10110010001100111011011110001000 &
#692
b11100000111101011010111110101001 &
#693
b10000011100010010100000000111100 &
#694
b111111101111100000101000110101 &
#695
b110000110111000000110000100 &
#696
b1111100110111000001010101011010 &
#697
b111111101101100000101011001001 &
#698
b101101110111000000110110100 &
#699
b1001111010111000001110110011010 &
#700
b11000011101101011010000011001001 &
#701
b110101100010111000100110111100 &
#702
b10000111100111111011111000111010 &
#703
b1101001100001100001001101000001 &
#704
b110101011111110111011000010101 &
#705
b10000100000011111011111000000010 &
#706
b1010010110001100001100000100001 &
#707
b1100011011111001110111110010101 &
#708
b10111100001101110100101000001001 &
#709
b111001101001011000101110110001 &
#710
b1111010110001111001010011011110 &
#711
b1000011011010100001111110010011 &
#712
b111010000011011000101101111101 &
#713
b1001010111001111001110000101110 &
#714
b10001100111010011011110101010011 &
#715
b11110110001111100010100101110101 &
#716
b10110010000101000011011110000110 &
#717
b11101110000110011010110101111011 &
#718
b1011100111110010110010101010100 &
#719
b10110001011100001100100000010111 &
#720
b11010110110010011010011000100011 &
#721
b110001101110101111011110110100 &
#722
b11011111010010111010010110011100 &
#723
b10000101100100101100000110111000 &
#724
b1000011011000100001111101101111 &
#725
b111001101011011000101101001101 &
#726
b1111001011001111001010011101110 &
#727
b1110000111010100001011101010011 &
#728
b11000110000011100010000101111101 &
#729
b1111010110101111001010000100110 &
#730
b1000100001010100001111011110011 &
#731
b1011100000011011001101011111101 &
#732
b10110010111000001100100000101111 &
#733
b11101101100010011010110101000011 &
#734
b1100111101110010110111000110100 &
#735
b11100111011100110101000110010111 &
#736
b11101110111100010101001000101000 &
#737
b1011010110110010110010000100100 &
#738
b11000110111100001101111011010111 &
#739
b1111010110011111001010000100010 &
#740
b1000000110010100001111110100011 &
#741
b1001100011011000001110111101 &
#742
b10110110111001000011011000101110 &
#743
b10111100110110011011010101011011 &
#744
b111110111111011000101011010101 &
#745
b11000001001111000010000001110 &
#746
b11101110111011010101001011010010 &
#747
b1011111011010010110010101101100 &
#748
b10001010001100001100001101110111 &
#749
b10000000110010100011111110100011 &
#750
b1001100000100000001110111111 &
#751
b10110100001010000011011000001100 &
#752
b10011100001010011011101011110011 &
#753
b10111100001111110100101011110101 &
#754
b111010000001011000101110000001 &
#755
b1001001010001111001110000011110 &
#756
b10111111011010011011010110010011 &
#757
b1010001111011000001101110101 &
#758
b10000010001001000011111110001110 &
#759
b100110110110100000111011011011 &
#760
b11110110110010101101011011011100 &
#761
b10110001100001000011011110111110 &
#762
b11010101010110011010011000011011 &
#763
b1010111110101111110011010100 &
#764
b10001001010010000011110000011100 &
#765
b10111101101010100011010110110011 &
#766
b101000000000011000110011111111 &
#767
b100000000101101111000000000110 &
#768
b10000110001110101100000101110100 &
#769
b1110011010000100001011110011111 &
#770
b11110110001011100010100110001101 &
#771
b10110101010101000011011011100110 &
#772
b10001000000110011011110011111011 &
#773
b10100100111111100011000101010101 &
#774
b11010000000100001101100000000111 &
#775
b1000111010011101110000101100010 &
#776
b1100100110111011001000110100101 &
#777
b11011111101000110101101011001111 &
#778
b10000011101100101100000011001000 &
#779
b110100111000100000100110101111 &
#780
b10010101101010111011100101001100 &
#781
b1000000101110111110011111001 &
#782
b10100110001011000011000101110010 &
#783
b11110101011110001101011011101011 &
#784
b10000101011011000011111000010010 &
#785
b1000011011110100001111101101011 &
#786
b111101010011011000101000011101 &
#787
b101100111001111000110110101110 &
#788
b1110100111011101110100101010010 &
#789
b10010111010111100011100101100101 &
#790
b100011100100110111000011000111 &
#791
b10111011011111101100101101101010 &
#792
b1011100000100011001101000000111 &
#793
b10110111010100001100100101100111 &
#794
b10100001010010011011000011100011 &
#795
b10011101101111001100010110110101 &
#796
b10101110001110110100110110001011 &
#797
b1010011010101001110011110011001 &
#798
b1110000000101001110100011111001 &
#799
b11000110000101100010000101111001 &
#800
b1111110001101111001010101110110 &
#801
b10001101010100000011110110011 &
#802
b1 "
b1011000000010010110010011111100 &
#803
b0 "
b11100011101100001101000000110111 &
#804
b10110100110011010100100110100010 &
#805
b10011000111011011011101110101101 &
#806
b11100111011011110101000101101101 &
#807
b11101011010000010101001101100000 &
#808
b10110000110010111100110000100 &
#809
b111100111101010111010101010110 &
#810
b110011100001111000100000111110 &
#811
b11111101011011111010101000010010 &
#812
b100011010000000000111101100000 &
#813
b10110110000000101100100110000000 &
#814
b10111000001000011011010000001111 &
#815
b1101111100111011001001011000101 &
#816
b1001001101000110110001101001111 &
