.Xil/Vivado-109444-llc/hw_ila_data_3/zip_work/waveform.vcd
$date
        2025-Aug-14 16:00:00
$end
$version
        Vivado v2022.2 (64-bit)
$end
$timescale
        1ps
$end
$scope module dut $end
$var reg 4 " design_1_wrapper_inst/design_1_i/system_ila_2/inst/SLOT_0_JESD204_TX_BUS_txcharisk_1 [3:0] $end
$var reg 32 & design_1_wrapper_inst/design_1_i/system_ila_2/inst/SLOT_0_JESD204_TX_BUS_txdata_1 [31:0] $end
$var reg 1 F _TRIGGER $end
$var reg 1 G _WINDOW $end
$var reg 1 H _GAP $end
$upscope $end
$enddefinitions $end
#0
$dumpvars
b0 "
b111111010011001111010110011101 &
0F
1G
0H
$end
#1
b100111100111000000110101000 &
#2
b1010010111111000001100000101010 &
#3
b1101000001101001110110000001001 &
#4
b101001100101110111001110111001 &
#5
b110010001011101111011101110010 &
#6
b11100101010110111010111011100100 &
#7
b11001010110100010101110011011000 &
#8
b10000101010110111011111011100100 &
#9
b1001010110101100001110011011001 &
#10
b10000100001111011011111011110101 &
#11
b1011010001011100001101110001101 &
#12
b11000101010111001101111011100101 &
#13
b1001011101111111001110011001010 &
#14
b10010110000010011011100110000011 &
#15
b111011101111110111010000110101 &
#16
b1010110000011111001100110000010 &
#17
b111010110010001111010000100011 &
#18
b1000001101000111001111110110000 &
#19
b11011101110011000010011001011 &
#20
b11010111011101010101100110010110 &
#21
b101111100010101111001000111100 &
#22
b1001111100010101110001000111100 &
#23
b11001111100011011010001000111101 &
#24
b11001110111010111010001000101100 &
#25
b11011110000100111010010101111000 &
#26
b10011111011100101100010101101000 &
#27
b10001110111000110100001000101111 &
#28
b11011101101101100010010101001001 &
#29
b10101101101101101100110110110110 &
#30
b1101101101100001110110110110111 &
#31
b1101100110001110110110110100001 &
#32
b1111011011010110110101110010011 &
#33
b1011010000110100001101101111011 &
#34
b11001100110011001101110101011101 &
#35
b11111000111111111010101110101010 &
#36
b1100000000000000001000000000000 &
#37
b10000000000001110100000000000001 &
#38
b1011001100000000000010001 &
#39
b10000111110000000011101010100 &
#40
b1000001011000010110000000010000 &
#41
b10001100100011000011101000111 &
#42
b1010011010101010110011101100110 &
#43
b1110000000000001110100011111111 &
#44
b11000000000001100010000000000001 &
#45
b1011101111000000000010110 &
#46
b10111101011000000011000110010 &
#47
b100001011100010111000011101000 &
#48
b10010110110101101100011000100110 &
#49
b110100001100110111011011110111 &
#50
b10011000111111111011101110101010 &
#51
b11100000000001110101000000000001 &
#52
b10000001011000010100000000010000 &
#53
b10001100111100000011101000101 &
#54
b1010001100110010110011101000100 &
#55
b1010000111100001110011101010111 &
#56
b1000010110001001110000000100001 &
#57
b100011010101011000111110011001 &
#58
b10110000000001101100100011111110 &
#59
b11000001011100011010000000010111 &
#60
b10110110110111000011000100100 &
#61
b110110110111010111011011011010 &
#62
b10110111101001111011011011001110 &
#63
b10100010111001011011000011010001 &
#64
b10101100110011001100110101011101 &
#65
b1111000111110001110101110101011 &
#66
b1100001011001100001000000010001 &
#67
b10010000111111110100011101010101 &
#68
b1000000000001110110000000000001 &
#69
b1011010011000000000010011 &
#70
b10010001101000000011101110110 &
#71
b1100001100100010110111110111000 &
#72
b10010011010100110100011101100111 &
#73
b1110001011101110110100011101001 &
#74
b11010111101010100010011000110011 &
#75
b100000000001101111000011111110 &
#76
b10000001011110101100000000010100 &
#77
b10101010000100000011000011111 &
#78
b1110001010010111110110001100 &
#79
b11010100001101000010011011110110 &
#80
b11001100111101111101110111010 &
#81
b11110001100110010101011101000100 &
#82
b11010000111110000010011101010100 &
#83
b1000001011011101110000000010010 &
#84
b10011010111011000011101100101 &
#85
b1110011101001010110100011001110 &
#86
b11110010110000100010100011011111 &
#87
b11100010001001000010111110001110 &
#88
b10100110110111010100111011011010 &
#89
b11110111101011001101011011001101 &
#90
b10100001011111000011000011101010 &
#91
b10010100001110001100011000001011 &
#92
b11011011010110111101110010011 &
#93
b11011010000111010101101101111010 &
#94
b11001101101010101101110101001100 &
#95
b11101000000001111010110011111110 &
#96
b100001011000010111000000010000 &
#97
b10010001100101101100011101000110 &
#98
b1010010001100110110011101110111 &
#99
b1100000111110001110111110101011 &
#100
b10000001011001110100000000010001 &
1F
#101
b10000111001100000011101010001 &
#102
b1000100111110010110000101010100 &
#103
b1010001011100011001100000010111 &
#104
b1010110110100001110011000100111 &
#105
b110101010001001111011011100001 &
#106
b10001111010100111011110110011000 &
#107
b11000001011101100010000011101001 &
#108
b10111101101111000011000110110 &
#109
b100101101011010111000110110010 &
#110
b11001001011001101101110011101110 &
#111
b10110000111101111011011101010110 &
#112
b11000011101001011010000000110001 &
#113
b110010110010111000100011011100 &
#114
b11100001100111111010111110111010 &
#115
b10010001100000010100011101000000 &
#116
b1010100000111110110011000000101 &
#117
b10101100010001111100101000011 &
#118
b111101000010111111000110000 &
#119
b1100011100101000001000011000110 &
#120
b10111010000101110100101101111001 &
#121
b1001110001001011001110101110001 &
#122
b11010110110000011010011011011111 &
#123
b110010000110101111011110000100 &
#124
b11101100110010111010110101011100 &
#125
b1111001100100010110101110111000 &
#126
b1110011010100100001011101100111 &
#127
b11110001011011100010100011101101 &
#128
b11010011010101000010011101100110 &
#129
b1110000000111101110100011111010 &
#130
b11000101100111100010000101000101 &
#131
b1000001100101111001111101000110 &
#132
b10010001010011000011101110011 &
#133
b1100100001101010110111011110110 &
#134
b11011001100000110101101110111111 &
#135
b11110100001100101101011000001000 &
#136
b10011000111001000011101110101110 &
#137
b11100100110110110101000101011011 &
#138
b11011110110100010101101011011000 &
#139
b10010101010110101100011011100100 &
#140
b1010110000110111110011011111 &
#141
b10000010001111000011111110001010 &
#142
b100010001110100000111110001011 &
#143
b10100011010010101100111110011100 &
#144
b10110101100000001100100110111111 &
#145
b10000100000010011011111000000011 &
#146
b1010011101111100001100000110101 &
#147
b1110110000111001110100110000101 &
#148
b10111101101101100011010101001001 &
#149
b101101101100011000110110110111 &
#150
b1101100110101101110110110100110 &
#151
b1111100001111110110101011110101 &
#152
b111010000010100000101110000011 &
#153
b1001011100010111001110000111100 &
#154
b10011111100110011011101000111011 &
#155
b10001000111111110100001101010101 &
#156
b10100000000001100011000000000001 &
#157
b10000001011100001100000000010111 &
#158
b10110110010100000011000100011 &
#159
b110001100010010111011110111100 &
#160
b11010111101101111010011000110110 &
#161
b100101101000101111000110110000 &
#162
b11001011101010101101110011001100 &
#163
b10010000000001111011100011111110 &
#164
b1000001011001110110000000010001 &
#165
b10000111010011000011101010011 &
#166
b1000110001101010110000101110110 &
#167
b1110001100000011001011110111111 &
#168
b11010100000100100010011000000111 &
#169
b10111011001101111100101101110 &
#170
b101000111110010111001101010100 &
#171
b100001011101101111000000010110 &
#172
b10010111101110101100011000110100 &
#173
b100111010000110111000110011111 &
#174
b11100110001111101101000110001010 &
#175
b11110010000101010101011110000110 &
#176
b11101110000010000010110101111100 &
#177
b1011011101011010110010000110010 &
#178
b11010001011000001101100011101111 &
#179
b1010001100011101110011101000010 &
#180
b1010110110111001110011000100101 &
#181
b110111101101001111011011001001 &
#182
b10100101100100111011000110111000 &
#183
b11000011011101001101111101101001 &
#184
b111111100111111000101000111010 &
#185
b1001100011111000001101000010 &
#186
b10110110110011000011011000100010 &
#187
b10110000111110011011011110101011 &
#188
b11000001011111011010000000010101 &
#189
b10100001010111000011000001100 &
#190
b11100000111010111101011111010 &
#191
b10110101101001010100100101001110 &
#192
b10001010110011011011110011011101 &
#193
b10000000111011100011111110101101 &
#194
b111010100100000000101100111 &
#195
b1100001011010000001000011101100 &
#196
b10010010001001110100011101110001 &
#197
b1100110111001110110111011010001 &
#198
b11111100111010110101010101010011 &
#199
b110110000100000000100101111000 &
#200
b10111111010000111011010101100000 &
#201
b110001101011000000110001001 &
#202
b1110001100001000001011110111110 &
#203
b11010101010101100010011000011001 &
#204
b1000001101101111110011110110 &
#205
b10101001101110000011001110110100 &
#206
b111111011010001111010110010011 &
#207
b1010001000111000001101110000 &
#208
b10000111101111000011111011001010 &
#209
b1100110001110100001000110001011 &
#210
b11110011010011110101011110011101 &
#211
b11110100110000000010100110100000 &
#212
b10011010000011000011101110000010 &
#213
b11001010111110110101110000101011 &
#214
b10001001010100111011110000011000 &
#215
b10111001011101100011010011101001 &
#216
b1110111101100011001011000110111 &
#217
b10100100110100100011000110100111 &
#218
b11011101011000001101101011101111 &
#219
b10100001100011101100111101000010 &
#220
b10010110110100001100011000100111 &
#221
b110101010010110111011011100011 &
#222
b10001101100111111011110110111010 &
#223
b11100001100001100010111101000001 &
#224
b10010101011101010100011000010110 &
#225
b111100011110111111000111101 &
#226
b1101110110011000001001000100010 &
#227
b1010000111101110110011110101001 &
#228
b1000011101010001110000000110011 &
#229
b110000001001011000100011110001 &
#230
b11001110110001111010001011011110 &
#231
b11010011011000111010011110010000 &
#232
b1111001101100101110101101001000 &
#233
b1111100111011100001010110101101 &
#234
b110111010111100000100101100101 &
#235
b10100011100110111011000011000100 &
#236
b10111000110101001100101101011001 &
#237
b1101100000110011001001011111011 &
#238
b1110100111100110110100101010111 &
#239
b10010010111110100011100000101011 &
#240
b1101001010000110110110000011111 &
#241
b111110001110110111010110001011 &
#242
b10011010111111000011110011010 &
#243
b1110011100011010110100011000010 &
#244
b11111110111000100010101000101111 &
#245
b11101101001000000010101001110 &
#246
b10101010110100010100110011011000 &
#247
b101010111001111111011100101 &
#248
b1001011101100000001110011001000 &
#249
b10010100110001011011100110100001 &
#250
b11011010011110111101110011101 &
#251
b11010100110011010101100110100010 &
#252
b11000111010101111101110101100 &
#253
b11100110000010010101000101111100 &
#254
b11111011101110010101010000110100 &
#255
b1010111011110000001100110010100 &
#256
b101101011001001111001000010001 &
#257
b1100000110100101110111101011000 &
#258
b10001101011011110100001011101101 &
#259
b11100011010001100010111101100001 &
#260
b10110111011101010100100110010110 &
#261
b10101111100011011011001000111101 &
#262
b1001110111011001110001000101101 &
#263
b11011111011101011010010101101001 &
#264
b10001111100010101100001000111100 &
#265
b11001111100000100010001000111111 &
#266
b11001100001001111010001000001110 &
#267
b11111110111000111010101011010000 &
#268
b11101101100000000010101001000 &
#269
b10101100110000010100110110100000 &
#270
b1111010000111001110101110000101 &
#271
b1001101101101100001110101001001 &
#272
b11101101101111011010110110110101 &
#273
b1101110001010010110110110001100 &
#274
b1010100001100110110011011110111 &
#275
b11000111110001111101110101011 &
#276
b11100001011000010101000000010000 &
#277
b10010001100110010100011101000100 &
#278
b1010000111111110110011101010101 &
#279
b1000000000010001110000000000011 &
#280
b11101001011000000000110001 &
#281
b110010110001000000100011011110 &
#282
b11100011010100111010111110011000 &
#283
b10110001011100010100100011101000 &
#284
b11010110110111011010011000100101 &
#285
b110111101010101111011011001100 &
#286
b10100000000010111011000011111100 &
#287
b10000011100101001100000000111001 &
#288
b111010000110100000101101111011 &
#289
b1001100110010111001110101011100 &
#290
b11111001100110011010101110111011 &
#291
b1110000111110000001011101010100 &
#292
b11000001011001100010000000010001 &
#293
b10000111101111000011101010110 &
#294
b1000011101011010110000000110010 &
#295
b110001011000011000100011101111 &
#296
b11010001100101111010011101000110 &
#297
b1010010001000101110011101110000 &
#298
b1100111101011001110111011001101 &
#299
b11100001011101110101000011101001 &
#300
b10010111101000010100011000110000 &
#301
b100011100111110111000011000101 &
#302
b10111001100011101100101101000010 &
#303
b1110110110100011001011000100111 &
#304
b10110101010100100011011011100111 &
#305
b10001001011000011011110011101111 &
#306
b10110001100111100011011101000101 &
#307
b11010001100100011010011101000111 &
#308
b1010011010110101110011101100100 &
#309
b1110010110011001110100011011101 &
#310
b11100000111101100010111110101001 &
#311
b10000011101101010100000000110110 &
#312
b110101100011100000100110111101 &
#313
b10000110110110111011111000100100 &
#314
b1110110110101100001011011011001 &
#315
b10110100001111100011011011110101 &
#316
b10011010000100011011101110000111 &
#317
b11001111010111110101110101100101 &
#318
b11000011100000111010000011000000 &
#319
b111100001100111000101000001000 &
#320
b111000111111111000101110101010 &
#321
b1100000000011111001000000000010 &
#322
b10000010110010110100000000100011 &
#323
b100001100101100000111110111001 &
#324
b10010010001110101100011101110100 &
#325
b1100011010000110110111110011111 &
#326
b10110110001110110100100110001011 &
#327
b10110011010101011011011110011001 &
#328
b11110000000011011010100011111101 &
#329
b11000010111010000010000000101100 &
#330
b101110001011111000110101110010 &
#331
b1010101010011101110011011100010 &
#332
b1100110111001111110110100101 &
#333
b11111111101100000010101011001000 &
#334
b100110011000000000110100010 &
#335
b1011000111100000001101110101000 &
#336
b11100010110001001101000000100001 &
#337
b10100011010111010100111110011010 &
#338
b10110011101011001100100011001101 &
#339
b11110001011110011010100011101011 &
#340
b11010101011110000010011000010100 &
#341
b101011011101111111000010010 &
#342
b1000011010110000001111101100100 &
#343
b110010111001011000100011010001 &
#344
b11101100110001111010110101011110 &
#345
b1111011011000010110101110010000 &
#346
b1011001100100100001101101000111 &
#347
b11110011011011001101011101101101 &
#348
b11111011011111000010101101101010 &
#349
b1011100001111000001101000001010 &
#350
b10111010001101001100101110001001 &
#351
b1000001100110011001111110111011 &
#352
b10000111100011000011101010111 &
#353
b1000010110101010110000000100110 &
#354
b100100000000011000111011111111 &
#355
b11010000000101101101100000000110 &
#356
b1000110001101101110000101110110 &
#357
b1110001101111011001011110110101 &
#358
b11011110001000100010010110001111 &
#359
b10010111101001101100011011001110 &
#360
b100010111100110111000011010111 &
#361
b10101010111111101100110000101010 &
#362
b1000000100001111110000000111 &
#363
b10100111010000000011000101100000 &
#364
b11100110000010001101000110000011 &
#365
b11111011101011010101010000110010 &
#366
b1010001011010000001100011101100 &
#367
b1010010001001001110011101110001 &
#368
b1100110110101001110111011011001 &
#369
b11110100000101110101011011111001 &
#370
b10010110001000000011100101110000 &
#371
b110111100010110111011011000011 &
#372
b10101111100111111011001000111010 &
#373
b1001001100001001110001101000001 &
#374
b10110101010101011011011000011001 &
#375
b10001000000011011011110011111101 &
#376
b10100010111011100011000000101101 &
#377
b10101111010100001100110101100111 &
#378
b1000001010010001110000011100011 &
#379
b11101101001011000010110110001 &
#380
b10101010110001010100110011011110 &
#381
b11010011001111111110011101 &
#382
b110100111100000000100110101000 &
#383
b10010010110000111011100000100000 &
#384
b1100010001101110110111110001001 &
#385
b10100001101010110100111110110011 &
#386
b10011000000101001100010011111001 &
#387
b11100110000110110101000101111011 &
#388
b11111100110100010101010101011000 &
#389
b111101010110000000101011100100 &
#390
b101010111000111000110011010000 &
#391
b1101101111101111110101001010 &
#392
b11101110000110000010110110000100 &
#393
b1011100111011010110010101010010 &
#394
b10110111011000001100100101101111 &
#395
b10101001100010011011001101000011 &
#396
b110111101111001111011000110101 &
#397
b10100110001100111011000110001000 &
#398
b11110000111101001101011110101001 &
#399
b11000011100111000010000000111010 &
#400
b111001101111111000101101001010 &
#401
b1111110000011111001010110000010 &
#402
b11010110010100000010000100011 &
#403
b11000001100010010101111110111100 &
#404
b10111101110111000011000110100 &
#405
b100111010111010111000110011010 &
#406
b11100011101001101101000011001110 &
#407
b10110010111101010100100011010110 &
#408
b11101011100011011010110000111101 &
#409
b11110111010010111101000101100 &
#410
b10011110001101010100010101110110 &
#411
b10010001100011110100011110111101 &
#412
b1010110110001110110011000100001 &
#413
b110011011010001111011110010011 &
#414
b11111010001000111010101101110000 &
#415
b1000111101100000001111011001000 &
#416
b1100100110001011001000110100001 &
#417
b11011011010000110101101110011111 &
#418
b11010110001100101101100110001000 &
#419
b110000111001101111011110101110 &
#420
b11000100111110111010000101010100 &
#421
b1010001010100111001100000011000 &
#422
b1011001011110001110010011101011 &
#423
b11110101011001001101011000010001 &
#424
b10000000110111000011111101011010 &
#425
b1111101110100000001011001011 &
#426
b11000111010010000010000110011100 &
#427
b1100101101011111001000110110010 &
#428
b11001001010010110101110011100011 &
#429
b10111101100100111011010110111000 &
#430
b100011011101011000111101101001 &
#431
b10111111100001101100101000111110 &
#432
b1101011100011000001000010111 &
#433
b11100110110101000010111000100110 &
#434
b11110100000111010101011011111010 &
#435
b10010101101010000011100101001100 &
#436
b1000001010110111110011110011 &
#437
b10101100000111000011001011111010 &
#438
b1110101101110001110100101001011 &
#439
b10001111011001100011110110010001 &
#440
b11001000111100100010001101010111 &
#441
b10100010111001111011000000101110 &
#442
b10101100111001001100110101010001 &
#443
b1110100110110001110100101011011 &
#444
b10011110111001100011101011010001 &
#445
b10011100111100110100010101010111 &
#446
b10110010111101110100100000101001 &
#447
b11101011101001011010110000110001 &
#448
b10010110010010111100011011100 &
#449
b1100001101101010110111110110110 &
#450
b10011101100000110100010110111111 &
#451
b10100100001101110100111000001001 &
#452
b11011001101001001101101110110001 &
#453
b11111010110111101101010011011010 &
#454
b1000111100101000001111011000110 &
#455
b1101010000101011001001101111001 &
#456
b1110000000110111110101111111 &
#457
b11011000001111000010010000001010 &
#458
b11101010001111101101001110001010 &
#459
b10000101010111111110000110 &
#460
b101110000001000000110101111110 &
#461
b1011001010100101110010000011000 &
#462
b11111001011011001101010011101101 &
#463
b1110011011111000001011101101010 &
#464
b11111100001101100010101000001001 &
#465
b111001101101000000101110110110 &
#466
b1111101100100111001010110111000 &
#467
b100011011110100000111101101011 &
#468
b10111101010010101100101000011100 &
#469
b101101100000011000110110111111 &
#470
b1100100000101101110111000000110 &
#471
b11010110001111110101100101110101 &
#472
b110010000000101111011110000000 &
#473
b11101000001010111010110000001100 &
#474
b101100000100010111001011111000 &
#475
b1110111010101101110100101100110 &
#476
b10100000001111100011000011110101 &
#477
b10001010000100001100001110000111 &
#478
b10001111010010100011110101100011 &
#479
b11000101100000100010000110111111 &
#480
b1000100001001111001111000001110 &
#481
b1011110111010011001101011010011 &
#482
b10011110001100001100010101110111 &
#483
b10010000110010110100011110100011 &
#484
b1001001100101110110001110111001 &
#485
b10110010001010011011011101110011 &
#486
b11100100001111011010111011110101 &
#487
b11011010001010010101101110001100 &
#488
b11000100001110101101111011110100 &
#489
b1011011010001111001101110011110 &
#490
b11010111011010001101100110010011 &
#491
b101010001011101111001101110010 &
#492
b101010110101111111011100100 &
#493
b1001010110010000001110011011100 &
#494
b10000001101001011011111110110001 &
#495
b11010110011100000010011011101 &
#496
b11000000110110010101111110100100 &
#497
b1110111110111000001011010100 &
#498
b11011001010111000010010000011010 &
#499
b11111011101111101101010011001010 &
#500
b1010110000101000001100110000110 &
#501
b111110000101001111010101111001 &
#502
b11110000100111000010101111000 &
#503
b10011111011111010100010101101010 &
#504
b10001100001011110100001000001101 &
#505
b11111101010001100010101011100001 &
#506
b101111011101000000110110010110 &
#507
b1001111100100101110001000111000 &
#508
b11001011011011011010001101101101 &
#509
b10011011011010111011101101101100 &
#510
b11011010000101110101101101111001 &
#511
b11001110001000101101110101110000 &
#512
b11010111101001111010011011001110 &
#513
b100010111000101111000011010000 &
#514
b10101101101010101100110101001100 &
#515
b1101000000000001110110011111111 &
#516
b100000000001110111000000000001 &
#517
b10000001011011101100000000010010 &
#518
b10011010100100000011101100111 &
#519
b1110001011010010110100011101100 &
#520
b11010010001100100010011101110111 &
#521
b1100000111001101110111110101110 &
#522
b10000100111111110100000101010101 &
#523
b1010000000001100001100000000001 &
#524
b1000001011111001110000000010101 &
#525
b10100001101011000011000001001 &
#526
b11001100001010111101110111110 &
#527
b11110101010001010101011000011110 &
#528
b10001111010010000011110110011100 &
#529
b11000101101010100010000110110011 &
#530
b1001000000001111001110011111110 &
#531
b10100001011010011011000000010011 &
#532
b10010010001111001100011101110101 &
#533
b1100010001110110110111110001011 &
#534
b10100011010110110100111110011011 &
#535
b10110010110101001100100011011001 &
#536
b11100100000110011010111011111011 &
#537
b11010100111110010101100101010100 &
#538
b10001011110101111100000010100 &
#539
b1010101010010010110011000011100 &
#540
b1101101100001111110110110111 &
#541
b11101100110000000010110110100000 &
#542
b1111010000011010110101110000010 &
#543
b1001010111000100001110000101111 &
#544
b10001101101011011011110101001101 &
#545
b11101001011011100010110011101101 &
#546
b110011010101010111011101100110 &
#547
b11110000000001111010100011111110 &
#548
b11000001011000000010000000010000 &
#549
b10001100011111000011101000010 &
#550
b1010110110011010110011000100010 &
#551
b110000111000001111011110101111 &
#552
b11000101100000111010000101000000 &
#553
b1000100001100111001111000001000 &
#554
b1011000111110011001101110101011 &
#555
b11100001011100001101000000010111 &
#556
b10010110110011010100011000100010 &
#557
b110000111011110111011110101101 &
#558
b11000111010011111010000101100010 &
#559
b1100100110000111001000110100000 &
#560
b11011010001110110101101110001011 &
#561
b11000011010100101101111110011000 &
#562
b110001011001111000100011101110 &
#563
b11010000111011111010011101010010 &
#564
b1000111010000101110000101100000 &
#565
b1100110001011011001000110001101 &
#566
b11110101011000110101011011101111 &
#567
b10000001101100000011111101001000 &
#568
b11100110010100000010110100011 &
#569
b10111001100010010100101110111100 &
#570
b1110111101111011001011000110101 &
#571
b10100110001000100011000110001111 &
#572
b11110111101000001101011011001111 &
#573
b10100011100011000011000011000010 &
#574
b10111110111110001100101000101011 &
#575
b11001011010011000010000010011 &
#576
b11110010001101010101011101110110 &
#577
b11100001100010000010111110111100 &
#578
b10010111101011010100011000110010 &
#579
b100001011011110111000011101101 &
#580
b10010011010011101100011101100010 &
#581
b1110100110100110110100110100111 &
#582
b10011101011110100011101011101011 &
#583
b10100101010000110100111000011111 &
#584
b11001110001101001101110110001001 &
#585
b11010001100111111010011110111010 &
#586
b1010001100000101110011101000000 &
#587
b1010100001011001110011000001101 &
#588
b11101011101001111101011101001 &
#589
b10100111100100010100111000111000 &
#590
b11101011010111001101001101100101 &
#591
b10011101111010111100011001010 &
#592
b1110110001001010110100110001110 &
#593
b10110110110000100011011011011111 &
#594
b10110010001000011011011110001111 &
#595
b11100111100111011010111011000101 &
#596
b11101001101010010101001101001100 &
#597
b111000001110010111010011110100 &
#598
b1101011011101111001001110010110 &
#599
b11111101010110111101000110011 &
#600
b10000000000111010100000011111010 &
#601
b101101011100000000101001101 &
#602
b1001001010110000001110011100100 &
#603
b10111010111001011011010011010001 &
#604
b1001100110011011001110101011101 &
#605
b11111000111000011010101110101111 &
#606
b1100101100110000001000101000100 &
#607
b11000000111001110101111101010001 &
#608
b100111000111000000101010000 &
#609
b1010101101111000001100101001010 &
#610
b1110001101001111110110001001 &
#611
b11010001100100000010011110111000 &
#612
b1010011010011101110011101100010 &
#613
b1110100110111001110100110100101 &
#614
b10011111101101100011101011001001 &
#615
b10000101101100110100000110110111 &
#616
b1001100111101100001110110101001 &
#617
b11110011101111011010100000110101 &
#618
b11110110001010000010100110001100 &
#619
b10110100001011000011011011110010 &
#620
b10011101011110011011101011101011 &
#621
b10100101011111110100111000010101 &
#622
b11000100000001001101111000000001 &
#623
b1010001010111111001100000011010 &
#624
b1011011100010001110010011000011 &
#625
b11011111101001001101101000110001 &
#626
b10000010110111101100000011011010 &
#627
b100111100100100000111011000111 &
#628
b11101011011010101101001101101100 &
#629
b11010000001010111101101111110 &
#630
b11001001010001010101110000011110 &
#631
b10111111010010111011010110011100 &
#632
b101100101011000000110111001 &
#633
b1000010000001000001111101111110 &
#634
b101001010101011000110000011001 &
#635
b111000000001101111010011111110 &
#636
b1100001011110111001000000010100 &
#637
b10010101010110110100011000011011 &
#638
b1010110101110111110011011001 &
#639
b10000100001011000011111011110010 &
#640
b1011101011110100001101011101011 &
#641
b10100101010011001100111000011101 &
#642
b11001100111110001101110110101011 &
#643
b11110001011011111010100000010010 &
#644
b11010011010000000010011101100000 &
#645
b1110110000011101110100110000010 &
#646
b10111010110111100011010000100101 &
#647
b1000111100100011001111011000111 &
#648
b1101011010100011001001101100111 &
#649
b10001010100110111100011100111 &
#650
b1011001011111010110010011101010 &
#651
b11110100001000001101011000001111 &
#652
b10011111100011000011101011000010 &
#653
b10001110111110110100001000101011 &
#654
b11011001010101100010010000011001 &
#655
b11111000001101101101010011110110 &
#656
b1101001101101000001001110110110 &
#657
b111101100101110111010110111001 &
#658
b100010001011111000111101110010 &
#659
b10100101010011101100111011100010 &
#660
b11001100110100001101110110100111 &
#661
b11111101010011111010101011100010 &
#662
b101100110000000000110110100000 &
#663
b1111010000000101110101110000000 &
#664
b1001000001011100001110000001101 &
#665
b10101101010111011011001011100101 &
#666
b1101011101011001110110011001101 &
#667
b10001011101110111100011101001 &
#668
b1010111101011010110011000110010 &
#669
b100001011000001111000011101111 &
#670
b10010001100000101100011101000000 &
#671
b1010100001000110110011000001111 &
#672
b11111101110001111101011001011 &
#673
b10000111011000010100000110010000 &
#674
b1101001100111100001001101000101 &
#675
b110001100111110111011101000101 &
#676
b11010001100011111010011101000010 &
#677
b1010110110000101110011000100000 &
#678
b110010001011001111011110001101 &
#679
b11100101011100111010111011101000 &
#680
b11000110111100010101111000101000 &
#681
b1111010110110111001010000100100 &
#682
b1000110110110100001111011011011 &
#683
b1110110110011011001011011011101 &
#684
b10110000111000100011011110101111 &
#685
b11000101101000011010000101001111 &
#686
b1001011100110111001110011000100 &
#687
b10011000110110011011101101011011 &
#688
b11101110111111110101001011010101 &
#689
b1011000000000010110010000000000 &
#690
b11100000000100001101000000000111 &
#691
b10000111010011010100000101100010 &
#692
b1100100111011100001000110101101 &
#693
b11010111010111110101100101100101 &
#694
b100011100000101111000011000000 &
#695
b10111100001010101100101000001100 &
#696
b111100000000011000101011111111 &
#697
b110000000101111000100000000110 &
#698
b11000110001011111010000101110010 &
#699
b1110101010000111001011011100000 &
#700
b10001110001110100011110110001011 &
#701
b11010011010000100010011110011111 &
#702
b1110110001001101110100110001110 &
#703
b10110110111111100011011011010101 &
#704
b10111000000100011011010000000111 &
#705
b1100111010111011001000101100101 &
#706
b11100011101000110101000011001111 &
#707
b10110011101100010100100011001000 &
#708
b11110100110111011010100110100101 &
#709
b10011111101010000011101011001100 &
#710
b10000000001010110100000011110011 &
#711
b1100000101100000001011111001 &
#712
b11110110001110000010100101110100 &
#713
b10110011011011000011011110010010 &
#714
b11111011011110011010101101101011 &
#715
b1011101011110000001101000010100 &
#716
b10100101011001001100111000010001 &
#717
b11000000110110001101111101011011 &
#718
b1110111011111000001011010010 &
#719
b11011111010011000010010101100010 &
#720
b10000100111111101100000110101010 &
#721
b1010000000100100001100000000111 &
#722
b1000111011011001110000101101101 &
#723
b1101011011101011001001101101001 &
#724
b11111100000110111101000111111 &
#725
b10001100001111010100001000001010 &
#726
b11111010001011100010101110001101 &
#727
b1000101010101000001111011100110 &
#728
b1001000000101011001110011111001 &
#729
b10100110000000011011000101111111 &
#730
b11111000000111001101010000000101 &
#731
b1100101101111000001000101001010 &
#732
b11001110001101110101110110001001 &
#733
b11010001101000111010011110110000 &
#734
b1011011101100101110010011001000 &
#735
b11010100111011001101100110101101 &
#736
b10111011111101111100101101010 &
#737
b101100000110010111001000000100 &
#738
b1110100111101101110100101010110 &
#739
b10010011101111100011100000110101 &
#740
b1110110000100110110100110000111 &
#741
b10111111011110100011010101101011 &
#742
b1101010000011000001000011111 &
#743
b11101110000101000010110110000110 &
#744
b1011110000111010110010101111010 &
#745
b10011101101000001100010101001111 &
#746
b10101011100010110100110011000011 &
#747
b11111100101001111101000111001 &
#748
b10001010000100010100001101111000 &
#749
b10001111010111100011110101100101 &
#750
b11000011100100100010000011000111 &
#751
b111011011001111000101101101110 &
#752
b1011000111011111001101101010010 &
#753
b11100111010010001101000101100011 &
#754
b11100101101011010101000110110010 &
#755
b11001001011010010101110011101100 &
#756
b10110010001110111011011101110100 &
#757
b11100011010101011010111110011001 &
#758
b10110000000010010100100011111100 &
#759
b11000011101111011010000000110101 &
#760
b110110001010111000100110001100 &
#761
b10110100000111111011011011111010 &
#762
b10010101100001011011100101000001 &
#763
b101010011110111111000011101 &
#764
b1001100110011000001110110100010 &
#765
b11111000111101011010101110101001 &
#766
b1100011100010000001000000111100 &
#767
b10111111101001110100101000110001 &
#768
b10111001011000000011010001 &
#769
b101100110001000000110101011110 &
#770
b1111011010100101110101110011000 &
#771
b1010001011011100001100011101101 &
#772
b1010011010111001110011101100101 &
#773
b1110011101101001110100011001001 &
#774
b11110101100101100010100110111001 &
#775
b10000010001101000011111101110110 &
#776
b100001100110100000111110111011 &
#777
b10010000110010101100011101011100 &
#778
b1001001100000110110001110111111 &
#779
b10110100001110011011011000001011 &
#780
b10011011011111011011101110010101 &
#781
b11011100001011110101101000001101 &
#782
b10111101010000101100101011100000 &
#783
b101110001000011000110110001111 &
#784
b1010111100101101110011011000110 &
#785
b101010001111001111001101110101 &
#786
b10001100101111111110001000 &
#787
b100000111010000000111110101100 &
#788
b10000110001000101100000101110000 &
#789
b1110111101000100001011011001111 &
#790
b10100011101011100011000011001101 &
#791
b10110001010100001100100011100111 &
#792
b11011001010010011010010011100011 &
#793
b11111101101110101101010110110100 &
#794
b101111010001000000110110011110 &
#795
b1000111010100101110000110011000 &
#796
b1100001011011011001000011101101 &
#797
b10010011011000110100011101101111 &
#798
b1111001101101110110101101001001 &
#799
b1111101101010100001010110110011 &
#800
b101000000011100000110011111101 &
#801
b100010110110101111000000100100 &
#802
b10100110110010101100111011011100 &
#803
b11110001100000001101011110111111 &
#804
b11010100000011000010011000000010 &
#805
b10010111111101111100000101010 &
#806
b1101000000110010110110000000100 &
#807
b100100111100110111000101010111 &
#808
b11010010111111101101100000101010 &
#809
b1101000000101101110110000000110 &
#810
b100110001111110111000101110101 &
#811
b11110010000011101101011110000010 &
#812
b11101010110101000010110000100110 &
#813
b100000111010111111011111010 &
#814
b1010101101001000001100101001110 &
#815
b1010110101001111110011011001 &
#816
b10000100000100000011111011111000 &
#817
b1010111010010100001100101100011 &
#818
b100101100011001111000110111101 &
#819
b11000110111100101101111000101000 &
#820
b1111010111001111001010000101110 &
#821
b1001100111010100001110101010011 &
#822
b11110110000011011010100101111101 &
#823
b10111010111010000011010000101100 &
#824
b1001110001010011001110101110011 &
#825
b11010100001100011010011011110111 &
