.Xil/Vivado-109444-llc/hw_ila_data_2/zip_work/waveform.vcd
$date
        2025-Aug-14 16:08:21
$end
$version
        Vivado v2022.2 (64-bit)
$end
$timescale
        1ps
$end
$scope module dut $end
$var reg 4 " design_1_wrapper_inst/design_1_i/system_ila_1/inst/SLOT_0_JESD204_RX_BUS_rxcharisk_1 [3:0] $end
$var reg 32 & design_1_wrapper_inst/design_1_i/system_ila_1/inst/SLOT_0_JESD204_RX_BUS_rxdata_1 [31:0] $end
$var reg 4 F design_1_wrapper_inst/design_1_i/system_ila_1/inst/SLOT_0_JESD204_RX_BUS_rxdisperr_1 [3:0] $end
$var reg 4 J design_1_wrapper_inst/design_1_i/system_ila_1/inst/SLOT_0_JESD204_RX_BUS_rxnotintable_1 [3:0] $end
$var reg 1 N _TRIGGER $end
$var reg 1 O _WINDOW $end
$var reg 1 P _GAP $end
$upscope $end
$enddefinitions $end
#0
$dumpvars
b0 "
b111110111111111000101000101010 &
b0 F
b0 J
0N
1O
0P
$end
#1
b11000000011111000010000000010 &
#2
b11100010110011010101000000100010 &
#3
b10100000111010010100111110101100 &
#4
b10000110001111001100000101110101 &
#5
b1110010001110100001011110001011 &
#6
b11100011010011100010111110011101 &
#7
b10110100110101010100100110100110 &
#8
b10011100000011011011101011111101 &
#9
b10110010111011110100100000101101 &
#10
b11101111010001011010110101100001 &
#11
b1000111010010010110000110011100 &
#12
b1100101101100011001000110110111 &
#13
b11001100110100110101110110100111 &
#14
b11111101011100111010101011101000 &
#15
b100110111100000000111000101000 &
#16
b11111010110000101101010000100000 &
#17
b1000010001001000001111110001110 &
#18
b100110110101011000111011011001 &
#19
b11110100000001101101011011111110 &
#20
b10010001011101000011100000010110 &
#21
b1010111100110110110011000111011 &
#22
b101000110110001111001101011011 &
#23
b101110111000101111001011010000 &
#24
b1011101101010101110010101001100 &
#25
b10101000000011001100110011111101 &
#26
b100010111110001111000000101011 &
#27
b10101001011000101100110000010000 &
#28
b110001101000001111011101001111 &
#29
b11011011100000111010010011000000 &
#30
b11011100001100101101101000001000 &
#31
b10111000111001101100101110101110 &
#32
b1100100111100011001000101010111 &
#33
b11010010110100110101100000100111 &
#34
b1100101011100101110111011101000 &
#35
b11000110111011110101111000101101 &
#36
b1111111010000111001010101100000 &
#37
b110001110100000000110001011 &
#38
b1110011010010000001011110011100 &
#39
b11110101101001100010100110110001 &
#40
b10001010111101000011110011010110 &
#41
b10001011100110100011110000111011 &
#42
b10011000110000100011101101011111 &
#43
b11101010001000110101001110001111 &
#44
b111101100010111111011001000 &
#45
b1100100110101000001000110100110 &
#46
b11011100000101110101101011111001 &
#47
b10110110001000101100100101110000 &
#48
b10110111101000011011011011001111 &
#49
b10100011100111011011000011000101 &
#50
b10111001101011001100101101001101 &
#51
b1111001011110011001010011101011 &
#52
b1110101011100100001011000010111 &
#53
b10000110111011100011111000101101 &
#54
b1111111010100100001010101100111 &
#55
b1011011100000000011101101 &
#56
b10011010110000000011101100100 &
#57
b1110010111000010110100011010000 &
#58
b11101101100100100010110101000111 &
#59
b1100011011001010110111101101110 &
#60
b10111000110000110100101101011111 &
#61
b1101010001101011001001110001001 &
#62
b1100000110111111110111111 &
#63
b10100001111000000011000001010 &
#64
b11010001100010111101110001000 &
#65
b11000000110101010101111110100110 &
#66
b1100000010111000001011111100 &
#67
b11110011100111000010100000111010 &
#68
b11111001101111000010101101001010 &
#69
b1111110001111000001010110001010 &
#70
b10010001101100000011110001001 &
#71
b1100001101110010110111110110100 &
#72
b10011111011100110100010110010111 &
#73
b10001110111101110100001000101001 &
#74
b11011011101001100010010000110001 &
#75
b11010010111101101101100011010110 &
#76
b1101011101101101110110000110110 &
#77
b10101101111110111100110110101 &
#78
b1110000011010111110110000010 &
#79
b11011010111001000010010000101110 &
#80
b11001100110111101101110101011010 &
#81
b11111111100101111010101011000110 &
#82
b1010001000000000001101110000 &
#83
b10000111100000000011111011000000 &
#84
b1101100000010100001001000000011 &
#85
b1110011100011110110100000111101 &
#86
b11111110110010100010101000100011 &
#87
b10001100001000000011110111110 &
#88
b1010101010100010110011000011000 &
#89
b1001010100001111110011100111 &
#90
b10111001010000000011010011100000 &
#91
b1111110000010011001010110000011 &
#92
b11011101100100000010000110111 &
#93
b11010100111010010101100110101100 &
#94
b10110001110101111100101110100 &
#95
b110011010010010111011110011100 &
#96
b11110101101101111010100110110110 &
#97
b10001101101000000011110110110000 &
#98
b11101011100010100010110011000011 &
#99
b11111100001010111101000111110 &
#100
b10001101010001010100001000011110 &
1N
#101
b11101111010011100010110110011101 &
#102
b1000100110101010110000110100110 &
#103
b1011100000000011001101011111111 &
#104
b10110000000100001100100000000111 &
#105
b11000111010010011010000101100011 &
#106
b1100101101110111001000110110100 &
#107
b11001111010110110101110110011011 &
#108
b11000010110100111010000011011000 &
#109
b100101011100111000111011101000 &
#110
b11000110111111101101111000101010 &
#111
b1111000000101111001010000000110 &
#112
b1100110001010100001000101110011 &
#113
b11110100000011110101011011111101 &
#114
b10010010110000000011100000100000 &
#115
b1100010000010110110111110000011 &
#116
b10101011100110110100110000111011 &
#117
b11000110101001111101101011001 &
#118
b11101100000100010101001011111000 &
#119
b1110111010110010110100101100100 &
#120
b10100010111100100011000011010111 &
#121
b10101010111000001100110000101111 &
#122
b1101100010001111110101000011 &
#123
b11100111101000000010111000110000 &
#124
b11100011100011010101000011000010 &
#125
b10111110111010010100101000101100 &
#126
b11110001111011000010101110101 &
#127
b10010010001001010100011110001110 &
#128
b1100110110011110110111011011101 &
#129
b11110000110010110101011110100011 &
#130
b11001001100100000010001110111000 &
#131
b10110011010011111011011101100010 &
#132
b11110100110001011010100110100001 &
#133
b10011011010010000011101110011100 &
#134
b11010101101010110101100110110011 &
#135
b1000000100101111110011111000 &
#136
b10100111011010000011000101101100 &
#137
b11101010001010001101001101110011 &
#138
b100001011010111111011110010 &
#139
b1011101011001000001101011101110 &
#140
b10100000110101001100111101011001 &
#141
b10001100000110001100001011111011 &
#142
b11110100111010100010100101010011 &
#143
b10010110000001000011100101111110 &
#144
b111001010110110111010000011011 &
#145
b1111010110111111001010011011010 &
#146
b1000111100010100001111011000011 &
#147
b1101111100011011001001000111101 &
#148
b1001110111000110110001000101111 &
#149
b11011101101110011010010101001011 &
#150
b10101111011110101100110110010100 &
#151
b1001101010000001110001000011111 &
#152
b11101110000001011010110110000001 &
#153
b1011001010010010110010000011100 &
#154
b11111101101100001101010110110111 &
#155
b101100110011000000110110100010 &
#156
b1111000111100101110101110101000 &
#157
b1100010111011100001000000101101 &
#158
b10101111010111110100110101100101 &
#159
b1000011100001001110000011000001 &
#160
b111101010101011000101000011001 &
#161
b101000000001111000110011111110 &
#162
b100001011011101111000000010010 &
#163
b10010011010110101100011101100100 &
#164
b1110010110000110110100011011111 &
#165
b11100010001110100010111110001011 &
#166
b10100011010001010100111110011110 &
#167
b10110111010011001100100110011101 &
#168
b10100100111110011011000110101011 &
#169
b11010001011111001101100000010101 &
#170
b1010100001111101110011000001010 &
#171
b11010000111001111101110000101 &
#172
b11001101101100010101110101001000 &
#173
b11101100110110111010110110100100 &
#174
b1111110110100010110101011011000 &
#175
b10101010100100000011011100111 &
#176
b1001011010010111110011101100 &
#177
b10110010001101000011011101110110 &
#178
b11100001100110011010111110111011 &
#179
b10010000111110010100011101010100 &
#180
b1000001011111110110000000010101 &
#181
b10100000010011000011000000011 &
#182
b10011101101010111100000110110 &
#183
b1110101100001010110100110111110 &
#184
b10000101010000100011111000011111 &
#185
b1001110001000100001110110001111 &
#186
b11010111101011011010011011001101 &
#187
b100001011010101111000011101100 &
#188
b10010010000010101100011101111100 &
#189
b1101011100000110110110000111111 &
#190
b11100001110110111101000001011 &
#191
b10111011010111010100101110011010 &
#192
b1010011101011011001100011001101 &
#193
b1110001011000001110100011101111 &
#194
b11010001100001100010011101000001 &
#195
b1010101011101101110011000010110 &
#196
b111101111001111111000110101 &
#197
b1100110001100000001000110001000 &
#198
b11110000110001110101011110100001 &
#199
b11001011011000000010001110010000 &
#200
b10011001100011111011101101000010 &
#201
b11110110110001110101011000100001 &
#202
b10110011011000000011011110010000 &
#203
b11111001100010011010101101000011 &
#204
b1110111101110000001011000110100 &
#205
b10100111011001100011000110010001 &
#206
b11101000111100001101001101010111 &
#207
b100010110011010111000000100010 &
#208
b10100000111001101100111110101110 &
#209
b10000100111100001100000101010111 &
#210
b1010010110010100001100000100011 &
#211
b1100001100011001110111110111101 &
#212
b10010110111101110100011000101001 &
#213
b111011101001110111010000110001 &
#214
b1010010111011111001100011010010 &
#215
b1101111010010001110110101100011 &
#216
b1000101101001110110000110110001 &
#217
b1001010111010011001110011010011 &
#218
b10001110001100011011110101110111 &
#219
b11010000110111100010011110100101 &
#220
b1001111100101101110001011000110 &
#221
b11001010001111011010001101110101 &
#222
b10000010001010111011111110001100 &
#223
b100100000101100000111011111001 &
#224
b11010110001110101101100101110100 &
#225
b110011010001101111011110011110 &
#226
b11110111011110111010100110010100 &
#227
b10101101010100000011001000011000 &
#228
b1101001010010001110110011100011 &
#229
b111101101001110111010110110001 &
#230
b101010111011111000110011010010 &
#231
b1111010011101111110101100010 &
#232
b11000100110110000010000110100100 &
#233
b1011110111011111001101011010010 &
#234
b10011111010010001100010101100011 &
#235
b10000101101010110100000110110011 &
#236
b1001000000101100001110011111001 &
#237
b10100110001111011011000101110101 &
#238
b11110010001011001101011110001101 &
#239
b11100101011111000010111011101010 &
#240
b11000100001111010101111000001010 &
#241
b1011010001010111001101110001100 &
#242
b11000100000110001101111011111011 &
#243
b1010100111011111001100101010010 &
#244
b10111010010001111100101100011 &
#245
b100101101000010111000110110000 &
#246
b11001011100101101101110011000110 &
#247
b10011010001101111011101101110110 &
#248
b11000001101001110101111110110001 &
#249
b11010111000111000010011010000 &
#250
b11001101101111010101110101001010 &
#251
b11101110001010111010110110001100 &
#252
b1010100000100010110011011111000 &
#253
b10111010100001111100101100111 &
#254
b100001010000010111000011100000 &
#255
b10011110000101101100010110000110 &
#256
b10011110001100110100010101110111 &
#257
b10010000111101110100011110101001 &
#258
b1000011101001110110000000110001 &
#259
b110010111010011000100011010011 &
#260
b11101110001101111010110101110110 &
#261
b1010001101000010110011110110000 &
#262
b1011011100100001110010011000111 &
#263
b11011011010001001101101101100001 &
#264
b11010111010111101101100110011010 &
#265
b100011100101101111000011000110 &
#266
b10111010001110101100101101110100 &
#267
b1000011010000011001111110011111 &
#268
b110110000100011000100110000111 &
#269
b10111111010101111011010101100110 &
#270
b1001011000000011110001 &
#271
b1110110001000000001011011110 &
#272
b11010011010100000010011110011000 &
#273
b1110001010011101110100011100010 &
#274
b11011100110111100010010110100101 &
#275
b10111111100101101100101011000110 &
#276
b1010001100011000001101110111 &
#277
b10000000110101000011111110100110 &
#278
b1100000110100000001011111011 &
#279
b11110100110010000010100101011100 &
#280
b10011001101011000011101110110010 &
#281
b11111001011110110101010011101011 &
#282
b1110101010100000001011000011000 &
#283
b10001001010001100011110011100001 &
#284
b10111111011100100011010110010111 &
#285
b1110111000011000001000101111 &
#286
b11011101100101000010010101000110 &
#287
b10100010000111101100111101111010 &
#288
b10101101100100001100110101000111 &
#289
b1100011010010001110111101100011 &
#290
b10110101101001110100100110110001 &
#291
b10001010111001011011110011010001 &
#292
b10001100110011100011110101011101 &
#293
b11111000110100100010101110100111 &
#294
b1101101011001000001001011101110 &
#295
b1100000110101110110111101011001 &
#296
b10001100001010110100001011110011 &
#297
b11111100000101100010101011111001 &
#298
b110110001101000000100101110110 &
#299
b10110001100100111011011110111000 &
#300
b11010011011101011010011101101001 &
#301
b1111111100010101110101000111100 &
#302
b1111100011100000001000111101 &
#303
b11001110110110000010001000100100 &
#304
b11010110111011111010011011010010 &
#305
b111111010000101111010101100000 &
#306
b110001010111000000110001100 &
#307
b1110100000111000001011011111010 &
#308
b10010101101101100011100101001001 &
#309
b1101101100110111110110110111 &
#310
b11101100111111000010110110101010 &
#311
b1110000001111010110100000001010 &
#312
b11001010001000100010001110001111 &
#313
b10000111101001111011111011001110 &
#314
b1100010111001100001000011010001 &
#315
b10101100111111110100110101010101 &
#316
b1110000000001001110100000000001 &
#317
b11000001010101100010000000011001 &
#318
b11000001101111000010011110110 &
#319
b11101001101011010101001110110010 &
#320
b111001011010010111010011101100 &
#321
b1110010001101111001011101110110 &
#322
b11100001101010100010111110110011 &
#323
b10011000000001010100010011111110 &
#324
b11100001010011110101000000011101 &
#325
b10011100110000010100010110100000 &
#326
b10111010000111110100101110000101 &
#327
b1001101100001011001110101000001 &
#328
b11100101010000011010111000011111 &
#329
b11001110000110010101110110000100 &
#330
b11011100111110111010010101010100 &
#331
b10110001010100101100100000011000 &
#332
b11011001011000011010010011101111 &
#333
b11110001100110101101011101000100 &
#334
b11010000110001000010011101011110 &
#335
b1001011010111101110001110011010 &
#336
b10010011100111011011100011000101 &
#337
b1111001101011110110101101001101 &
#338
b1111001010010100001010011100011 &
#339
b1111101100011100001010110111101 &
#340
b100110110111100000111000100101 &
#341
b11110111100110101101011011000100 &
#342
b10101000110001000011001101011110 &
#343
b101011010110001111001110011011 &
#344
b10010111000101111100011010000 &
#345
b1101101101010010110110101001100 &
#346
b1101000001100110110110011110111 &
#347
b101000111110110111001110101011 &
#348
b100001010111101111000000011010 &
#349
b10011011100110101100010011000100 &
#350
b11011000110000110101101101011111 &
#351
b11101010001100101101001110001000 &
#352
b111001010111111110101110 &
#353
b100110001000000000101011110 &
#354
b1011011010100000001101110011000 &
#355
b11010001010001001101100011100001 &
#356
b1011111010111101110010110011010 &
#357
b10000011100111001100000011000101 &
#358
b111001101110100000101101001011 &
#359
b1111111010010111001010110011100 &
#360
b101100110100000000110111011 &
#361
b1000000110010000001111101011100 &
#362
b1001101001011000001110110001 &
#363
b10111010110001000011010011011110 &
#364
b1000011010110011001111110011011 &
#365
b110010111100011000100011010111 &
#366
b11101010110101111010110000100110 &
#367
b100001000010111111011110000 &
#368
b1011111100101000001101011000110 &
#369
b10001010000101001100001101111001 &
#370
b10001110000110100011110101111011 &
#371
b11011100110000100010010101011111 &
#372
b10111010001001101100101110001110 &
#373
b1000110111100011001111011010111 &
#374
b1111010110100011001010000100111 &
#375
b1000101010100100001111011100111 &
#376
b1001001011011011001110011101101 &
#377
b10110011011000011011011101101111 &
#378
b11111001100111011010101101000101 &
#379
b1110001101010000001011101001100 &
#380
b11011000001001100010010011110001 &
#381
b11101110111101101101001011010110 &
#382
b1011011101101010110010000110110 &
#383
b11010101100000001101100110111111 &
#384
b100000011101111111000000010 &
#385
b1010010110110000001100000100100 &
#386
b1100110111001001110111011010001 &
#387
b11111100110101110101010101011001 &
#388
b111100001000000000101011110000 &
#389
b111111100000111000101011000000 &
#390
b1100001111111000001000001010 &
#391
b11111010000011000010101110000010 &
#392
b1001010111111000001110000101010 &
#393
b10001000001101011011110000001001 &
#394
b10101001100011100011001110111101 &
#395
b110110110100001111011000100111 &
#396
b10110101010000111011011011100000 &
#397
b10001110001101011011110110001001 &
#398
b11010001100011100010011110111101 &
#399
b1010110110101101110011000100110 &
#400
b110100001111001111011011110101 &
#401
b10011010001100111011101110001000 &
#402
b11000000111101110101111110101001 &
#403
b11101000111000000000110000 &
#404
b110011101111000000100011001010 &
#405
b11110110001100111010100110001000 &
#406
b10110000111100000011011110101000 &
#407
b11000010110010011010000000100011 &
#408
b100001101110111000111110110100 &
#409
b10011111010111101100010110011010 &
#410
b10000011100100110100000011000111 &
#411
b111011011101100000101101101001 &
#412
b1011111101110111001101000110100 &
#413
b10000111010110001100000110011011 &
#414
b1100010111010100001000011010011 &
#415
b10101110000011110100110101111101 &
#416
b1011010110001001110010000100001 &
#417
b11000011010101001101111110011001 &
#418
b110000000111111000100011111010 &
#419
b11000101100011111010000101000010 &
#420
b1000110110000111001111000100000 &
#421
b1110010001110011001011110001011 &
#422
b11100011011100100010111110010111 &
#423
b10111110111001010100101000101110 &
#424
b11100110011011000010101011101 &
#425
b10111000111001010100101110101110 &
#426
b1100100110011011001000101011101 &
#427
b11011000111000110101101110101111 &
#428
b11100101101100101101000101001000 &
#429
b11001100111001010101110110101110 &
#430
b11110100110010111010100101011100 &
#431
b10011001100100000011101110111000 &
#432
b11110011010010110101011101100011 &
#433
b11110101100100000010100110111000 &
#434
b10000011010011000011111101100010 &
#435
b110100111110100000100110101011 &
#436
b10010001010010111011100000011100 &
#437
b1011101100101110110010110111001 &
#438
b10100010001010001100111101110011 &
#439
b10100100001010001100111011110011 &
#440
b11011100001010001101101011110011 &
#441
b10111100001011101100101011110010 &
#442
b111101010100011000101011100111 &
#443
b101001010101111000110011100110 &
#444
b111000001011101111010011110010 &
#445
b1101101010110111001001011100100 &
#446
b1101010110110110110110011011011 &
#447
b110110110110111111011011011 &
#448
b1110110110111000001011011011010 &
#449
b10110111101101100011011011001001 &
#450
b10100101101100011011000110110111 &
#451
b11001100110111001101110110100101 &
#452
b11111111101111111010101011001010 &
#453
b110000000000000000110000000 &
#454
b1111000000000000001010000000000 &
#455
b1100000000001100001000000000001 &
#456
b10000001011111110100000000010101 &
#457
b10100000001100000011000000001 &
#458
b10001011110010111100000010100 &
#459
b1010101011101010110011000010110 &
#460
b111100000001111111000111111 &
#461
b1101100000000000001001000000000 &
#462
b1110000000001110110100000000001 &
#463
b11000001011010100010000000010011 &
#464
b10010000001111000011101111110 &
#465
b1101001011011010110110000010010 &
#466
b110011011000110111011101101111 &
#467
b11111001101111111010101101001010 &
#468
b1111110000000000001010110000000 &
#469
b11000000001100000010000000001 &
#470
b11100001011110010101000000010100 &
#471
b10010101011110010100011000010100 &
#472
b101011111110111111000010101 &
#473
b1000100000011000001111000000010 &
#474
b1010010111101011001100000101001 &
#475
b1101011100000001110110000111111 &
#476
b11100000001110111101000000001 &
#477
b10110001011011010100100000010010 &
#478
b11010011011011011010011101101101 &
#479
b1111011011010101110101101101100 &
#480
b1011010000011100001101101111101 &
#481
b11001010110111001101110000100101 &
#482
b10000111101111111011111011001010 &
#483
b1100110000001100001000110000001 &
#484
b11111001011111110101010000010101 &
#485
b1110100000000000001011000000000 &
#486
b10010000000001100011100000000001 &
#487
b1000001011100110110000000010111 &
#488
b10110111110011000011000101011 &
#489
b111001011101010111010000010110 &
#490
b1110111100001111001011000111110 &
#491
b10101101011010100011001000010011 &
#492
b1100010000000001110111101111111 &
#493
b10101000000001110100110000000001 &
#494
b100001011001001111000000010001 &
#495
b10010000110100101100011101011000 &
#496
b1001101011000110110001011101111 &
#497
b11100001101110011010111101001011 &
#498
b10011111011110010100010110010100 &
#499
b10001101011111110100001000010101 &
#500
b11100100000001100010111000000001 &
#501
b11010001011101010101100000010110 &
#502
b1010111100010101110011000111100 &
#503
b101111100011001111001000111101 &
#504
b1001110111100101110001000101000 &
#505
b11011010111011011010010000101101 &
#506
b11001111011010101101110101101100 &
#507
b11001010000001111010001101111110 &
#508
b10001001011000111011110000010000 &
#509
b10110001101101100011011101001001 &
#510
b11011101101100011010010110110111 &
#511
b10101100110110101100110110100100 &
#512
b1111110110000001110101011011111 &
#513
b10010000001100000011110000001 &
#514
b1101001011110010110110000010100 &
#515
b110101011100110111011000010111 &
#516
b10000110111111111011111000101010 &
#517
b1111000000001100001010000000001 &
#518
b1100001011111100001000000010101 &
#519
b10010100000111110100011000000101 &
#520
b10101100001110111100101000001 &
#521
b101011011010111111000010010 &
#522
b1000011011001000001111101101110 &
#523
b111000110101011000101101011001 &
#524
b1101100000001111001001011111110 &
#525
b1110001011010110110100000010011 &
#526
b11010010000110100010011101111011 &
#527
b1101100110001101110110101011110 &
#528
b1111011011111110110101110010101 &
#529
b1011100000010100001101000000011 &
#530
b10110011100011001100100000111101 &
#531
b11111110111110011010101000101011 &
#532
b11001011110000000010000010100 &
#533
b11110101011000010101011000010000 &
#534
b10000001100110000011111101000100 &
#535
b10000111010100000011101010011 &
#536
b1000110000010010110000101111100 &
#537
b1111011101100011001010000110111 &
#538
b1010100110100100001100110100111 &
#539
b11101011011001111101011101101 &
#540
b10100011011100010100111101101000 &
#541
b10111110110111001100101000100101 &
#542
b10111101110011000011011001011 &
#543
b100111011101010111000110010110 &
#544
b11101111100001101101001000111110 &
#545
b1001101011101010110001000010110 &
#546
b11100111100000011010111000111111 &
#547
b11101100000110010101001000000100 &
#548
b1110100111110010110100101010100 &
#549
b10010001011100100011100000010111 &
#550
b1010110111000110110011000101111 &
#551
b111101101110001111010101001011 &
#552
b101111011000111000110110010000 &
#553
b1001001101111101110001101001010 &
#554
b10111110000111011011010110000101 &
#555
b11101101011011000010101001101 &
#556
b10101001011001010100110011101110 &
#557
b110000110011001111011101011101 &
#558
b11001000111100111010001110101000 &
#559
b10100010111100111011000000101000 &
#560
b10101010111101001100110000101001 &
#561
b1011100110001111110000111011 &
#562
b10011000111000000011101101010000 &
#563
b11100101100010110101000101000011 &
#564
b11000111100100010101111000111000 &
#565
b1101011010110111001001101100100 &
#566
b10010110110110111100011011011 &
#567
b1100110110111010110111011011010 &
#568
b11110111101000110101011011001111 &
#569
b10100011101100000011000011001000 &
#570
b10110100110010001100100110100011 &
#571
b10011001101010011011101110110011 &
#572
b11111000001111110101010011110101 &
#573
b1101010000000000001001110000000 &
#574
b1000000001110111110000000001 &
#575
b10100001011011000011000000010010 &
#576
b10010011011110001100011101101011 &
#577
b1111101011010110110101000010011 &
#578
b100010000110100000111101111011 &
#579
b10101100110010101100110101011100 &
#580
b1111001100000001110101110111111 &
#581
b1110100000001100001011000000001 &
#582
b10010001011111100011100000010101 &
#583
b1010100000100110110011000000111 &
#584
b10111011110001111100101101011 &
#585
b101101011000010111001000010000 &
#586
b1100001100101101110111101000110 &
#587
b10010010001111110100011101110101 &
#588
b1100010000001110110111110000001 &
#589
b10101001011010110100110000010011 &
#590
b110010000101001111011101111001 &
#591
b11101110000100111010110101111000 &
#592
b1011111011100010110010101101000 &
#593
b10001110110100001100001000100111 &
#594
b11010101010010100010011011100011 &
#595
b1101100001101111110110111110 &
#596
b11100101011110000010111000010100 &
#597
b11000101011011010101111000010010 &
#598
b1000011011010111001111101101100 &
#599
b111010000110011000101101111011 &
#600
b1001100111101111001110101010110 &
#601
b11110011101010011010100000110011 &
#602
b11110000001110000010100011110100 &
#603
b11001011011011000010001110010010 &
#604
b10011011011111111011101101101010 &
#605
b11011100000001110101101000000001 &
#606
b10110001011000101100100000010000 &
#607
b11010001101000011010011101001111 &
#608
b1011011100110101110010011000100 &
#609
b11011000110011001101101101011101 &
#610
b11101000111111101101001110101010 &
#611
b100000000101010111000000000110 &
#612
b10000110000001101100000101111110 &
#613
b1111001011100100001010000010111 &
#614
b1110110111011100001011000101101 &
#615
b10111111010111100011010101100101 &
#616
b11100100011000000011000111 &
#617
b111011010101000000101101100110 &
#618
b1010000000100111001100011111000 &
#619
b1000111011110001110000101101011 &
#620
b1101101011001011001001000010001 &
#621
b1100000110000110110111101011111 &
#622
b10001010001110110100001110001011 &
#623
b10000011010101100011111110011001 &
#624
b110000001100100000100011110111 &
#625
b11001000111010111010001110101100 &
#626
b10100110000100111011000101111000 &
#627
b11111111011101001101010101101001 &
#628
b1111100111000000001000111010 &
#629
b11001001101100000010001101001000 &
#630
b10111100110011111011010110100010 &
#631
b111000110001011000101110100001 &
#632
b1101011010001111001001110011110 &
#633
b10111011010110111100110010011 &
#634
b101010000111010111001101111010 &
#635
b1101101001101111110101001110 &
#636
b11101010111110000010110011010100 &
#637
b1001011011010111110000010010 &
#638
b10110011011001000011011101101110 &
#639
b11111000110110011010101101011011 &
#640
b1101110111110000001001011010100 &
#641
b1011001011001110110010000010001 &
#642
b11110000111010001101011101010011 &
#643
b11000110001011000010000101110010 &
#644
b1110101011111111001011011101010 &
#645
b10000100000010100011111000000011 &
#646
b1010011100000100001100000111111 &
#647
b1111100001011001110101000001101 &
#648
b111101011101100000101011101001 &
#649
b100111101110111000111000110100 &
#650
b11100111010111101101000110011010 &
#651
b11100011100101010101000011000110 &
#652
b10111010000010010100101101111100 &
#653
b1001011101111011001110000110101 &
#654
b10010110001000011011100110001111 &
#655
b110111100111110111011011000101 &
#656
b10101001100011111011001101000010 &
#657
b110110110001001111011000100001 &
#658
b10110011010100111011011110011000 &
#659
b11110001011101011010100011101001 &
#660
b11010111100010000010011000111100 &
#661
b101111101011101111001000110010 &
#662
b1000001010110101110000011100100 &
#663
b11010110011011000010011011101 &
#664
b11000000111001010101111110101110 &
#665
b100110010111000000101011100 &
#666
b1011001100111000001101110111010 &
#667
b11110001101101001101011101001001 &
#668
b11011101100111000010010110111010 &
#669
b10100001101111101100111101001010 &
#670
b10011110000100001100010110000111 &
#671
b10011111010010110100010101100011 &
#672
b10000101100101110100000110111001 &
#673
b1000010001001100001111101110001 &
#674
b100110111111011000111011010101 &
#675
b11111000001001101101010000001110 &
#676
b1101110111101000001001011010110 &
#677
b1011011100101110110010000111001 &
#678
b11011010001010001101101101110011 &
#679
b11000100001011101101111011110010 &
#680
b1011101010101111001101011100110 &
#681
b10101000001010001100110011110011 &
#682
b101100001010001111001011110011 &
#683
b1111100001000101110101011110000 &
#684
b111111101011100000101011001101 &
#685
b1010110111000000011100100 &
#686
b11010110111000000010011011010 &
#687
b11000111101100010101111011001000 &
#688
b1100100110110111001000110100100 &
#689
b11011110110110110101101011011011 &
#690
b10010110110100101100011011011000 &
#691
b110101011000110111011011101111 &
#692
b10000001101111111011111101001010 &
#693
b11110000001100000010110000001 &
#694
b10011001011110010100010000010100 &
#695
b11110101011111110101011000010101 &
#696
b10000100000000000011111000000000 &
#697
b1010000000010100001100000000011 &
#698
b1000011100011001110000000111101 &
#699
b111110111101011000101000101001 &
#700
b11011100001111000010000111110 &
#701
b11011101011011010101101000010010 &
#702
b10100011011010101100111101101100 &
#703
b10111010000000001100101101111111 &
#704
b1001000000010011001110000000011 &
#705
b10100011101100011011000000110111 &
#706
b10110100110111001100100110100101 &
#707
b10011111101110011011101011001011 &
#708
b10000111011111110100000110010101 &
#709
b1101100000001100001001000000001 &
#710
b1110001011111110110100000010101 &
#711
b11010100000010100010011000000011 &
#712
b10011100001101111100000111110 &
#713
b1111101011110010110101000010100 &
#714
b100101011100100000111000010111 &
#715
b11000110111010101101111000101100 &
#716
b1111110000001111001010101111110 &
#717
b11001011010100000010000010011 &
#718
b11110010000010010101011101111100 &
#719
b11101011101110000010110000110100 &
#720
b10111011011010111100110010010 &
#721
b101011011001010111001101101110 &
#722
b11000110001101111101101011110 &
#723
b11101011011110010101001110010100 &
#724
b11101011110010111101000010100 &
#725
b10100101011101010100111000010110 &
#726
b11000111100011001101111000111101 &
#727
b1101110111111111001001000101010 &
#728
b1011000000010110110010000000011 &
#729
b11100011100110001101000000111011 &
#730
b10111000111011010100101101010010 &
#731
b1100111011011011001000101101101 &
#732
b11101011011000110101001101101111 &
#733
b11001101100010111101101001000 &
#734
b1000 "
b11111100110101010101010110100110 &
#735
b0 "
b111100000010000000101011111100 &
#736
b110011101000111000100000110000 &
#737
b11110011101111111010100011001010 &
#738
b11110110000000000010100110000000 &
#739
b10111000000011000011010000000010 &
#740
b1100010111110011001000000101011 &
#741
b10101001011100110100110000010111 &
#742
b110110111101001111011000101001 &
#743
b10111011100100111011010000111000 &
#744
b1011011011101011001101101101001 &
#745
b11011111100000001101101000111111 &
#746
b10001100000011101100001000000010 &
#747
b11110010110100100010100000100111 &
#748
b11100101011001000010111011101110 &
#749
b11000000110111010101111101011010 &
#750
b1111101010111000001011001100 &
#751
b11000000000111000010000011111010 &
#752
b101101111111000000101001010 &
#753
b1001110000011000001110110000010 &
#754
b11011010111101011010010000101001 &
#755
b11001011100010101101110000111100 &
#756
b10011111100001111011101000111110 &
#757
b10001101011001110100001000010001 &
#758
b11100000111001100010111101010001 &
#759
b10000100111101010100000101010110 &
#760
b1010011100011100001100000111101 &
#761
b1111110110111001110101000100101 &
#762
b10111101101100000011011001001 &
#763
b100101101110010111000110110100 &
#764
b11001111011101101101110110010110 &
#765
b11001111101101111010001000110110 &
#766
b11000101101000111010000110110000 &
#767
b1001011101100111001110011001000 &
#768
b10010100111110011011100110101011 &
#769
b10001011111110111100000010101 &
#770
b1010100000011010110011000000010 &
#771
b10010111000001111100000101111 &
#772
b1101101100000010110110101000000 &
#773
b1100100000100110110111000000111 &
#774
b11010111011110110101100101101011 &
#775
b101101010100101111001000011000 &
#776
b1101001011010101110110011101100 &
#777
b110010000011110111011101111101 &
#778
b11101010110011111010110000100010 &
#779
b110000010111111110100000 &
#780
b1010000101000000001110000110 &
#781
b10001110000100000011110101111000 &
#782
b11011111010010100010010101100011 &
#783
b10000101100001101100000110111110 &
#784
b1000101011100100001111000010111 &
#785
b1000110111011011001111000101101 &
#786
b1111111011000011001010101101111 &
#787
b1001100100100000001101000111 &
#788
b10110011011010000011011101101100 &
#789
b11111010001010011010101101110011 &
#790
b1000100001110000001111011110100 &
#791
b1011011011001011001101110010001 &
#792
b11011000110000001101101101011111 &
#793
b11101010000011101101001110000010 &
#794
b1010110101010111110000100110 &
#795
b10000100000001000011111011111110 &
#796
b1010001010110100001100000011011 &
#797
b1011010110011001110010011011101 &
#798
b11000000111101001101111110101001 &
#799
b11100111111000000000111010 &
#800
b111001100011000000101101000010 &
#801
b1110110111100111001011000101000 &
#802
b10111010111110100011010000101011 &
#803
b1001001010000011001110000011111 &
#804
b10111110000100011011010110000111 &
#805
b11111010111011000010101100101 &
#806
b10000011101001010100000011001110 &
#807
b110010110011100000100011011101 &
#808
b11100000110110111010111110100100 &
#809
b10001110110100010100001011011000 &
#810
b11010101010111100010011011100101 &
#811
b1011100101101111110011000110 &
#812
b10011010001110000011101101110100 &
#813
b11000011011010110101111110010011 &
#814
b111010000100111000101101111000 &
#815
b1001111011111111001110101101010 &
#816
b11001100000010011010001000000011 &
