.Xil/Vivado-34508-llc/hw_ila_data_1/zip_work/waveform.vcd
$date
        2025-Jul-22 14:13:03
$end
$version
        Vivado v2022.2 (64-bit)
$end
$timescale
        1ps
$end
$scope module dut $end
$var reg 1 " sysref $end
$var reg 1 # tx_ready $end
$var reg 64 $ tx_data [63:0] $end
$var reg 1 d rx_sync_0_OBUF $end
$var reg 1 e tx_sync_0_IBUF $end
$var reg 1 f rx_valid_1 $end
$var reg 1 g locked $end
$var reg 1 h rst_204 $end
$var reg 1 i rx_valid $end
$var reg 64 j rx_data [63:0] $end
$var reg 1 L" _TRIGGER $end
$var reg 1 M" _WINDOW $end
$var reg 1 N" _GAP $end
$upscope $end
$enddefinitions $end
#0
$dumpvars
0"
1#
b1100000101000011101101011011111011000001010000111011010110111111 $
0d
1e
0f
1g
0h
0i
b0 j
0L"
1M"
0N"
$end
#1
b1100000101000011101101011011111111000001010000111011010111000000 $
#2
b1100000101000011101101011100000011000001010000111011010111000001 $
#3
b1100000101000011101101011100000111000001010000111011010111000010 $
#4
b1100000101000011101101011100001011000001010000111011010111000011 $
#5
b1100000101000011101101011100001111000001010000111011010111000100 $
#6
b1100000101000011101101011100010011000001010000111011010111000101 $
#7
1"
b1100000101000011101101011100010111000001010000111011010111000110 $
#8
b1100000101000011101101011100011011000001010000111011010111000111 $
#9
b1100000101000011101101011100011111000001010000111011010111001000 $
#10
b1100000101000011101101011100100011000001010000111011010111001001 $
#11
b1100000101000011101101011100100111000001010000111011010111001010 $
#12
b1100000101000011101101011100101011000001010000111011010111001011 $
#13
b1100000101000011101101011100101111000001010000111011010111001100 $
#14
b1100000101000011101101011100110011000001010000111011010111001101 $
#15
b1100000101000011101101011100110111000001010000111011010111001110 $
#16
b1100000101000011101101011100111011000001010000111011010111001111 $
#17
b1100000101000011101101011100111111000001010000111011010111010000 $
#18
b1100000101000011101101011101000011000001010000111011010111010001 $
#19
b1100000101000011101101011101000111000001010000111011010111010010 $
#20
b1100000101000011101101011101001011000001010000111011010111010011 $
#21
b1100000101000011101101011101001111000001010000111011010111010100 $
#22
b1100000101000011101101011101010011000001010000111011010111010101 $
#23
0"
b1100000101000011101101011101010111000001010000111011010111010110 $
#24
b1100000101000011101101011101011011000001010000111011010111010111 $
#25
b1100000101000011101101011101011111000001010000111011010111011000 $
#26
b1100000101000011101101011101100011000001010000111011010111011001 $
#27
b1100000101000011101101011101100111000001010000111011010111011010 $
#28
b1100000101000011101101011101101011000001010000111011010111011011 $
#29
b1100000101000011101101011101101111000001010000111011010111011100 $
#30
b1100000101000011101101011101110011000001010000111011010111011101 $
#31
b1100000101000011101101011101110111000001010000111011010111011110 $
#32
b1100000101000011101101011101111011000001010000111011010111011111 $
#33
b1100000101000011101101011101111111000001010000111011010111100000 $
#34
b1100000101000011101101011110000011000001010000111011010111100001 $
#35
b1100000101000011101101011110000111000001010000111011010111100010 $
#36
b1100000101000011101101011110001011000001010000111011010111100011 $
#37
b1100000101000011101101011110001111000001010000111011010111100100 $
#38
b1100000101000011101101011110010011000001010000111011010111100101 $
#39
1"
b1100000101000011101101011110010111000001010000111011010111100110 $
#40
b1100000101000011101101011110011011000001010000111011010111100111 $
#41
b1100000101000011101101011110011111000001010000111011010111101000 $
#42
b1100000101000011101101011110100011000001010000111011010111101001 $
#43
b1100000101000011101101011110100111000001010000111011010111101010 $
#44
b1100000101000011101101011110101011000001010000111011010111101011 $
#45
b1100000101000011101101011110101111000001010000111011010111101100 $
#46
b1100000101000011101101011110110011000001010000111011010111101101 $
#47
b1100000101000011101101011110110111000001010000111011010111101110 $
#48
b1100000101000011101101011110111011000001010000111011010111101111 $
#49
b1100000101000011101101011110111111000001010000111011010111110000 $
#50
b1100000101000011101101011111000011000001010000111011010111110001 $
#51
b1100000101000011101101011111000111000001010000111011010111110010 $
#52
b1100000101000011101101011111001011000001010000111011010111110011 $
#53
b1100000101000011101101011111001111000001010000111011010111110100 $
#54
b1100000101000011101101011111010011000001010000111011010111110101 $
#55
0"
b1100000101000011101101011111010111000001010000111011010111110110 $
#56
b1100000101000011101101011111011011000001010000111011010111110111 $
#57
b1100000101000011101101011111011111000001010000111011010111111000 $
#58
b1100000101000011101101011111100011000001010000111011010111111001 $
#59
b1100000101000011101101011111100111000001010000111011010111111010 $
#60
b1100000101000011101101011111101011000001010000111011010111111011 $
#61
b1100000101000011101101011111101111000001010000111011010111111100 $
#62
b1100000101000011101101011111110011000001010000111011010111111101 $
#63
b1100000101000011101101011111110111000001010000111011010111111110 $
#64
b1100000101000011101101011111111011000001010000111011010111111111 $
#65
b1100000101000011101101011111111111000001010000111011011000000000 $
#66
b1100000101000011101101100000000011000001010000111011011000000001 $
#67
b1100000101000011101101100000000111000001010000111011011000000010 $
#68
b1100000101000011101101100000001011000001010000111011011000000011 $
#69
b1100000101000011101101100000001111000001010000111011011000000100 $
#70
b1100000101000011101101100000010011000001010000111011011000000101 $
#71
1"
b1100000101000011101101100000010111000001010000111011011000000110 $
#72
b1100000101000011101101100000011011000001010000111011011000000111 $
#73
b1100000101000011101101100000011111000001010000111011011000001000 $
#74
b1100000101000011101101100000100011000001010000111011011000001001 $
#75
b1100000101000011101101100000100111000001010000111011011000001010 $
#76
b1100000101000011101101100000101011000001010000111011011000001011 $
#77
b1100000101000011101101100000101111000001010000111011011000001100 $
#78
b1100000101000011101101100000110011000001010000111011011000001101 $
#79
b1100000101000011101101100000110111000001010000111011011000001110 $
#80
b1100000101000011101101100000111011000001010000111011011000001111 $
#81
b1100000101000011101101100000111111000001010000111011011000010000 $
#82
b1100000101000011101101100001000011000001010000111011011000010001 $
#83
b1100000101000011101101100001000111000001010000111011011000010010 $
#84
b1100000101000011101101100001001011000001010000111011011000010011 $
#85
b1100000101000011101101100001001111000001010000111011011000010100 $
#86
b1100000101000011101101100001010011000001010000111011011000010101 $
#87
0"
b1100000101000011101101100001010111000001010000111011011000010110 $
#88
b1100000101000011101101100001011011000001010000111011011000010111 $
#89
b1100000101000011101101100001011111000001010000111011011000011000 $
#90
b1100000101000011101101100001100011000001010000111011011000011001 $
#91
b1100000101000011101101100001100111000001010000111011011000011010 $
#92
b1100000101000011101101100001101011000001010000111011011000011011 $
#93
b1100000101000011101101100001101111000001010000111011011000011100 $
#94
b1100000101000011101101100001110011000001010000111011011000011101 $
#95
b1100000101000011101101100001110111000001010000111011011000011110 $
#96
b1100000101000011101101100001111011000001010000111011011000011111 $
#97
b1100000101000011101101100001111111000001010000111011011000100000 $
#98
b1100000101000011101101100010000011000001010000111011011000100001 $
#99
b1100000101000011101101100010000111000001010000111011011000100010 $
#100
b1100000101000011101101100010001011000001010000111011011000100011 $
1L"
#101
b1100000101000011101101100010001111000001010000111011011000100100 $
#102
b1100000101000011101101100010010011000001010000111011011000100101 $
#103
1"
b1100000101000011101101100010010111000001010000111011011000100110 $
#104
b1100000101000011101101100010011011000001010000111011011000100111 $
#105
b1100000101000011101101100010011111000001010000111011011000101000 $
#106
b1100000101000011101101100010100011000001010000111011011000101001 $
#107
b1100000101000011101101100010100111000001010000111011011000101010 $
#108
b1100000101000011101101100010101011000001010000111011011000101011 $
#109
b1100000101000011101101100010101111000001010000111011011000101100 $
#110
b1100000101000011101101100010110011000001010000111011011000101101 $
#111
b1100000101000011101101100010110111000001010000111011011000101110 $
#112
b1100000101000011101101100010111011000001010000111011011000101111 $
#113
b1100000101000011101101100010111111000001010000111011011000110000 $
#114
b1100000101000011101101100011000011000001010000111011011000110001 $
#115
b1100000101000011101101100011000111000001010000111011011000110010 $
#116
b1100000101000011101101100011001011000001010000111011011000110011 $
#117
b1100000101000011101101100011001111000001010000111011011000110100 $
#118
b1100000101000011101101100011010011000001010000111011011000110101 $
#119
0"
b1100000101000011101101100011010111000001010000111011011000110110 $
#120
b1100000101000011101101100011011011000001010000111011011000110111 $
#121
b1100000101000011101101100011011111000001010000111011011000111000 $
#122
b1100000101000011101101100011100011000001010000111011011000111001 $
#123
b1100000101000011101101100011100111000001010000111011011000111010 $
#124
b1100000101000011101101100011101011000001010000111011011000111011 $
#125
b1100000101000011101101100011101111000001010000111011011000111100 $
#126
b1100000101000011101101100011110011000001010000111011011000111101 $
#127
b1100000101000011101101100011110111000001010000111011011000111110 $
#128
b1100000101000011101101100011111011000001010000111011011000111111 $
#129
b1100000101000011101101100011111111000001010000111011011001000000 $
#130
b1100000101000011101101100100000011000001010000111011011001000001 $
#131
b1100000101000011101101100100000111000001010000111011011001000010 $
#132
b1100000101000011101101100100001011000001010000111011011001000011 $
#133
b1100000101000011101101100100001111000001010000111011011001000100 $
#134
b1100000101000011101101100100010011000001010000111011011001000101 $
#135
1"
b1100000101000011101101100100010111000001010000111011011001000110 $
#136
b1100000101000011101101100100011011000001010000111011011001000111 $
#137
b1100000101000011101101100100011111000001010000111011011001001000 $
#138
b1100000101000011101101100100100011000001010000111011011001001001 $
#139
b1100000101000011101101100100100111000001010000111011011001001010 $
#140
b1100000101000011101101100100101011000001010000111011011001001011 $
#141
b1100000101000011101101100100101111000001010000111011011001001100 $
#142
b1100000101000011101101100100110011000001010000111011011001001101 $
#143
b1100000101000011101101100100110111000001010000111011011001001110 $
#144
b1100000101000011101101100100111011000001010000111011011001001111 $
#145
b1100000101000011101101100100111111000001010000111011011001010000 $
#146
b1100000101000011101101100101000011000001010000111011011001010001 $
#147
b1100000101000011101101100101000111000001010000111011011001010010 $
#148
b1100000101000011101101100101001011000001010000111011011001010011 $
#149
b1100000101000011101101100101001111000001010000111011011001010100 $
#150
b1100000101000011101101100101010011000001010000111011011001010101 $
#151
0"
b1100000101000011101101100101010111000001010000111011011001010110 $
#152
b1100000101000011101101100101011011000001010000111011011001010111 $
#153
b1100000101000011101101100101011111000001010000111011011001011000 $
#154
b1100000101000011101101100101100011000001010000111011011001011001 $
#155
b1100000101000011101101100101100111000001010000111011011001011010 $
#156
b1100000101000011101101100101101011000001010000111011011001011011 $
#157
b1100000101000011101101100101101111000001010000111011011001011100 $
#158
b1100000101000011101101100101110011000001010000111011011001011101 $
#159
b1100000101000011101101100101110111000001010000111011011001011110 $
#160
b1100000101000011101101100101111011000001010000111011011001011111 $
#161
b1100000101000011101101100101111111000001010000111011011001100000 $
#162
b1100000101000011101101100110000011000001010000111011011001100001 $
#163
b1100000101000011101101100110000111000001010000111011011001100010 $
#164
b1100000101000011101101100110001011000001010000111011011001100011 $
#165
b1100000101000011101101100110001111000001010000111011011001100100 $
#166
b1100000101000011101101100110010011000001010000111011011001100101 $
#167
1"
b1100000101000011101101100110010111000001010000111011011001100110 $
#168
b1100000101000011101101100110011011000001010000111011011001100111 $
#169
b1100000101000011101101100110011111000001010000111011011001101000 $
#170
b1100000101000011101101100110100011000001010000111011011001101001 $
#171
b1100000101000011101101100110100111000001010000111011011001101010 $
#172
b1100000101000011101101100110101011000001010000111011011001101011 $
#173
b1100000101000011101101100110101111000001010000111011011001101100 $
#174
b1100000101000011101101100110110011000001010000111011011001101101 $
#175
b1100000101000011101101100110110111000001010000111011011001101110 $
#176
b1100000101000011101101100110111011000001010000111011011001101111 $
#177
b1100000101000011101101100110111111000001010000111011011001110000 $
#178
b1100000101000011101101100111000011000001010000111011011001110001 $
#179
b1100000101000011101101100111000111000001010000111011011001110010 $
#180
b1100000101000011101101100111001011000001010000111011011001110011 $
#181
b1100000101000011101101100111001111000001010000111011011001110100 $
#182
b1100000101000011101101100111010011000001010000111011011001110101 $
#183
0"
b1100000101000011101101100111010111000001010000111011011001110110 $
#184
b1100000101000011101101100111011011000001010000111011011001110111 $
#185
b1100000101000011101101100111011111000001010000111011011001111000 $
#186
b1100000101000011101101100111100011000001010000111011011001111001 $
#187
b1100000101000011101101100111100111000001010000111011011001111010 $
#188
b1100000101000011101101100111101011000001010000111011011001111011 $
#189
b1100000101000011101101100111101111000001010000111011011001111100 $
#190
b1100000101000011101101100111110011000001010000111011011001111101 $
#191
b1100000101000011101101100111110111000001010000111011011001111110 $
#192
b1100000101000011101101100111111011000001010000111011011001111111 $
#193
b1100000101000011101101100111111111000001010000111011011010000000 $
#194
b1100000101000011101101101000000011000001010000111011011010000001 $
#195
b1100000101000011101101101000000111000001010000111011011010000010 $
#196
b1100000101000011101101101000001011000001010000111011011010000011 $
#197
b1100000101000011101101101000001111000001010000111011011010000100 $
#198
b1100000101000011101101101000010011000001010000111011011010000101 $
#199
1"
b1100000101000011101101101000010111000001010000111011011010000110 $
#200
b1100000101000011101101101000011011000001010000111011011010000111 $
#201
b1100000101000011101101101000011111000001010000111011011010001000 $
#202
b1100000101000011101101101000100011000001010000111011011010001001 $
#203
b1100000101000011101101101000100111000001010000111011011010001010 $
#204
b1100000101000011101101101000101011000001010000111011011010001011 $
#205
b1100000101000011101101101000101111000001010000111011011010001100 $
#206
b1100000101000011101101101000110011000001010000111011011010001101 $
#207
b1100000101000011101101101000110111000001010000111011011010001110 $
#208
b1100000101000011101101101000111011000001010000111011011010001111 $
#209
b1100000101000011101101101000111111000001010000111011011010010000 $
#210
b1100000101000011101101101001000011000001010000111011011010010001 $
#211
b1100000101000011101101101001000111000001010000111011011010010010 $
#212
b1100000101000011101101101001001011000001010000111011011010010011 $
#213
b1100000101000011101101101001001111000001010000111011011010010100 $
#214
b1100000101000011101101101001010011000001010000111011011010010101 $
#215
0"
b1100000101000011101101101001010111000001010000111011011010010110 $
#216
b1100000101000011101101101001011011000001010000111011011010010111 $
#217
b1100000101000011101101101001011111000001010000111011011010011000 $
#218
b1100000101000011101101101001100011000001010000111011011010011001 $
#219
b1100000101000011101101101001100111000001010000111011011010011010 $
#220
b1100000101000011101101101001101011000001010000111011011010011011 $
#221
b1100000101000011101101101001101111000001010000111011011010011100 $
#222
b1100000101000011101101101001110011000001010000111011011010011101 $
#223
b1100000101000011101101101001110111000001010000111011011010011110 $
#224
b1100000101000011101101101001111011000001010000111011011010011111 $
#225
b1100000101000011101101101001111111000001010000111011011010100000 $
#226
b1100000101000011101101101010000011000001010000111011011010100001 $
#227
b1100000101000011101101101010000111000001010000111011011010100010 $
#228
b1100000101000011101101101010001011000001010000111011011010100011 $
#229
b1100000101000011101101101010001111000001010000111011011010100100 $
#230
b1100000101000011101101101010010011000001010000111011011010100101 $
#231
1"
b1100000101000011101101101010010111000001010000111011011010100110 $
#232
b1100000101000011101101101010011011000001010000111011011010100111 $
#233
b1100000101000011101101101010011111000001010000111011011010101000 $
#234
b1100000101000011101101101010100011000001010000111011011010101001 $
#235
b1100000101000011101101101010100111000001010000111011011010101010 $
#236
b1100000101000011101101101010101011000001010000111011011010101011 $
#237
b1100000101000011101101101010101111000001010000111011011010101100 $
#238
b1100000101000011101101101010110011000001010000111011011010101101 $
#239
b1100000101000011101101101010110111000001010000111011011010101110 $
#240
b1100000101000011101101101010111011000001010000111011011010101111 $
#241
b1100000101000011101101101010111111000001010000111011011010110000 $
#242
b1100000101000011101101101011000011000001010000111011011010110001 $
#243
b1100000101000011101101101011000111000001010000111011011010110010 $
#244
b1100000101000011101101101011001011000001010000111011011010110011 $
#245
b1100000101000011101101101011001111000001010000111011011010110100 $
#246
b1100000101000011101101101011010011000001010000111011011010110101 $
#247
0"
b1100000101000011101101101011010111000001010000111011011010110110 $
#248
b1100000101000011101101101011011011000001010000111011011010110111 $
#249
b1100000101000011101101101011011111000001010000111011011010111000 $
#250
b1100000101000011101101101011100011000001010000111011011010111001 $
#251
b1100000101000011101101101011100111000001010000111011011010111010 $
#252
b1100000101000011101101101011101011000001010000111011011010111011 $
#253
b1100000101000011101101101011101111000001010000111011011010111100 $
#254
b1100000101000011101101101011110011000001010000111011011010111101 $
#255
b1100000101000011101101101011110111000001010000111011011010111110 $
#256
b1100000101000011101101101011111011000001010000111011011010111111 $
#257
b1100000101000011101101101011111111000001010000111011011011000000 $
#258
b1100000101000011101101101100000011000001010000111011011011000001 $
#259
b1100000101000011101101101100000111000001010000111011011011000010 $
#260
b1100000101000011101101101100001011000001010000111011011011000011 $
#261
b1100000101000011101101101100001111000001010000111011011011000100 $
#262
b1100000101000011101101101100010011000001010000111011011011000101 $
#263
1"
b1100000101000011101101101100010111000001010000111011011011000110 $
#264
b1100000101000011101101101100011011000001010000111011011011000111 $
#265
b1100000101000011101101101100011111000001010000111011011011001000 $
#266
b1100000101000011101101101100100011000001010000111011011011001001 $
#267
b1100000101000011101101101100100111000001010000111011011011001010 $
#268
b1100000101000011101101101100101011000001010000111011011011001011 $
#269
b1100000101000011101101101100101111000001010000111011011011001100 $
#270
b1100000101000011101101101100110011000001010000111011011011001101 $
#271
b1100000101000011101101101100110111000001010000111011011011001110 $
#272
b1100000101000011101101101100111011000001010000111011011011001111 $
#273
b1100000101000011101101101100111111000001010000111011011011010000 $
#274
b1100000101000011101101101101000011000001010000111011011011010001 $
#275
b1100000101000011101101101101000111000001010000111011011011010010 $
#276
b1100000101000011101101101101001011000001010000111011011011010011 $
#277
b1100000101000011101101101101001111000001010000111011011011010100 $
#278
b1100000101000011101101101101010011000001010000111011011011010101 $
#279
0"
b1100000101000011101101101101010111000001010000111011011011010110 $
#280
b1100000101000011101101101101011011000001010000111011011011010111 $
#281
b1100000101000011101101101101011111000001010000111011011011011000 $
#282
b1100000101000011101101101101100011000001010000111011011011011001 $
#283
b1100000101000011101101101101100111000001010000111011011011011010 $
#284
b1100000101000011101101101101101011000001010000111011011011011011 $
#285
b1100000101000011101101101101101111000001010000111011011011011100 $
#286
b1100000101000011101101101101110011000001010000111011011011011101 $
#287
b1100000101000011101101101101110111000001010000111011011011011110 $
#288
b1100000101000011101101101101111011000001010000111011011011011111 $
#289
b1100000101000011101101101101111111000001010000111011011011100000 $
#290
b1100000101000011101101101110000011000001010000111011011011100001 $
#291
b1100000101000011101101101110000111000001010000111011011011100010 $
#292
b1100000101000011101101101110001011000001010000111011011011100011 $
#293
b1100000101000011101101101110001111000001010000111011011011100100 $
#294
b1100000101000011101101101110010011000001010000111011011011100101 $
#295
1"
b1100000101000011101101101110010111000001010000111011011011100110 $
#296
b1100000101000011101101101110011011000001010000111011011011100111 $
#297
b1100000101000011101101101110011111000001010000111011011011101000 $
#298
b1100000101000011101101101110100011000001010000111011011011101001 $
#299
b1100000101000011101101101110100111000001010000111011011011101010 $
#300
b1100000101000011101101101110101011000001010000111011011011101011 $
#301
b1100000101000011101101101110101111000001010000111011011011101100 $
#302
b1100000101000011101101101110110011000001010000111011011011101101 $
#303
b1100000101000011101101101110110111000001010000111011011011101110 $
#304
b1100000101000011101101101110111011000001010000111011011011101111 $
#305
b1100000101000011101101101110111111000001010000111011011011110000 $
#306
b1100000101000011101101101111000011000001010000111011011011110001 $
#307
b1100000101000011101101101111000111000001010000111011011011110010 $
#308
b1100000101000011101101101111001011000001010000111011011011110011 $
#309
b1100000101000011101101101111001111000001010000111011011011110100 $
#310
b1100000101000011101101101111010011000001010000111011011011110101 $
#311
0"
b1100000101000011101101101111010111000001010000111011011011110110 $
#312
b1100000101000011101101101111011011000001010000111011011011110111 $
#313
b1100000101000011101101101111011111000001010000111011011011111000 $
#314
b1100000101000011101101101111100011000001010000111011011011111001 $
#315
b1100000101000011101101101111100111000001010000111011011011111010 $
#316
b1100000101000011101101101111101011000001010000111011011011111011 $
#317
b1100000101000011101101101111101111000001010000111011011011111100 $
#318
b1100000101000011101101101111110011000001010000111011011011111101 $
#319
b1100000101000011101101101111110111000001010000111011011011111110 $
#320
b1100000101000011101101101111111011000001010000111011011011111111 $
#321
b1100000101000011101101101111111111000001010000111011011100000000 $
#322
b1100000101000011101101110000000011000001010000111011011100000001 $
#323
b1100000101000011101101110000000111000001010000111011011100000010 $
#324
b1100000101000011101101110000001011000001010000111011011100000011 $
#325
b1100000101000011101101110000001111000001010000111011011100000100 $
#326
b1100000101000011101101110000010011000001010000111011011100000101 $
#327
1"
b1100000101000011101101110000010111000001010000111011011100000110 $
#328
b1100000101000011101101110000011011000001010000111011011100000111 $
#329
b1100000101000011101101110000011111000001010000111011011100001000 $
#330
b1100000101000011101101110000100011000001010000111011011100001001 $
#331
b1100000101000011101101110000100111000001010000111011011100001010 $
#332
b1100000101000011101101110000101011000001010000111011011100001011 $
#333
b1100000101000011101101110000101111000001010000111011011100001100 $
#334
b1100000101000011101101110000110011000001010000111011011100001101 $
#335
b1100000101000011101101110000110111000001010000111011011100001110 $
#336
b1100000101000011101101110000111011000001010000111011011100001111 $
#337
b1100000101000011101101110000111111000001010000111011011100010000 $
#338
b1100000101000011101101110001000011000001010000111011011100010001 $
#339
b1100000101000011101101110001000111000001010000111011011100010010 $
#340
b1100000101000011101101110001001011000001010000111011011100010011 $
#341
b1100000101000011101101110001001111000001010000111011011100010100 $
#342
b1100000101000011101101110001010011000001010000111011011100010101 $
#343
0"
b1100000101000011101101110001010111000001010000111011011100010110 $
#344
b1100000101000011101101110001011011000001010000111011011100010111 $
#345
b1100000101000011101101110001011111000001010000111011011100011000 $
#346
b1100000101000011101101110001100011000001010000111011011100011001 $
#347
b1100000101000011101101110001100111000001010000111011011100011010 $
#348
b1100000101000011101101110001101011000001010000111011011100011011 $
#349
b1100000101000011101101110001101111000001010000111011011100011100 $
#350
b1100000101000011101101110001110011000001010000111011011100011101 $
#351
b1100000101000011101101110001110111000001010000111011011100011110 $
#352
b1100000101000011101101110001111011000001010000111011011100011111 $
#353
b1100000101000011101101110001111111000001010000111011011100100000 $
#354
b1100000101000011101101110010000011000001010000111011011100100001 $
#355
b1100000101000011101101110010000111000001010000111011011100100010 $
#356
b1100000101000011101101110010001011000001010000111011011100100011 $
#357
b1100000101000011101101110010001111000001010000111011011100100100 $
#358
b1100000101000011101101110010010011000001010000111011011100100101 $
#359
1"
b1100000101000011101101110010010111000001010000111011011100100110 $
#360
b1100000101000011101101110010011011000001010000111011011100100111 $
#361
b1100000101000011101101110010011111000001010000111011011100101000 $
#362
b1100000101000011101101110010100011000001010000111011011100101001 $
#363
b1100000101000011101101110010100111000001010000111011011100101010 $
#364
b1100000101000011101101110010101011000001010000111011011100101011 $
#365
b1100000101000011101101110010101111000001010000111011011100101100 $
#366
b1100000101000011101101110010110011000001010000111011011100101101 $
#367
b1100000101000011101101110010110111000001010000111011011100101110 $
#368
b1100000101000011101101110010111011000001010000111011011100101111 $
#369
b1100000101000011101101110010111111000001010000111011011100110000 $
#370
b1100000101000011101101110011000011000001010000111011011100110001 $
#371
b1100000101000011101101110011000111000001010000111011011100110010 $
#372
b1100000101000011101101110011001011000001010000111011011100110011 $
#373
b1100000101000011101101110011001111000001010000111011011100110100 $
#374
b1100000101000011101101110011010011000001010000111011011100110101 $
#375
0"
b1100000101000011101101110011010111000001010000111011011100110110 $
#376
b1100000101000011101101110011011011000001010000111011011100110111 $
#377
b1100000101000011101101110011011111000001010000111011011100111000 $
#378
b1100000101000011101101110011100011000001010000111011011100111001 $
#379
b1100000101000011101101110011100111000001010000111011011100111010 $
#380
b1100000101000011101101110011101011000001010000111011011100111011 $
#381
b1100000101000011101101110011101111000001010000111011011100111100 $
#382
b1100000101000011101101110011110011000001010000111011011100111101 $
#383
b1100000101000011101101110011110111000001010000111011011100111110 $
#384
b1100000101000011101101110011111011000001010000111011011100111111 $
#385
b1100000101000011101101110011111111000001010000111011011101000000 $
#386
b1100000101000011101101110100000011000001010000111011011101000001 $
#387
b1100000101000011101101110100000111000001010000111011011101000010 $
#388
b1100000101000011101101110100001011000001010000111011011101000011 $
#389
b1100000101000011101101110100001111000001010000111011011101000100 $
#390
b1100000101000011101101110100010011000001010000111011011101000101 $
#391
1"
b1100000101000011101101110100010111000001010000111011011101000110 $
#392
b1100000101000011101101110100011011000001010000111011011101000111 $
#393
b1100000101000011101101110100011111000001010000111011011101001000 $
#394
b1100000101000011101101110100100011000001010000111011011101001001 $
#395
b1100000101000011101101110100100111000001010000111011011101001010 $
#396
b1100000101000011101101110100101011000001010000111011011101001011 $
#397
b1100000101000011101101110100101111000001010000111011011101001100 $
#398
b1100000101000011101101110100110011000001010000111011011101001101 $
#399
b1100000101000011101101110100110111000001010000111011011101001110 $
#400
b1100000101000011101101110100111011000001010000111011011101001111 $
#401
b1100000101000011101101110100111111000001010000111011011101010000 $
#402
b1100000101000011101101110101000011000001010000111011011101010001 $
#403
b1100000101000011101101110101000111000001010000111011011101010010 $
#404
b1100000101000011101101110101001011000001010000111011011101010011 $
#405
b1100000101000011101101110101001111000001010000111011011101010100 $
#406
b1100000101000011101101110101010011000001010000111011011101010101 $
#407
0"
b1100000101000011101101110101010111000001010000111011011101010110 $
#408
b1100000101000011101101110101011011000001010000111011011101010111 $
#409
b1100000101000011101101110101011111000001010000111011011101011000 $
#410
b1100000101000011101101110101100011000001010000111011011101011001 $
#411
b1100000101000011101101110101100111000001010000111011011101011010 $
#412
b1100000101000011101101110101101011000001010000111011011101011011 $
#413
b1100000101000011101101110101101111000001010000111011011101011100 $
#414
b1100000101000011101101110101110011000001010000111011011101011101 $
#415
b1100000101000011101101110101110111000001010000111011011101011110 $
#416
b1100000101000011101101110101111011000001010000111011011101011111 $
#417
b1100000101000011101101110101111111000001010000111011011101100000 $
#418
b1100000101000011101101110110000011000001010000111011011101100001 $
#419
b1100000101000011101101110110000111000001010000111011011101100010 $
#420
b1100000101000011101101110110001011000001010000111011011101100011 $
#421
b1100000101000011101101110110001111000001010000111011011101100100 $
#422
b1100000101000011101101110110010011000001010000111011011101100101 $
#423
1"
b1100000101000011101101110110010111000001010000111011011101100110 $
#424
b1100000101000011101101110110011011000001010000111011011101100111 $
#425
b1100000101000011101101110110011111000001010000111011011101101000 $
#426
b1100000101000011101101110110100011000001010000111011011101101001 $
#427
b1100000101000011101101110110100111000001010000111011011101101010 $
#428
b1100000101000011101101110110101011000001010000111011011101101011 $
#429
b1100000101000011101101110110101111000001010000111011011101101100 $
#430
b1100000101000011101101110110110011000001010000111011011101101101 $
#431
b1100000101000011101101110110110111000001010000111011011101101110 $
#432
b1100000101000011101101110110111011000001010000111011011101101111 $
#433
b1100000101000011101101110110111111000001010000111011011101110000 $
#434
b1100000101000011101101110111000011000001010000111011011101110001 $
#435
b1100000101000011101101110111000111000001010000111011011101110010 $
#436
b1100000101000011101101110111001011000001010000111011011101110011 $
#437
b1100000101000011101101110111001111000001010000111011011101110100 $
#438
b1100000101000011101101110111010011000001010000111011011101110101 $
#439
0"
b1100000101000011101101110111010111000001010000111011011101110110 $
#440
b1100000101000011101101110111011011000001010000111011011101110111 $
#441
b1100000101000011101101110111011111000001010000111011011101111000 $
#442
b1100000101000011101101110111100011000001010000111011011101111001 $
#443
b1100000101000011101101110111100111000001010000111011011101111010 $
#444
b1100000101000011101101110111101011000001010000111011011101111011 $
#445
b1100000101000011101101110111101111000001010000111011011101111100 $
#446
b1100000101000011101101110111110011000001010000111011011101111101 $
#447
b1100000101000011101101110111110111000001010000111011011101111110 $
#448
b1100000101000011101101110111111011000001010000111011011101111111 $
#449
b1100000101000011101101110111111111000001010000111011011110000000 $
#450
b1100000101000011101101111000000011000001010000111011011110000001 $
#451
b1100000101000011101101111000000111000001010000111011011110000010 $
#452
b1100000101000011101101111000001011000001010000111011011110000011 $
#453
b1100000101000011101101111000001111000001010000111011011110000100 $
#454
b1100000101000011101101111000010011000001010000111011011110000101 $
#455
1"
b1100000101000011101101111000010111000001010000111011011110000110 $
#456
b1100000101000011101101111000011011000001010000111011011110000111 $
#457
b1100000101000011101101111000011111000001010000111011011110001000 $
#458
b1100000101000011101101111000100011000001010000111011011110001001 $
#459
b1100000101000011101101111000100111000001010000111011011110001010 $
#460
b1100000101000011101101111000101011000001010000111011011110001011 $
#461
b1100000101000011101101111000101111000001010000111011011110001100 $
#462
b1100000101000011101101111000110011000001010000111011011110001101 $
#463
b1100000101000011101101111000110111000001010000111011011110001110 $
#464
b1100000101000011101101111000111011000001010000111011011110001111 $
#465
b1100000101000011101101111000111111000001010000111011011110010000 $
#466
b1100000101000011101101111001000011000001010000111011011110010001 $
#467
b1100000101000011101101111001000111000001010000111011011110010010 $
#468
b1100000101000011101101111001001011000001010000111011011110010011 $
#469
b1100000101000011101101111001001111000001010000111011011110010100 $
#470
b1100000101000011101101111001010011000001010000111011011110010101 $
#471
0"
b1100000101000011101101111001010111000001010000111011011110010110 $
#472
b1100000101000011101101111001011011000001010000111011011110010111 $
#473
b1100000101000011101101111001011111000001010000111011011110011000 $
#474
b1100000101000011101101111001100011000001010000111011011110011001 $
#475
b1100000101000011101101111001100111000001010000111011011110011010 $
#476
b1100000101000011101101111001101011000001010000111011011110011011 $
#477
b1100000101000011101101111001101111000001010000111011011110011100 $
#478
b1100000101000011101101111001110011000001010000111011011110011101 $
#479
b1100000101000011101101111001110111000001010000111011011110011110 $
#480
b1100000101000011101101111001111011000001010000111011011110011111 $
#481
b1100000101000011101101111001111111000001010000111011011110100000 $
#482
b1100000101000011101101111010000011000001010000111011011110100001 $
#483
b1100000101000011101101111010000111000001010000111011011110100010 $
#484
b1100000101000011101101111010001011000001010000111011011110100011 $
#485
b1100000101000011101101111010001111000001010000111011011110100100 $
#486
b1100000101000011101101111010010011000001010000111011011110100101 $
#487
1"
b1100000101000011101101111010010111000001010000111011011110100110 $
#488
b1100000101000011101101111010011011000001010000111011011110100111 $
#489
b1100000101000011101101111010011111000001010000111011011110101000 $
#490
b1100000101000011101101111010100011000001010000111011011110101001 $
#491
b1100000101000011101101111010100111000001010000111011011110101010 $
#492
b1100000101000011101101111010101011000001010000111011011110101011 $
#493
b1100000101000011101101111010101111000001010000111011011110101100 $
#494
b1100000101000011101101111010110011000001010000111011011110101101 $
#495
b1100000101000011101101111010110111000001010000111011011110101110 $
#496
b1100000101000011101101111010111011000001010000111011011110101111 $
#497
b1100000101000011101101111010111111000001010000111011011110110000 $
#498
b1100000101000011101101111011000011000001010000111011011110110001 $
