.Xil/Vivado-67144-llc/hw_ila_data_1/zip_work/waveform.vcd
$date
        2025-Jul-23 11:23:22
$end
$version
        Vivado v2022.2 (64-bit)
$end
$timescale
        1ps
$end
$scope module dut $end
$var reg 1 " sysref $end
$var reg 1 # tx_ready $end
$var reg 64 $ tx_data [63:0] $end
$var reg 1 d rx_sync_0_OBUF $end
$var reg 1 e tx_sync_0_IBUF $end
$var reg 1 f rx_valid_1 $end
$var reg 1 g locked $end
$var reg 1 h rst_204 $end
$var reg 1 i rx_valid $end
$var reg 64 j rx_data [63:0] $end
$var reg 1 L" _TRIGGER $end
$var reg 1 M" _WINDOW $end
$var reg 1 N" _GAP $end
$upscope $end
$enddefinitions $end
#0
$dumpvars
0"
1#
b11111101100011101111110100011000111111011000111011111101000111 $
1d
1e
0f
1g
0h
0i
b0 j
0L"
1M"
0N"
$end
#1
b11111101100011101111110100011100111111011000111011111101001000 $
#2
b11111101100011101111110100100000111111011000111011111101001001 $
#3
b11111101100011101111110100100100111111011000111011111101001010 $
#4
b11111101100011101111110100101000111111011000111011111101001011 $
#5
b11111101100011101111110100101100111111011000111011111101001100 $
#6
b11111101100011101111110100110000111111011000111011111101001101 $
#7
b11111101100011101111110100110100111111011000111011111101001110 $
#8
b11111101100011101111110100111000111111011000111011111101001111 $
#9
b11111101100011101111110100111100111111011000111011111101010000 $
#10
b11111101100011101111110101000000111111011000111011111101010001 $
#11
b11111101100011101111110101000100111111011000111011111101010010 $
#12
b11111101100011101111110101001000111111011000111011111101010011 $
#13
b11111101100011101111110101001100111111011000111011111101010100 $
#14
b11111101100011101111110101010000111111011000111011111101010101 $
#15
1"
b11111101100011101111110101010100111111011000111011111101010110 $
#16
b11111101100011101111110101011000111111011000111011111101010111 $
#17
b11111101100011101111110101011100111111011000111011111101011000 $
#18
b11111101100011101111110101100000111111011000111011111101011001 $
#19
b11111101100011101111110101100100111111011000111011111101011010 $
#20
b11111101100011101111110101101000111111011000111011111101011011 $
#21
b11111101100011101111110101101100111111011000111011111101011100 $
#22
b11111101100011101111110101110000111111011000111011111101011101 $
#23
b11111101100011101111110101110100111111011000111011111101011110 $
#24
b11111101100011101111110101111000111111011000111011111101011111 $
#25
b11111101100011101111110101111100111111011000111011111101100000 $
#26
b11111101100011101111110110000000111111011000111011111101100001 $
#27
b11111101100011101111110110000100111111011000111011111101100010 $
#28
b11111101100011101111110110001000111111011000111011111101100011 $
#29
b11111101100011101111110110001100111111011000111011111101100100 $
#30
b11111101100011101111110110010000111111011000111011111101100101 $
#31
0"
b11111101100011101111110110010100111111011000111011111101100110 $
#32
b11111101100011101111110110011000111111011000111011111101100111 $
#33
b11111101100011101111110110011100111111011000111011111101101000 $
#34
b11111101100011101111110110100000111111011000111011111101101001 $
#35
b11111101100011101111110110100100111111011000111011111101101010 $
#36
b11111101100011101111110110101000111111011000111011111101101011 $
#37
b11111101100011101111110110101100111111011000111011111101101100 $
#38
b11111101100011101111110110110000111111011000111011111101101101 $
#39
b11111101100011101111110110110100111111011000111011111101101110 $
#40
b11111101100011101111110110111000111111011000111011111101101111 $
#41
b11111101100011101111110110111100111111011000111011111101110000 $
#42
b11111101100011101111110111000000111111011000111011111101110001 $
#43
b11111101100011101111110111000100111111011000111011111101110010 $
#44
b11111101100011101111110111001000111111011000111011111101110011 $
#45
b11111101100011101111110111001100111111011000111011111101110100 $
#46
b11111101100011101111110111010000111111011000111011111101110101 $
#47
1"
b11111101100011101111110111010100111111011000111011111101110110 $
#48
b11111101100011101111110111011000111111011000111011111101110111 $
#49
b11111101100011101111110111011100111111011000111011111101111000 $
#50
b11111101100011101111110111100000111111011000111011111101111001 $
#51
b11111101100011101111110111100100111111011000111011111101111010 $
#52
b11111101100011101111110111101000111111011000111011111101111011 $
#53
b11111101100011101111110111101100111111011000111011111101111100 $
#54
b11111101100011101111110111110000111111011000111011111101111101 $
#55
b11111101100011101111110111110100111111011000111011111101111110 $
#56
b11111101100011101111110111111000111111011000111011111101111111 $
#57
b11111101100011101111110111111100111111011000111011111110000000 $
#58
b11111101100011101111111000000000111111011000111011111110000001 $
#59
b11111101100011101111111000000100111111011000111011111110000010 $
#60
b11111101100011101111111000001000111111011000111011111110000011 $
#61
b11111101100011101111111000001100111111011000111011111110000100 $
#62
b11111101100011101111111000010000111111011000111011111110000101 $
#63
0"
b11111101100011101111111000010100111111011000111011111110000110 $
#64
b11111101100011101111111000011000111111011000111011111110000111 $
#65
b11111101100011101111111000011100111111011000111011111110001000 $
#66
b11111101100011101111111000100000111111011000111011111110001001 $
#67
b11111101100011101111111000100100111111011000111011111110001010 $
#68
b11111101100011101111111000101000111111011000111011111110001011 $
#69
b11111101100011101111111000101100111111011000111011111110001100 $
#70
b11111101100011101111111000110000111111011000111011111110001101 $
#71
b11111101100011101111111000110100111111011000111011111110001110 $
#72
b11111101100011101111111000111000111111011000111011111110001111 $
#73
b11111101100011101111111000111100111111011000111011111110010000 $
#74
b11111101100011101111111001000000111111011000111011111110010001 $
#75
b11111101100011101111111001000100111111011000111011111110010010 $
#76
b11111101100011101111111001001000111111011000111011111110010011 $
#77
b11111101100011101111111001001100111111011000111011111110010100 $
#78
b11111101100011101111111001010000111111011000111011111110010101 $
#79
1"
b11111101100011101111111001010100111111011000111011111110010110 $
#80
b11111101100011101111111001011000111111011000111011111110010111 $
#81
b11111101100011101111111001011100111111011000111011111110011000 $
#82
b11111101100011101111111001100000111111011000111011111110011001 $
#83
b11111101100011101111111001100100111111011000111011111110011010 $
#84
b11111101100011101111111001101000111111011000111011111110011011 $
#85
b11111101100011101111111001101100111111011000111011111110011100 $
#86
b11111101100011101111111001110000111111011000111011111110011101 $
#87
b11111101100011101111111001110100111111011000111011111110011110 $
#88
b11111101100011101111111001111000111111011000111011111110011111 $
#89
b11111101100011101111111001111100111111011000111011111110100000 $
#90
b11111101100011101111111010000000111111011000111011111110100001 $
#91
b11111101100011101111111010000100111111011000111011111110100010 $
#92
b11111101100011101111111010001000111111011000111011111110100011 $
#93
b11111101100011101111111010001100111111011000111011111110100100 $
#94
b11111101100011101111111010010000111111011000111011111110100101 $
#95
0"
b11111101100011101111111010010100111111011000111011111110100110 $
#96
b11111101100011101111111010011000111111011000111011111110100111 $
#97
b11111101100011101111111010011100111111011000111011111110101000 $
#98
b11111101100011101111111010100000111111011000111011111110101001 $
#99
b11111101100011101111111010100100111111011000111011111110101010 $
#100
b11111101100011101111111010101000111111011000111011111110101011 $
1L"
#101
b11111101100011101111111010101100111111011000111011111110101100 $
#102
b11111101100011101111111010110000111111011000111011111110101101 $
#103
b11111101100011101111111010110100111111011000111011111110101110 $
#104
b11111101100011101111111010111000111111011000111011111110101111 $
#105
b11111101100011101111111010111100111111011000111011111110110000 $
#106
b11111101100011101111111011000000111111011000111011111110110001 $
#107
b11111101100011101111111011000100111111011000111011111110110010 $
#108
b11111101100011101111111011001000111111011000111011111110110011 $
#109
b11111101100011101111111011001100111111011000111011111110110100 $
#110
b11111101100011101111111011010000111111011000111011111110110101 $
#111
1"
b11111101100011101111111011010100111111011000111011111110110110 $
#112
b11111101100011101111111011011000111111011000111011111110110111 $
#113
b11111101100011101111111011011100111111011000111011111110111000 $
#114
b11111101100011101111111011100000111111011000111011111110111001 $
#115
b11111101100011101111111011100100111111011000111011111110111010 $
#116
b11111101100011101111111011101000111111011000111011111110111011 $
#117
b11111101100011101111111011101100111111011000111011111110111100 $
#118
b11111101100011101111111011110000111111011000111011111110111101 $
#119
b11111101100011101111111011110100111111011000111011111110111110 $
#120
b11111101100011101111111011111000111111011000111011111110111111 $
#121
b11111101100011101111111011111100111111011000111011111111000000 $
#122
b11111101100011101111111100000000111111011000111011111111000001 $
#123
b11111101100011101111111100000100111111011000111011111111000010 $
#124
b11111101100011101111111100001000111111011000111011111111000011 $
#125
b11111101100011101111111100001100111111011000111011111111000100 $
#126
b11111101100011101111111100010000111111011000111011111111000101 $
#127
0"
b11111101100011101111111100010100111111011000111011111111000110 $
#128
b11111101100011101111111100011000111111011000111011111111000111 $
#129
b11111101100011101111111100011100111111011000111011111111001000 $
#130
b11111101100011101111111100100000111111011000111011111111001001 $
#131
b11111101100011101111111100100100111111011000111011111111001010 $
#132
b11111101100011101111111100101000111111011000111011111111001011 $
#133
b11111101100011101111111100101100111111011000111011111111001100 $
#134
b11111101100011101111111100110000111111011000111011111111001101 $
#135
b11111101100011101111111100110100111111011000111011111111001110 $
#136
b11111101100011101111111100111000111111011000111011111111001111 $
#137
b11111101100011101111111100111100111111011000111011111111010000 $
#138
b11111101100011101111111101000000111111011000111011111111010001 $
#139
b11111101100011101111111101000100111111011000111011111111010010 $
#140
b11111101100011101111111101001000111111011000111011111111010011 $
#141
b11111101100011101111111101001100111111011000111011111111010100 $
#142
b11111101100011101111111101010000111111011000111011111111010101 $
#143
1"
b11111101100011101111111101010100111111011000111011111111010110 $
#144
b11111101100011101111111101011000111111011000111011111111010111 $
#145
b11111101100011101111111101011100111111011000111011111111011000 $
#146
b11111101100011101111111101100000111111011000111011111111011001 $
#147
b11111101100011101111111101100100111111011000111011111111011010 $
#148
b11111101100011101111111101101000111111011000111011111111011011 $
#149
b11111101100011101111111101101100111111011000111011111111011100 $
#150
b11111101100011101111111101110000111111011000111011111111011101 $
#151
b11111101100011101111111101110100111111011000111011111111011110 $
#152
b11111101100011101111111101111000111111011000111011111111011111 $
#153
b11111101100011101111111101111100111111011000111011111111100000 $
#154
b11111101100011101111111110000000111111011000111011111111100001 $
#155
b11111101100011101111111110000100111111011000111011111111100010 $
#156
b11111101100011101111111110001000111111011000111011111111100011 $
#157
b11111101100011101111111110001100111111011000111011111111100100 $
#158
b11111101100011101111111110010000111111011000111011111111100101 $
#159
0"
b11111101100011101111111110010100111111011000111011111111100110 $
#160
b11111101100011101111111110011000111111011000111011111111100111 $
#161
b11111101100011101111111110011100111111011000111011111111101000 $
#162
b11111101100011101111111110100000111111011000111011111111101001 $
#163
b11111101100011101111111110100100111111011000111011111111101010 $
#164
b11111101100011101111111110101000111111011000111011111111101011 $
#165
b11111101100011101111111110101100111111011000111011111111101100 $
#166
b11111101100011101111111110110000111111011000111011111111101101 $
#167
b11111101100011101111111110110100111111011000111011111111101110 $
#168
b11111101100011101111111110111000111111011000111011111111101111 $
#169
b11111101100011101111111110111100111111011000111011111111110000 $
#170
b11111101100011101111111111000000111111011000111011111111110001 $
#171
b11111101100011101111111111000100111111011000111011111111110010 $
#172
b11111101100011101111111111001000111111011000111011111111110011 $
#173
b11111101100011101111111111001100111111011000111011111111110100 $
#174
b11111101100011101111111111010000111111011000111011111111110101 $
#175
1"
b11111101100011101111111111010100111111011000111011111111110110 $
#176
b11111101100011101111111111011000111111011000111011111111110111 $
#177
b11111101100011101111111111011100111111011000111011111111111000 $
#178
b11111101100011101111111111100000111111011000111011111111111001 $
#179
b11111101100011101111111111100100111111011000111011111111111010 $
#180
b11111101100011101111111111101000111111011000111011111111111011 $
#181
b11111101100011101111111111101100111111011000111011111111111100 $
#182
b11111101100011101111111111110000111111011000111011111111111101 $
#183
b11111101100011101111111111110100111111011000111011111111111110 $
#184
b11111101100011101111111111111000111111011000111011111111111111 $
#185
b11111101100011101111111111111100111111011000111100000000000000 $
#186
b11111101100011110000000000000000111111011000111100000000000001 $
#187
b11111101100011110000000000000100111111011000111100000000000010 $
#188
b11111101100011110000000000001000111111011000111100000000000011 $
#189
b11111101100011110000000000001100111111011000111100000000000100 $
#190
b11111101100011110000000000010000111111011000111100000000000101 $
#191
0"
b11111101100011110000000000010100111111011000111100000000000110 $
#192
b11111101100011110000000000011000111111011000111100000000000111 $
#193
b11111101100011110000000000011100111111011000111100000000001000 $
#194
b11111101100011110000000000100000111111011000111100000000001001 $
#195
b11111101100011110000000000100100111111011000111100000000001010 $
#196
b11111101100011110000000000101000111111011000111100000000001011 $
#197
b11111101100011110000000000101100111111011000111100000000001100 $
#198
b11111101100011110000000000110000111111011000111100000000001101 $
#199
b11111101100011110000000000110100111111011000111100000000001110 $
#200
b11111101100011110000000000111000111111011000111100000000001111 $
#201
b11111101100011110000000000111100111111011000111100000000010000 $
#202
b11111101100011110000000001000000111111011000111100000000010001 $
#203
b11111101100011110000000001000100111111011000111100000000010010 $
#204
b11111101100011110000000001001000111111011000111100000000010011 $
#205
b11111101100011110000000001001100111111011000111100000000010100 $
#206
b11111101100011110000000001010000111111011000111100000000010101 $
#207
1"
b11111101100011110000000001010100111111011000111100000000010110 $
#208
b11111101100011110000000001011000111111011000111100000000010111 $
#209
b11111101100011110000000001011100111111011000111100000000011000 $
#210
b11111101100011110000000001100000111111011000111100000000011001 $
#211
b11111101100011110000000001100100111111011000111100000000011010 $
#212
b11111101100011110000000001101000111111011000111100000000011011 $
#213
b11111101100011110000000001101100111111011000111100000000011100 $
#214
b11111101100011110000000001110000111111011000111100000000011101 $
#215
b11111101100011110000000001110100111111011000111100000000011110 $
#216
b11111101100011110000000001111000111111011000111100000000011111 $
#217
b11111101100011110000000001111100111111011000111100000000100000 $
#218
b11111101100011110000000010000000111111011000111100000000100001 $
#219
b11111101100011110000000010000100111111011000111100000000100010 $
#220
b11111101100011110000000010001000111111011000111100000000100011 $
#221
b11111101100011110000000010001100111111011000111100000000100100 $
#222
b11111101100011110000000010010000111111011000111100000000100101 $
#223
0"
b11111101100011110000000010010100111111011000111100000000100110 $
#224
b11111101100011110000000010011000111111011000111100000000100111 $
#225
b11111101100011110000000010011100111111011000111100000000101000 $
#226
b11111101100011110000000010100000111111011000111100000000101001 $
#227
b11111101100011110000000010100100111111011000111100000000101010 $
#228
b11111101100011110000000010101000111111011000111100000000101011 $
#229
b11111101100011110000000010101100111111011000111100000000101100 $
#230
b11111101100011110000000010110000111111011000111100000000101101 $
#231
b11111101100011110000000010110100111111011000111100000000101110 $
#232
b11111101100011110000000010111000111111011000111100000000101111 $
#233
b11111101100011110000000010111100111111011000111100000000110000 $
#234
b11111101100011110000000011000000111111011000111100000000110001 $
#235
b11111101100011110000000011000100111111011000111100000000110010 $
#236
b11111101100011110000000011001000111111011000111100000000110011 $
#237
b11111101100011110000000011001100111111011000111100000000110100 $
#238
b11111101100011110000000011010000111111011000111100000000110101 $
#239
1"
b11111101100011110000000011010100111111011000111100000000110110 $
#240
b11111101100011110000000011011000111111011000111100000000110111 $
#241
b11111101100011110000000011011100111111011000111100000000111000 $
#242
b11111101100011110000000011100000111111011000111100000000111001 $
#243
b11111101100011110000000011100100111111011000111100000000111010 $
#244
b11111101100011110000000011101000111111011000111100000000111011 $
#245
b11111101100011110000000011101100111111011000111100000000111100 $
#246
b11111101100011110000000011110000111111011000111100000000111101 $
#247
b11111101100011110000000011110100111111011000111100000000111110 $
#248
b11111101100011110000000011111000111111011000111100000000111111 $
#249
b11111101100011110000000011111100111111011000111100000001000000 $
#250
b11111101100011110000000100000000111111011000111100000001000001 $
#251
b11111101100011110000000100000100111111011000111100000001000010 $
#252
b11111101100011110000000100001000111111011000111100000001000011 $
#253
b11111101100011110000000100001100111111011000111100000001000100 $
#254
b11111101100011110000000100010000111111011000111100000001000101 $
#255
0"
b11111101100011110000000100010100111111011000111100000001000110 $
#256
b11111101100011110000000100011000111111011000111100000001000111 $
#257
b11111101100011110000000100011100111111011000111100000001001000 $
#258
b11111101100011110000000100100000111111011000111100000001001001 $
#259
b11111101100011110000000100100100111111011000111100000001001010 $
#260
b11111101100011110000000100101000111111011000111100000001001011 $
#261
b11111101100011110000000100101100111111011000111100000001001100 $
#262
b11111101100011110000000100110000111111011000111100000001001101 $
#263
b11111101100011110000000100110100111111011000111100000001001110 $
#264
b11111101100011110000000100111000111111011000111100000001001111 $
#265
b11111101100011110000000100111100111111011000111100000001010000 $
#266
b11111101100011110000000101000000111111011000111100000001010001 $
#267
b11111101100011110000000101000100111111011000111100000001010010 $
#268
b11111101100011110000000101001000111111011000111100000001010011 $
#269
b11111101100011110000000101001100111111011000111100000001010100 $
#270
b11111101100011110000000101010000111111011000111100000001010101 $
#271
1"
b11111101100011110000000101010100111111011000111100000001010110 $
#272
b11111101100011110000000101011000111111011000111100000001010111 $
#273
b11111101100011110000000101011100111111011000111100000001011000 $
#274
b11111101100011110000000101100000111111011000111100000001011001 $
#275
b11111101100011110000000101100100111111011000111100000001011010 $
#276
b11111101100011110000000101101000111111011000111100000001011011 $
#277
b11111101100011110000000101101100111111011000111100000001011100 $
#278
b11111101100011110000000101110000111111011000111100000001011101 $
#279
b11111101100011110000000101110100111111011000111100000001011110 $
#280
b11111101100011110000000101111000111111011000111100000001011111 $
#281
b11111101100011110000000101111100111111011000111100000001100000 $
#282
b11111101100011110000000110000000111111011000111100000001100001 $
#283
b11111101100011110000000110000100111111011000111100000001100010 $
#284
b11111101100011110000000110001000111111011000111100000001100011 $
#285
b11111101100011110000000110001100111111011000111100000001100100 $
#286
b11111101100011110000000110010000111111011000111100000001100101 $
#287
0"
b11111101100011110000000110010100111111011000111100000001100110 $
#288
b11111101100011110000000110011000111111011000111100000001100111 $
#289
b11111101100011110000000110011100111111011000111100000001101000 $
#290
b11111101100011110000000110100000111111011000111100000001101001 $
#291
b11111101100011110000000110100100111111011000111100000001101010 $
#292
b11111101100011110000000110101000111111011000111100000001101011 $
#293
b11111101100011110000000110101100111111011000111100000001101100 $
#294
b11111101100011110000000110110000111111011000111100000001101101 $
#295
b11111101100011110000000110110100111111011000111100000001101110 $
#296
b11111101100011110000000110111000111111011000111100000001101111 $
#297
b11111101100011110000000110111100111111011000111100000001110000 $
#298
b11111101100011110000000111000000111111011000111100000001110001 $
#299
b11111101100011110000000111000100111111011000111100000001110010 $
#300
b11111101100011110000000111001000111111011000111100000001110011 $
#301
b11111101100011110000000111001100111111011000111100000001110100 $
#302
b11111101100011110000000111010000111111011000111100000001110101 $
#303
1"
b11111101100011110000000111010100111111011000111100000001110110 $
#304
b11111101100011110000000111011000111111011000111100000001110111 $
#305
b11111101100011110000000111011100111111011000111100000001111000 $
#306
b11111101100011110000000111100000111111011000111100000001111001 $
#307
b11111101100011110000000111100100111111011000111100000001111010 $
#308
b11111101100011110000000111101000111111011000111100000001111011 $
#309
b11111101100011110000000111101100111111011000111100000001111100 $
#310
b11111101100011110000000111110000111111011000111100000001111101 $
#311
b11111101100011110000000111110100111111011000111100000001111110 $
#312
b11111101100011110000000111111000111111011000111100000001111111 $
#313
b11111101100011110000000111111100111111011000111100000010000000 $
#314
b11111101100011110000001000000000111111011000111100000010000001 $
#315
b11111101100011110000001000000100111111011000111100000010000010 $
#316
b11111101100011110000001000001000111111011000111100000010000011 $
#317
b11111101100011110000001000001100111111011000111100000010000100 $
#318
b11111101100011110000001000010000111111011000111100000010000101 $
#319
0"
b11111101100011110000001000010100111111011000111100000010000110 $
#320
b11111101100011110000001000011000111111011000111100000010000111 $
#321
b11111101100011110000001000011100111111011000111100000010001000 $
#322
b11111101100011110000001000100000111111011000111100000010001001 $
#323
b11111101100011110000001000100100111111011000111100000010001010 $
#324
b11111101100011110000001000101000111111011000111100000010001011 $
#325
b11111101100011110000001000101100111111011000111100000010001100 $
#326
b11111101100011110000001000110000111111011000111100000010001101 $
#327
b11111101100011110000001000110100111111011000111100000010001110 $
#328
b11111101100011110000001000111000111111011000111100000010001111 $
#329
b11111101100011110000001000111100111111011000111100000010010000 $
#330
b11111101100011110000001001000000111111011000111100000010010001 $
#331
b11111101100011110000001001000100111111011000111100000010010010 $
#332
b11111101100011110000001001001000111111011000111100000010010011 $
#333
b11111101100011110000001001001100111111011000111100000010010100 $
#334
b11111101100011110000001001010000111111011000111100000010010101 $
#335
1"
b11111101100011110000001001010100111111011000111100000010010110 $
#336
b11111101100011110000001001011000111111011000111100000010010111 $
#337
b11111101100011110000001001011100111111011000111100000010011000 $
#338
b11111101100011110000001001100000111111011000111100000010011001 $
#339
b11111101100011110000001001100100111111011000111100000010011010 $
#340
b11111101100011110000001001101000111111011000111100000010011011 $
#341
b11111101100011110000001001101100111111011000111100000010011100 $
#342
b11111101100011110000001001110000111111011000111100000010011101 $
#343
b11111101100011110000001001110100111111011000111100000010011110 $
#344
b11111101100011110000001001111000111111011000111100000010011111 $
#345
b11111101100011110000001001111100111111011000111100000010100000 $
#346
b11111101100011110000001010000000111111011000111100000010100001 $
#347
b11111101100011110000001010000100111111011000111100000010100010 $
#348
b11111101100011110000001010001000111111011000111100000010100011 $
#349
b11111101100011110000001010001100111111011000111100000010100100 $
#350
b11111101100011110000001010010000111111011000111100000010100101 $
#351
0"
b11111101100011110000001010010100111111011000111100000010100110 $
#352
b11111101100011110000001010011000111111011000111100000010100111 $
#353
b11111101100011110000001010011100111111011000111100000010101000 $
#354
b11111101100011110000001010100000111111011000111100000010101001 $
#355
b11111101100011110000001010100100111111011000111100000010101010 $
#356
b11111101100011110000001010101000111111011000111100000010101011 $
#357
b11111101100011110000001010101100111111011000111100000010101100 $
#358
b11111101100011110000001010110000111111011000111100000010101101 $
#359
b11111101100011110000001010110100111111011000111100000010101110 $
#360
b11111101100011110000001010111000111111011000111100000010101111 $
#361
b11111101100011110000001010111100111111011000111100000010110000 $
#362
b11111101100011110000001011000000111111011000111100000010110001 $
#363
b11111101100011110000001011000100111111011000111100000010110010 $
#364
b11111101100011110000001011001000111111011000111100000010110011 $
#365
b11111101100011110000001011001100111111011000111100000010110100 $
#366
b11111101100011110000001011010000111111011000111100000010110101 $
#367
1"
b11111101100011110000001011010100111111011000111100000010110110 $
#368
b11111101100011110000001011011000111111011000111100000010110111 $
#369
b11111101100011110000001011011100111111011000111100000010111000 $
#370
b11111101100011110000001011100000111111011000111100000010111001 $
#371
b11111101100011110000001011100100111111011000111100000010111010 $
#372
b11111101100011110000001011101000111111011000111100000010111011 $
#373
b11111101100011110000001011101100111111011000111100000010111100 $
#374
b11111101100011110000001011110000111111011000111100000010111101 $
#375
b11111101100011110000001011110100111111011000111100000010111110 $
#376
b11111101100011110000001011111000111111011000111100000010111111 $
#377
b11111101100011110000001011111100111111011000111100000011000000 $
#378
b11111101100011110000001100000000111111011000111100000011000001 $
#379
b11111101100011110000001100000100111111011000111100000011000010 $
#380
b11111101100011110000001100001000111111011000111100000011000011 $
#381
b11111101100011110000001100001100111111011000111100000011000100 $
#382
b11111101100011110000001100010000111111011000111100000011000101 $
#383
0"
b11111101100011110000001100010100111111011000111100000011000110 $
#384
b11111101100011110000001100011000111111011000111100000011000111 $
#385
b11111101100011110000001100011100111111011000111100000011001000 $
#386
b11111101100011110000001100100000111111011000111100000011001001 $
#387
b11111101100011110000001100100100111111011000111100000011001010 $
#388
b11111101100011110000001100101000111111011000111100000011001011 $
#389
b11111101100011110000001100101100111111011000111100000011001100 $
#390
b11111101100011110000001100110000111111011000111100000011001101 $
#391
b11111101100011110000001100110100111111011000111100000011001110 $
#392
b11111101100011110000001100111000111111011000111100000011001111 $
#393
b11111101100011110000001100111100111111011000111100000011010000 $
#394
b11111101100011110000001101000000111111011000111100000011010001 $
#395
b11111101100011110000001101000100111111011000111100000011010010 $
#396
b11111101100011110000001101001000111111011000111100000011010011 $
#397
b11111101100011110000001101001100111111011000111100000011010100 $
#398
b11111101100011110000001101010000111111011000111100000011010101 $
#399
1"
b11111101100011110000001101010100111111011000111100000011010110 $
#400
b11111101100011110000001101011000111111011000111100000011010111 $
#401
b11111101100011110000001101011100111111011000111100000011011000 $
#402
b11111101100011110000001101100000111111011000111100000011011001 $
#403
b11111101100011110000001101100100111111011000111100000011011010 $
#404
b11111101100011110000001101101000111111011000111100000011011011 $
#405
b11111101100011110000001101101100111111011000111100000011011100 $
#406
b11111101100011110000001101110000111111011000111100000011011101 $
#407
b11111101100011110000001101110100111111011000111100000011011110 $
#408
b11111101100011110000001101111000111111011000111100000011011111 $
#409
b11111101100011110000001101111100111111011000111100000011100000 $
#410
b11111101100011110000001110000000111111011000111100000011100001 $
#411
b11111101100011110000001110000100111111011000111100000011100010 $
#412
b11111101100011110000001110001000111111011000111100000011100011 $
#413
b11111101100011110000001110001100111111011000111100000011100100 $
#414
b11111101100011110000001110010000111111011000111100000011100101 $
#415
0"
b11111101100011110000001110010100111111011000111100000011100110 $
#416
b11111101100011110000001110011000111111011000111100000011100111 $
#417
b11111101100011110000001110011100111111011000111100000011101000 $
#418
b11111101100011110000001110100000111111011000111100000011101001 $
#419
b11111101100011110000001110100100111111011000111100000011101010 $
#420
b11111101100011110000001110101000111111011000111100000011101011 $
#421
b11111101100011110000001110101100111111011000111100000011101100 $
#422
b11111101100011110000001110110000111111011000111100000011101101 $
#423
b11111101100011110000001110110100111111011000111100000011101110 $
#424
b11111101100011110000001110111000111111011000111100000011101111 $
#425
b11111101100011110000001110111100111111011000111100000011110000 $
#426
b11111101100011110000001111000000111111011000111100000011110001 $
#427
b11111101100011110000001111000100111111011000111100000011110010 $
#428
b11111101100011110000001111001000111111011000111100000011110011 $
#429
b11111101100011110000001111001100111111011000111100000011110100 $
#430
b11111101100011110000001111010000111111011000111100000011110101 $
#431
1"
b11111101100011110000001111010100111111011000111100000011110110 $
#432
b11111101100011110000001111011000111111011000111100000011110111 $
#433
b11111101100011110000001111011100111111011000111100000011111000 $
#434
b11111101100011110000001111100000111111011000111100000011111001 $
#435
b11111101100011110000001111100100111111011000111100000011111010 $
#436
b11111101100011110000001111101000111111011000111100000011111011 $
#437
b11111101100011110000001111101100111111011000111100000011111100 $
#438
b11111101100011110000001111110000111111011000111100000011111101 $
#439
b11111101100011110000001111110100111111011000111100000011111110 $
#440
b11111101100011110000001111111000111111011000111100000011111111 $
#441
b11111101100011110000001111111100111111011000111100000100000000 $
#442
b11111101100011110000010000000000111111011000111100000100000001 $
#443
b11111101100011110000010000000100111111011000111100000100000010 $
#444
b11111101100011110000010000001000111111011000111100000100000011 $
#445
b11111101100011110000010000001100111111011000111100000100000100 $
#446
b11111101100011110000010000010000111111011000111100000100000101 $
#447
0"
b11111101100011110000010000010100111111011000111100000100000110 $
#448
b11111101100011110000010000011000111111011000111100000100000111 $
#449
b11111101100011110000010000011100111111011000111100000100001000 $
#450
b11111101100011110000010000100000111111011000111100000100001001 $
#451
b11111101100011110000010000100100111111011000111100000100001010 $
#452
b11111101100011110000010000101000111111011000111100000100001011 $
#453
b11111101100011110000010000101100111111011000111100000100001100 $
#454
b11111101100011110000010000110000111111011000111100000100001101 $
#455
b11111101100011110000010000110100111111011000111100000100001110 $
#456
b11111101100011110000010000111000111111011000111100000100001111 $
#457
b11111101100011110000010000111100111111011000111100000100010000 $
#458
b11111101100011110000010001000000111111011000111100000100010001 $
#459
b11111101100011110000010001000100111111011000111100000100010010 $
#460
b11111101100011110000010001001000111111011000111100000100010011 $
#461
b11111101100011110000010001001100111111011000111100000100010100 $
#462
b11111101100011110000010001010000111111011000111100000100010101 $
#463
1"
b11111101100011110000010001010100111111011000111100000100010110 $
#464
b11111101100011110000010001011000111111011000111100000100010111 $
#465
b11111101100011110000010001011100111111011000111100000100011000 $
#466
b11111101100011110000010001100000111111011000111100000100011001 $
#467
b11111101100011110000010001100100111111011000111100000100011010 $
#468
b11111101100011110000010001101000111111011000111100000100011011 $
#469
b11111101100011110000010001101100111111011000111100000100011100 $
#470
b11111101100011110000010001110000111111011000111100000100011101 $
#471
b11111101100011110000010001110100111111011000111100000100011110 $
#472
b11111101100011110000010001111000111111011000111100000100011111 $
#473
b11111101100011110000010001111100111111011000111100000100100000 $
#474
b11111101100011110000010010000000111111011000111100000100100001 $
#475
b11111101100011110000010010000100111111011000111100000100100010 $
#476
b11111101100011110000010010001000111111011000111100000100100011 $
#477
b11111101100011110000010010001100111111011000111100000100100100 $
#478
b11111101100011110000010010010000111111011000111100000100100101 $
#479
0"
b11111101100011110000010010010100111111011000111100000100100110 $
#480
b11111101100011110000010010011000111111011000111100000100100111 $
#481
b11111101100011110000010010011100111111011000111100000100101000 $
#482
b11111101100011110000010010100000111111011000111100000100101001 $
#483
b11111101100011110000010010100100111111011000111100000100101010 $
#484
b11111101100011110000010010101000111111011000111100000100101011 $
#485
b11111101100011110000010010101100111111011000111100000100101100 $
#486
b11111101100011110000010010110000111111011000111100000100101101 $
#487
b11111101100011110000010010110100111111011000111100000100101110 $
#488
b11111101100011110000010010111000111111011000111100000100101111 $
#489
b11111101100011110000010010111100111111011000111100000100110000 $
#490
b11111101100011110000010011000000111111011000111100000100110001 $
#491
b11111101100011110000010011000100111111011000111100000100110010 $
#492
b11111101100011110000010011001000111111011000111100000100110011 $
#493
b11111101100011110000010011001100111111011000111100000100110100 $
#494
b11111101100011110000010011010000111111011000111100000100110101 $
#495
1"
b11111101100011110000010011010100111111011000111100000100110110 $
#496
b11111101100011110000010011011000111111011000111100000100110111 $
#497
b11111101100011110000010011011100111111011000111100000100111000 $
#498
b11111101100011110000010011100000111111011000111100000100111001 $
#499
b11111101100011110000010011100100111111011000111100000100111010 $
#500
b11111101100011110000010011101000111111011000111100000100111011 $
#501
b11111101100011110000010011101100111111011000111100000100111100 $
#502
b11111101100011110000010011110000111111011000111100000100111101 $
#503
b11111101100011110000010011110100111111011000111100000100111110 $
#504
b11111101100011110000010011111000111111011000111100000100111111 $
#505
b11111101100011110000010011111100111111011000111100000101000000 $
#506
b11111101100011110000010100000000111111011000111100000101000001 $
#507
b11111101100011110000010100000100111111011000111100000101000010 $
#508
b11111101100011110000010100001000111111011000111100000101000011 $
#509
b11111101100011110000010100001100111111011000111100000101000100 $
#510
b11111101100011110000010100010000111111011000111100000101000101 $
#511
0"
b11111101100011110000010100010100111111011000111100000101000110 $
#512
b11111101100011110000010100011000111111011000111100000101000111 $
#513
b11111101100011110000010100011100111111011000111100000101001000 $
#514
b11111101100011110000010100100000111111011000111100000101001001 $
#515
b11111101100011110000010100100100111111011000111100000101001010 $
#516
b11111101100011110000010100101000111111011000111100000101001011 $
