.Xil/Vivado-109444-llc/hw_ila_data_4/zip_work/waveform.vcd
$date
        2025-Aug-14 15:59:35
$end
$version
        Vivado v2022.2 (64-bit)
$end
$timescale
        1ps
$end
$scope module dut $end
$var reg 4 " design_1_wrapper_inst/design_1_i/system_ila_3/inst/SLOT_0_JESD204_TX_BUS_txcharisk_1 [3:0] $end
$var reg 32 & design_1_wrapper_inst/design_1_i/system_ila_3/inst/SLOT_0_JESD204_TX_BUS_txdata_1 [31:0] $end
$var reg 1 F _TRIGGER $end
$var reg 1 G _WINDOW $end
$var reg 1 H _GAP $end
$upscope $end
$enddefinitions $end
#0
$dumpvars
b0 "
b1011000111100011001101101010111 &
0F
1G
0H
$end
#1
b11100010110100001101000000100111 &
#2
b10100101010011010100111011100010 &
#3
b11001100111011001101110110101101 &
#4
b11110111011111111010100101101010 &
#5
b10101100000000000011001000000000 &
#6
b1110000000010001110100000000011 &
#7
b11000011101001100010000000110001 &
#8
b110010111101111000100011010110 &
#9
b11101011101011111010110000110010 &
#10
b10001010000010111100011100000 &
#11
b1011110000101010110010110000110 &
#12
b10011110000000001100010101111111 &
#13
b10011000000010110100010000000011 &
#14
b11100011100101110101000000111001 &
#15
b10111010001000010100101101110000 &
#16
b1000111100111011001111011000101 &
#17
b1101001101000011001001101001111 &
#18
b111011100100110111010011000111 &
#19
b1011011011111111001101101101010 &
#20
b11011100000010001101101000000011 &
#21
b10110011101011101100100000110010 &
#22
b11110001010100011010100011100111 &
#23
b11011001010110000010010011100100 &
#24
b11111010111011101101010011010010 &
#25
b1001111010101000001110101100110 &
#26
b11000000000101011010000011111001 &
#27
b110000010111000000101111100 &
#28
b1111011100111000001010000111010 &
#29
b1011001101101100001101101001001 &
#30
b11111101101111001101010110110101 &
#31
b101110001111000000110110001010 &
#32
b1010010001100101110011110001000 &
#33
b1100000111011001110111110101101 &
#34
b10000111011101110100000101101001 &
#35
b1101111101001100001001000110001 &
#36
b1000010111111110110000011010101 &
#37
b101000000010011000110000000011 &
#38
b100011101101101111000000110110 &
#39
b10110101101110101100100110110100 &
#40
b10001111010000011011110110011111 &
#41
b11000110000111100010000110000101 &
#42
b1111101100101111001010101000110 &
#43
b100010001010100000111101110011 &
#44
b10100100000010101100111011111100 &
#45
b11010011100000001101100000111111 &
#46
b1111100000011101110101000000010 &
#47
b110010110111100000100000100101 &
#48
b11100111100110111010111011000100 &
#49
b11101000110100010101001101011000 &
#50
b101101010110010111001011100100 &
#51
b1101010111101101110110011010110 &
#52
b1011101111110111110000110101 &
#53
b10010110000011000011100110000010 &
#54
b111010111110110111010000101011 &
#55
b1001001010111111001110000011010 &
#56
b10111011100010011011010011000011 &
#57
b1011111101111011001101000110101 &
#58
b10000110001000001100000110001111 &
#59
b1110111100010100001011011000011 &
#60
b10101111100011100011001000111101 &
#61
b1001110110100001110001000100111 &
#62
b11010101010001011010011011100001 &
#63
b1111010010101111110110011100 &
#64
b11000101100010000010000110111100 &
#65
b1000111101011111001111000110010 &
#66
b1100001010010011001000011100011 &
#67
b10011101101100110100010110110111 &
#68
b10101100111101110100110110101001 &
#69
b1110011101001001110100000110001 &
#70
b11110010110101100010100011011001 &
#71
b11100100001101000010111011110110 &
#72
b11011001100111010101101110111010 &
#73
b11110001101010101101011101001100 &
#74
b11011000000001000010010011111110 &
#75
b11100001010111101101000000011010 &
#76
b10011011100101010100010011000110 &
#77
b11011010000011110101101101111101 &
#78
b11001010110000101101110000100000 &
#79
b10000010001001111011111110001110 &
#80
b100110111001100000111011010001 &
#81
b1000 "
b11111100111110101101010101010100 &
#82
b0 "
b110001010001000000100000011110 &
#83
b11011111010100111010010110011000 &
#84
b10000001011100101100000011101000 &
#85
b10110111000100000011000101111 &
#86
b111101101010010111010101001100 &
#87
b101000001101111000110011110110 &
#88
b101001101011101111001110110010 &
#89
b111001010110101111010011100100 &
#90
b1111010110010111001010011011100 &
#91
b1000001100110100001111110111011 &
#92
b10000110011011000011101011101 &
#93
b1001000111001010110001110101110 &
#94
b10100100110000011011000101011111 &
#95
b11011010000111001101101110000101 &
#96
b11001101101111101101110101001010 &
#97
b11101110000101111010110110000110 &
#98
b1011110001000010110010101110000 &
#99
b10010111100100001100011011000111 &
#100
b101011010010110111001101100011 &
#101
b10101100111101111100110111010 &
#102
b1100110010111111101000100 &
#103
b10000111101000000011101010110 &
#104
b1000011100100010110000000111000 &
#105
b111011010100011000101101100111 &
#106
b1010001010101111001100011100110 &
#107
b1011000001010001110010011110011 &
#108
b11101100001001001101001011110001 &
#109
b1111110110111010110101011011010 &
#110
b10111101000100000011011001111 &
#111
b100011101010010111000011001100 &
#112
b10110000001101101100100011110110 &
#113
b11001001101100011010001110110111 &
#114
b10111100110110111011010110100100 &
#115
b111110110101011000101011011001 &
#116
b10100000001111000011011111110 &
#117
b10001011011010111100000010010 &
#118
b1010011011001010110011101101110 &
#119
b1111000110000001110101101011111 &
#120
b1101010000001100001001110000001 &
#121
b1001011111110111110000010101 &
#122
b10110100000011000011011000000010 &
#123
b10010010111110011011100000101011 &
#124
b1101001011111110110110000010101 &
#125
b110100000010110111011000000011 &
#126
b10010011100111111011100000111010 &
#127
b1111001100001110110101101000001 &
#128
b1110101011010100001011000010011 &
#129
b10000010000011100011111101111101 &
#130
b101010110100100000110000100111 &
#131
b101011010101111111011101100 &
#132
b1000010000010000001111101111100 &
#133
b101011101001011000110000110001 &
#134
b10010110001101111100011011110 &
#135
b1100011011110010110111110010100 &
#136
b10111101011100110100101000010111 &
#137
b100110111101011000111000101001 &
#138
b11111011100001101101010000111110 &
#139
b1011101011101000001101000010110 &
#140
b10100111100101001100111000111001 &
#141
b11101010000110001101001101111011 &
#142
b1100111011010111110101010010 &
#143
b11110111011001000010100101101110 &
#144
b10101000110111000011001101011010 &
#145
b101111101110001111001011001011 &
#146
b1000111011000101110000110010000 &
#147
b1101001101011011001001101001101 &
#148
b111001011000110111010011101111 &
#149
b1110001101111111001011101001010 &
#150
b11011110000010100010010110000011 &
#151
b10011011100001101100010000111110 &
#152
b11011101011100110101101000010111 &
#153
b10100110111100101100111000101000 &
#154
b11111010111000001101010000101111 &
#155
b1001101100011000001110101000010 &
#156
b11100110111101011010111000101001 &
#157
b11111011100010010101010000111100 &
#158
b1011111101110000001101000110100 &
#159
b10000111011001001100000110010001 &
#160
b1101000110110100001001101011011 &
#161
b101110110011110111001011011101 &
#162
b1010000110011101110011110100010 &
#163
b1001000110111001110001110100101 &
#164
b10101111101101011011001011001001 &
#165
b1000101100011001110000110111101 &
#166
b1000110111101011001111000101001 &
#167
b1111011100000011001010000111111 &
#168
b1011100000100100001101000000111 &
#169
b10110111011011001100100101101101 &
#170
b10101011011110011011001101101011 &
#171
b11101011111001111101000010101 &
#172
b10100100001100010100111000001000 &
#173
b11011000110111001101101110100101 &
#174
b11101111101111101101001011001010 &
#175
b1000110000101010110000110000110 &
#176
b1111110000000011001010101111111 &
#177
b11000000100100000010000000111 &
#178
b11100111011010010101000101101100 &
#179
b11101010001110010101001101110100 &
#180
b11011110010111111110010100 &
#181
b111101011101000000101000010110 &
#182
b100111100100111000111000111000 &
#183
b11101011011111101101001101101010 &
#184
b11100000101010111101000000110 &
#185
b10110110000001010100100101111110 &
#186
b10111001010011011011010000011101 &
#187
b1111100111011011001010110101101 &
#188
b110111011000100000100101101111 &
#189
b10101001101010111011001101001100 &
#190
b111000000101001111010011111001 &
#191
b1100110000100111001000101111000 &
#192
b11111111011110110101010101101011 &
#193
b1101010100000000001000011000 &
#194
b11101001010000000010110011100000 &
#195
b111110000011010111010110000010 &
#196
b11010111001111000010000101110 &
#197
b11001100111011010101110101010010 &
#198
b11110111011010111010100101101100 &
#199
b10101010000100000011001101111000 &
#200
b1111010010001111110101100011 &
#201
b11000101101000000010000110110000 &
#202
b1001011100011111001110011000010 &
#203
b10011110110010011011101000100011 &
#204
b10010001101111110100011110110101 &
#205
b1011110000001110110010110000001 &
#206
b10011001011010001100010000010011 &
#207
b11110010001010110101011101110011 &
#208
b11100100000100000010111011111000 &
#209
b11010111010011010101100101100010 &
#210
b100100111010101111000110101100 &
#211
b11010110000010101101100101111100 &
#212
b111011100001101111010000111110 &
#213
b1011101011110111001101000010100 &
#214
b10100101010110001100111000011011 &
#215
b11001010111010001101110011010011 &
#216
b10001110001011111011110101110010 &
#217
b11010101010001100010011011100001 &
#218
b1111011101101111110110010110 &
#219
b11001111101110000010001000110100 &
#220
b11000111011011111010000110010010 &
#221
b1101011010000111001001101100000 &
#222
b10110001110110111100110001011 &
#223
b110011010111010111011110011010 &
#224
b11110011101001111010100011001110 &
#225
b11110010111000000010100011010000 &
#226
b11101101100011000010110101000010 &
#227
b1100110111111010110111000101010 &
#228
b11111000001000110101010000001111 &
#229
b1101111101100000001001011001000 &
#230
b1000100110001110110000110100001 &
#231
b1011011011010011001101110010011 &
#232
b11011010001100001101101101110111 &
#233
b11000000110011101101111110100010 &
#234
b1000110101111000001110100110 &
#235
b10101100001011000011001011110010 &
#236
b1111101011110001110101011101011 &
#237
b100101011001100000111000010001 &
#238
b11000000111110101101111101010100 &
#239
b1010001111000000000011110 &
#240
b11111011011000000010110010010 &
#241
b10001011011100010100001101101000 &
#242
b10011110110111100011101000100101 &
#243
b10010111100100110100011011000111 &
#244
b101011011101110111001101101001 &
#245
b11111101011101111101000110010 &
#246
b10000001010110010100000011100100 &
#247
b11010111111100000010011010101 &
#248
b11001000000110010101110000000100 &
#249
b10100100111110111011000101010100 &
#250
b11010001010101001101100000011001 &
#251
b1011000000111101110010011111010 &
#252
b11100101100111001101000101000101 &
#253
b11000001101111010101111101001010 &
#254
b11110001010111000010110001100 &
#255
b10010100000111010100011011111010 &
#256
b10101101011110111100101001101 &
#257
b1001010011010111110011100010 &
#258
b10111100111001000011010110101110 &
#259
b110100110110011000100101011011 &
#260
b10011110111101111011101011010110 &
#261
b10011011101001110100010000110001 &
#262
b11010010111001110101100011010001 &
#263
b1101100111000101110110101010000 &
#264
b1110101101011110110100101001101 &
#265
b10001001010010100011110011100011 &
#266
b10111101100000100011010110111111 &
#267
b100100001000011000111000001111 &
#268
b11011111100101101101101011000110 &
#269
b10001010001101101100001101110110 &
#270
b10000001101100100011111110110111 &
#271
b11100111000100000010110101111 &
#272
b10110101101010010100100101001100 &
#273
b10001000001111011011110011110101 &
#274
b10101010001011100011001110001101 &
#275
b101010100001111111011100111 &
#276
b1001001010000000001110011100000 &
#277
b10111110000001011011010110000001 &
#278
b11001010011011000010000011101 &
#279
b1000 "
b11111100111001010101010110101110 &
#280
b0 "
b110100110010000000100101011100 &
#281
b10011001101000111011101110110000 &
#282
b11111011101101110101010011001001 &
#283
b1010101101000000001100110110000 &
#284
b1011100001001111110011000001 &
#285
b10011101010100000011101000011000 &
#286
b10101001010010110100110011100011 &
#287
b111101100101001111010110111001 &
#288
b100010000100111000111101111000 &
#289
b10101111011111101100110101101010 &
#290
b1001100000100001110001000000111 &
#291
b11110111010001011010100101100001 &
#292
b10100111010010000011000110011100 &
#293
b11100101101010001101000110110011 &
#294
b11001000001011010101110011110010 &
#295
b10101101011010111011001011101100 &
#296
b1100010000101001110111101111001 &
#297
b10101110000101110100110101111001 &
#298
b1011110001001001110010101110001 &
#299
b10010110110101001100011011011001 &
#300
b110100000110110111011011111011 &
#301
b10010100110111111011100101011010 &
#302
b11111100001110111101011000001 &
#303
b10001101011011010100001000010010 &
#304
b11100011011011100010111101101101 &
#305
b10111011010101010100101101100110 &
#306
b1010000000011011001100011111101 &
#307
b1000010111000001110000000101111 &
#308
b101101100001011000110101000001 &
#309
b1100101010001101110111000011110 &
#310
b11001111011111110101110110010101 &
#311
b11001100000000111010001000000000 &
#312
b11110000001100111010100000001000 &
#313
b11001000111100000010001110101000 &
#314
b10100010110011111011000000100010 &
#315
b10100000110001001100111110100001 &
#316
b10001011010110001100001110011011 &
#317
b10010010111010100011100011010011 &
#318
b1101110000000110110110101111111 &
#319
b1011000001110110110010000001011 &
#320
b11101011010110001101001110011011 &
#321
b10010111011010111100011010010 &
#322
b1101111011001010110110101101110 &
#323
b1001000110000110110001101011111 &
#324
b10101010001110011011001110001011 &
#325
b11011111001111111110010101 &
#326
b111100001100000000101000001000 &
#327
b111000110000111000101110100000 &
#328
b1101010001111111001001110001010 &
#329
b10000010110111111110000011 &
#330
b101011100111000000110000111010 &
#331
b11001101100101111101101001000 &
#332
b11111100111010010101010110101100 &
#333
b110110001110000000100101110100 &
#334
b10110011011000111011011110010000 &
#335
b11111001101101011010101101001001 &
#336
b1111101100010000001010110111100 &
#337
b100111101001100000111000110001 &
#338
b11100010111110101101000011010100 &
#339
b10101001010001010100110000011110 &
#340
b111111010011001111010110011101 &
#341
b100111100111000000110101000 &
#342
b1010010111111000001100000101010 &
#343
b1101000001101001110110000001001 &
#344
b101001100101110111001110111001 &
#345
b110010001011101111011101110010 &
#346
b11100101010110111010111011100100 &
#347
b11001010110100010101110011011000 &
#348
b10000101010110111011111011100100 &
#349
b1001010110101100001110011011001 &
#350
b10000100001111011011111011110101 &
#351
b1011010001011100001101110001101 &
#352
b11000101010111001101111011100101 &
#353
b1001011101111111001110011001010 &
#354
b10010110000010011011100110000011 &
#355
b111011101111110111010000110101 &
#356
b1010110000011111001100110000010 &
#357
b111010110010001111010000100011 &
#358
b1000001101000111001111110110000 &
#359
b11011101110011000010011001011 &
#360
b11010111011101010101100110010110 &
#361
b101111100010101111001000111100 &
#362
b1001111100010101110001000111100 &
#363
b11001111100011011010001000111101 &
#364
b11001110111010111010001000101100 &
#365
b11011110000100111010010101111000 &
#366
b10011111011100101100010101101000 &
#367
b10001110111000110100001000101111 &
#368
b11011101101101100010010101001001 &
#369
b10101101101101101100110110110110 &
#370
b1101101101100001110110110110111 &
#371
b1101100110001110110110110100001 &
#372
b1111011011010110110101110010011 &
#373
b1011010000110100001101101111011 &
#374
b11001100110011001101110101011101 &
#375
b11111000111111111010101110101010 &
#376
b1100000000000000001000000000000 &
#377
b10000000000001110100000000000001 &
#378
b1011001100000000000010001 &
#379
b10000111110000000011101010100 &
#380
b1000001011000010110000000010000 &
#381
b10001100100011000011101000111 &
#382
b1010011010101010110011101100110 &
#383
b1110000000000001110100011111111 &
#384
b11000000000001100010000000000001 &
#385
b1011101111000000000010110 &
#386
b10111101011000000011000110010 &
#387
b100001011100010111000011101000 &
#388
b10010110110101101100011000100110 &
#389
b110100001100110111011011110111 &
#390
b10011000111111111011101110101010 &
#391
b11100000000001110101000000000001 &
#392
b10000001011000010100000000010000 &
#393
b10001100111100000011101000101 &
#394
b1010001100110010110011101000100 &
#395
b1010000111100001110011101010111 &
#396
b1000010110001001110000000100001 &
#397
b100011010101011000111110011001 &
#398
b10110000000001101100100011111110 &
#399
b11000001011100011010000000010111 &
#400
b10110110110111000011000100100 &
#401
b110110110111010111011011011010 &
#402
b10110111101001111011011011001110 &
#403
b10100010111001011011000011010001 &
#404
b10101100110011001100110101011101 &
#405
b1111000111110001110101110101011 &
#406
b1100001011001100001000000010001 &
#407
b10010000111111110100011101010101 &
#408
b1000000000001110110000000000001 &
#409
b1011010011000000000010011 &
#410
b10010001101000000011101110110 &
#411
b1100001100100010110111110111000 &
#412
b10010011010100110100011101100111 &
#413
b1110001011101110110100011101001 &
#414
b11010111101010100010011000110011 &
#415
b100000000001101111000011111110 &
#416
b10000001011110101100000000010100 &
#417
b10101010000100000011000011111 &
#418
b1110001010010111110110001100 &
#419
b11010100001101000010011011110110 &
#420
b11001100111101111101110111010 &
#421
b11110001100110010101011101000100 &
#422
b11010000111110000010011101010100 &
#423
b1000001011011101110000000010010 &
#424
b10011010111011000011101100101 &
#425
b1110011101001010110100011001110 &
#426
b11110010110000100010100011011111 &
#427
b11100010001001000010111110001110 &
#428
b10100110110111010100111011011010 &
#429
b11110111101011001101011011001101 &
#430
b10100001011111000011000011101010 &
#431
b10010100001110001100011000001011 &
#432
b11011011010110111101110010011 &
#433
b11011010000111010101101101111010 &
#434
b11001101101010101101110101001100 &
#435
b11101000000001111010110011111110 &
#436
b100001011000010111000000010000 &
#437
b10010001100101101100011101000110 &
#438
b1010010001100110110011101110111 &
#439
b1100000111110001110111110101011 &
#440
b10000001011001110100000000010001 &
#441
b10000111001100000011101010001 &
#442
b1000100111110010110000101010100 &
#443
b1010001011100011001100000010111 &
#444
b1010110110100001110011000100111 &
#445
b110101010001001111011011100001 &
#446
b10001111010100111011110110011000 &
#447
b11000001011101100010000011101001 &
#448
b10111101101111000011000110110 &
#449
b100101101011010111000110110010 &
#450
b11001001011001101101110011101110 &
#451
b10110000111101111011011101010110 &
#452
b11000011101001011010000000110001 &
#453
b110010110010111000100011011100 &
#454
b11100001100111111010111110111010 &
#455
b10010001100000010100011101000000 &
#456
b1010100000111110110011000000101 &
#457
b10101100010001111100101000011 &
#458
b111101000010111111000110000 &
#459
b1100011100101000001000011000110 &
#460
b10111010000101110100101101111001 &
#461
b1001110001001011001110101110001 &
#462
b11010110110000011010011011011111 &
#463
b110010000110101111011110000100 &
#464
b11101100110010111010110101011100 &
#465
b1111001100100010110101110111000 &
#466
b1110011010100100001011101100111 &
#467
b11110001011011100010100011101101 &
#468
b11010011010101000010011101100110 &
#469
b1110000000111101110100011111010 &
#470
b11000101100111100010000101000101 &
#471
b1000001100101111001111101000110 &
#472
b10010001010011000011101110011 &
#473
b1100100001101010110111011110110 &
#474
b11011001100000110101101110111111 &
#475
b11110100001100101101011000001000 &
#476
b10011000111001000011101110101110 &
#477
b11100100110110110101000101011011 &
#478
b11011110110100010101101011011000 &
#479
b10010101010110101100011011100100 &
#480
b1010110000110111110011011111 &
#481
b10000010001111000011111110001010 &
#482
b100010001110100000111110001011 &
#483
b10100011010010101100111110011100 &
#484
b10110101100000001100100110111111 &
#485
b10000100000010011011111000000011 &
#486
b1010011101111100001100000110101 &
#487
b1110110000111001110100110000101 &
#488
b10111101101101100011010101001001 &
#489
b101101101100011000110110110111 &
#490
b1101100110101101110110110100110 &
#491
b1111100001111110110101011110101 &
#492
b111010000010100000101110000011 &
#493
b1001011100010111001110000111100 &
#494
b10011111100110011011101000111011 &
#495
b10001000111111110100001101010101 &
#496
b10100000000001100011000000000001 &
#497
b10000001011100001100000000010111 &
#498
b10110110010100000011000100011 &
#499
b110001100010010111011110111100 &
#500
b11010111101101111010011000110110 &
#501
b100101101000101111000110110000 &
#502
b11001011101010101101110011001100 &
#503
b10010000000001111011100011111110 &
#504
b1000001011001110110000000010001 &
#505
b10000111010011000011101010011 &
#506
b1000110001101010110000101110110 &
#507
b1110001100000011001011110111111 &
#508
b11010100000100100010011000000111 &
#509
b10111011001101111100101101110 &
#510
b101000111110010111001101010100 &
#511
b100001011101101111000000010110 &
#512
b10010111101110101100011000110100 &
#513
b100111010000110111000110011111 &
#514
b11100110001111101101000110001010 &
#515
b11110010000101010101011110000110 &
#516
b11101110000010000010110101111100 &
#517
b1011011101011010110010000110010 &
#518
b11010001011000001101100011101111 &
#519
b1010001100011101110011101000010 &
#520
b1010110110111001110011000100101 &
#521
b110111101101001111011011001001 &
#522
b10100101100100111011000110111000 &
#523
b11000011011101001101111101101001 &
#524
b111111100111111000101000111010 &
#525
b1001100011111000001101000010 &
#526
b10110110110011000011011000100010 &
#527
b10110000111110011011011110101011 &
#528
b11000001011111011010000000010101 &
#529
b10100001010111000011000001100 &
#530
b11100000111010111101011111010 &
#531
b10110101101001010100100101001110 &
#532
b10001010110011011011110011011101 &
#533
b10000000111011100011111110101101 &
#534
b111010100100000000101100111 &
#535
b1100001011010000001000011101100 &
#536
b10010010001001110100011101110001 &
#537
b1100110111001110110111011010001 &
#538
b11111100111010110101010101010011 &
#539
b110110000100000000100101111000 &
#540
b10111111010000111011010101100000 &
#541
b110001101011000000110001001 &
#542
b1110001100001000001011110111110 &
#543
b11010101010101100010011000011001 &
#544
b1000001101101111110011110110 &
#545
b10101001101110000011001110110100 &
#546
b111111011010001111010110010011 &
#547
b1010001000111000001101110000 &
#548
b10000111101111000011111011001010 &
#549
b1100110001110100001000110001011 &
#550
b11110011010011110101011110011101 &
#551
b11110100110000000010100110100000 &
#552
b10011010000011000011101110000010 &
#553
b11001010111110110101110000101011 &
#554
b10001001010100111011110000011000 &
#555
b10111001011101100011010011101001 &
#556
b1110111101100011001011000110111 &
#557
b10100100110100100011000110100111 &
#558
b11011101011000001101101011101111 &
#559
b10100001100011101100111101000010 &
#560
b10010110110100001100011000100111 &
#561
b110101010010110111011011100011 &
#562
b10001101100111111011110110111010 &
#563
b11100001100001100010111101000001 &
#564
b10010101011101010100011000010110 &
#565
b111100011110111111000111101 &
#566
b1101110110011000001001000100010 &
#567
b1010000111101110110011110101001 &
#568
b1000011101010001110000000110011 &
#569
b110000001001011000100011110001 &
#570
b11001110110001111010001011011110 &
#571
b11010011011000111010011110010000 &
#572
b1111001101100101110101101001000 &
#573
b1111100111011100001010110101101 &
#574
b110111010111100000100101100101 &
#575
b10100011100110111011000011000100 &
#576
b10111000110101001100101101011001 &
#577
b1101100000110011001001011111011 &
#578
b1110100111100110110100101010111 &
#579
b10010010111110100011100000101011 &
#580
b1101001010000110110110000011111 &
#581
b111110001110110111010110001011 &
#582
b10011010111111000011110011010 &
#583
b1110011100011010110100011000010 &
#584
b11111110111000100010101000101111 &
#585
b11101101001000000010101001110 &
#586
b10101010110100010100110011011000 &
#587
b101010111001111111011100101 &
#588
b1001011101100000001110011001000 &
#589
b10010100110001011011100110100001 &
#590
b11011010011110111101110011101 &
#591
b11010100110011010101100110100010 &
#592
b11000111010101111101110101100 &
#593
b11100110000010010101000101111100 &
#594
b11111011101110010101010000110100 &
#595
b1010111011110000001100110010100 &
#596
b101101011001001111001000010001 &
#597
b1100000110100101110111101011000 &
#598
b10001101011011110100001011101101 &
#599
b11100011010001100010111101100001 &
#600
b10110111011101010100100110010110 &
#601
b10101111100011011011001000111101 &
#602
b1001110111011001110001000101101 &
#603
b11011111011101011010010101101001 &
#604
b10001111100010101100001000111100 &
#605
b11001111100000100010001000111111 &
#606
b11001100001001111010001000001110 &
#607
b11111110111000111010101011010000 &
#608
b11101101100000000010101001000 &
#609
b10101100110000010100110110100000 &
#610
b1111010000111001110101110000101 &
#611
b1001101101101100001110101001001 &
#612
b11101101101111011010110110110101 &
#613
b1101110001010010110110110001100 &
#614
b1010100001100110110011011110111 &
#615
b11000111110001111101110101011 &
#616
b11100001011000010101000000010000 &
#617
b10010001100110010100011101000100 &
#618
b1010000111111110110011101010101 &
#619
b1000000000010001110000000000011 &
#620
b11101001011000000000110001 &
#621
b110010110001000000100011011110 &
#622
b11100011010100111010111110011000 &
#623
b10110001011100010100100011101000 &
#624
b11010110110111011010011000100101 &
#625
b110111101010101111011011001100 &
#626
b10100000000010111011000011111100 &
#627
b10000011100101001100000000111001 &
#628
b111010000110100000101101111011 &
#629
b1001100110010111001110101011100 &
#630
b11111001100110011010101110111011 &
#631
b1110000111110000001011101010100 &
#632
b11000001011001100010000000010001 &
#633
b10000111101111000011101010110 &
#634
b1000011101011010110000000110010 &
#635
b110001011000011000100011101111 &
#636
b11010001100101111010011101000110 &
#637
b1010010001000101110011101110000 &
#638
b1100111101011001110111011001101 &
#639
b11100001011101110101000011101001 &
#640
b10010111101000010100011000110000 &
#641
b100011100111110111000011000101 &
#642
b10111001100011101100101101000010 &
#643
b1110110110100011001011000100111 &
#644
b10110101010100100011011011100111 &
#645
b10001001011000011011110011101111 &
#646
b10110001100111100011011101000101 &
#647
b11010001100100011010011101000111 &
#648
b1010011010110101110011101100100 &
#649
b1110010110011001110100011011101 &
#650
b11100000111101100010111110101001 &
#651
b10000011101101010100000000110110 &
#652
b110101100011100000100110111101 &
#653
b10000110110110111011111000100100 &
#654
b1110110110101100001011011011001 &
#655
b10110100001111100011011011110101 &
#656
b10011010000100011011101110000111 &
#657
b11001111010111110101110101100101 &
#658
b11000011100000111010000011000000 &
#659
b111100001100111000101000001000 &
#660
b111000111111111000101110101010 &
#661
b1100000000011111001000000000010 &
#662
b10000010110010110100000000100011 &
#663
b100001100101100000111110111001 &
#664
b10010010001110101100011101110100 &
#665
b1100011010000110110111110011111 &
#666
b10110110001110110100100110001011 &
#667
b10110011010101011011011110011001 &
#668
b11110000000011011010100011111101 &
#669
b11000010111010000010000000101100 &
#670
b101110001011111000110101110010 &
#671
b1010101010011101110011011100010 &
#672
b1100110111001111110110100101 &
#673
b11111111101100000010101011001000 &
#674
b100110011000000000110100010 &
#675
b1011000111100000001101110101000 &
#676
b11100010110001001101000000100001 &
#677
b10100011010111010100111110011010 &
#678
b10110011101011001100100011001101 &
#679
b11110001011110011010100011101011 &
#680
b11010101011110000010011000010100 &
#681
b101011011101111111000010010 &
#682
b1000011010110000001111101100100 &
#683
b110010111001011000100011010001 &
#684
b11101100110001111010110101011110 &
#685
b1111011011000010110101110010000 &
#686
b1011001100100100001101101000111 &
#687
b11110011011011001101011101101101 &
#688
b11111011011111000010101101101010 &
#689
b1011100001111000001101000001010 &
#690
b10111010001101001100101110001001 &
#691
b1000001100110011001111110111011 &
#692
b10000111100011000011101010111 &
#693
b1000010110101010110000000100110 &
#694
b100100000000011000111011111111 &
#695
b11010000000101101101100000000110 &
#696
b1000110001101101110000101110110 &
#697
b1110001101111011001011110110101 &
#698
b11011110001000100010010110001111 &
#699
b10010111101001101100011011001110 &
#700
b100010111100110111000011010111 &
#701
b10101010111111101100110000101010 &
#702
b1000000100001111110000000111 &
#703
b10100111010000000011000101100000 &
#704
b11100110000010001101000110000011 &
#705
b11111011101011010101010000110010 &
#706
b1010001011010000001100011101100 &
#707
b1010010001001001110011101110001 &
#708
b1100110110101001110111011011001 &
#709
b11110100000101110101011011111001 &
#710
b10010110001000000011100101110000 &
#711
b110111100010110111011011000011 &
#712
b10101111100111111011001000111010 &
#713
b1001001100001001110001101000001 &
#714
b10110101010101011011011000011001 &
#715
b10001000000011011011110011111101 &
#716
b10100010111011100011000000101101 &
#717
b10101111010100001100110101100111 &
#718
b1000001010010001110000011100011 &
#719
b11101101001011000010110110001 &
#720
b10101010110001010100110011011110 &
#721
b11010011001111111110011101 &
#722
b110100111100000000100110101000 &
#723
b10010010110000111011100000100000 &
#724
b1100010001101110110111110001001 &
#725
b10100001101010110100111110110011 &
#726
b10011000000101001100010011111001 &
#727
b11100110000110110101000101111011 &
#728
b11111100110100010101010101011000 &
#729
b111101010110000000101011100100 &
#730
b101010111000111000110011010000 &
#731
b1101101111101111110101001010 &
#732
b11101110000110000010110110000100 &
#733
b1011100111011010110010101010010 &
#734
b10110111011000001100100101101111 &
#735
b10101001100010011011001101000011 &
#736
b110111101111001111011000110101 &
#737
b10100110001100111011000110001000 &
#738
b11110000111101001101011110101001 &
#739
b11000011100111000010000000111010 &
#740
b111001101111111000101101001010 &
#741
b1111110000011111001010110000010 &
#742
b11010110010100000010000100011 &
#743
b11000001100010010101111110111100 &
#744
b10111101110111000011000110100 &
#745
b100111010111010111000110011010 &
#746
b11100011101001101101000011001110 &
#747
b10110010111101010100100011010110 &
#748
b11101011100011011010110000111101 &
#749
b11110111010010111101000101100 &
#750
b10011110001101010100010101110110 &
#751
b10010001100011110100011110111101 &
#752
b1010110110001110110011000100001 &
#753
b110011011010001111011110010011 &
#754
b11111010001000111010101101110000 &
#755
b1000111101100000001111011001000 &
#756
b1100100110001011001000110100001 &
#757
b11011011010000110101101110011111 &
#758
b11010110001100101101100110001000 &
#759
b110000111001101111011110101110 &
#760
b11000100111110111010000101010100 &
#761
b1010001010100111001100000011000 &
#762
b1011001011110001110010011101011 &
#763
b11110101011001001101011000010001 &
#764
b10000000110111000011111101011010 &
#765
b1111101110100000001011001011 &
#766
b11000111010010000010000110011100 &
#767
b1100101101011111001000110110010 &
#768
b11001001010010110101110011100011 &
#769
b10111101100100111011010110111000 &
#770
b100011011101011000111101101001 &
#771
b10111111100001101100101000111110 &
#772
b1101011100011000001000010111 &
#773
b11100110110101000010111000100110 &
#774
b11110100000111010101011011111010 &
#775
b10010101101010000011100101001100 &
#776
b1000001010110111110011110011 &
#777
b10101100000111000011001011111010 &
#778
b1110101101110001110100101001011 &
#779
b10001111011001100011110110010001 &
#780
b11001000111100100010001101010111 &
#781
b10100010111001111011000000101110 &
#782
b10101100111001001100110101010001 &
#783
b1110100110110001110100101011011 &
#784
b10011110111001100011101011010001 &
#785
b10011100111100110100010101010111 &
#786
b10110010111101110100100000101001 &
#787
b11101011101001011010110000110001 &
#788
b10010110010010111100011011100 &
#789
b1100001101101010110111110110110 &
#790
b10011101100000110100010110111111 &
#791
b10100100001101110100111000001001 &
#792
b11011001101001001101101110110001 &
#793
b11111010110111101101010011011010 &
#794
b1000111100101000001111011000110 &
#795
b1101010000101011001001101111001 &
#796
b1110000000110111110101111111 &
#797
b11011000001111000010010000001010 &
#798
b11101010001111101101001110001010 &
#799
b10000101010111111110000110 &
#800
b101110000001000000110101111110 &
#801
b1011001010100101110010000011000 &
#802
b11111001011011001101010011101101 &
#803
b1110011011111000001011101101010 &
#804
b11111100001101100010101000001001 &
#805
b111001101101000000101110110110 &
#806
b1111101100100111001010110111000 &
#807
b100011011110100000111101101011 &
#808
b10111101010010101100101000011100 &
#809
b101101100000011000110110111111 &
#810
b1100100000101101110111000000110 &
#811
b11010110001111110101100101110101 &
#812
b110010000000101111011110000000 &
#813
b11101000001010111010110000001100 &
#814
b101100000100010111001011111000 &
#815
b1110111010101101110100101100110 &
#816
b10100000001111100011000011110101 &
#817
b10001010000100001100001110000111 &
#818
b10001111010010100011110101100011 &
#819
b11000101100000100010000110111111 &
#820
b1000100001001111001111000001110 &
#821
b1011110111010011001101011010011 &
#822
b10011110001100001100010101110111 &
#823
b10010000110010110100011110100011 &
#824
b1001001100101110110001110111001 &
#825
b10110010001010011011011101110011 &
