.Xil/Vivado-13844-llc/hw_ila_data_1/zip_work/waveform.vcd
$date
        2025-Jun-19 10:10:50
$end
$version
        Vivado v2022.2 (64-bit)
$end
$timescale
        1ps
$end
$scope module dut $end
$var reg 1 " sysref $end
$var reg 1 # tx_ready $end
$var reg 128 $ tx_data [127:0] $end
$var reg 1 F" rx_sync_0_OBUF $end
$var reg 1 G" tx_sync_0_IBUF $end
$var reg 1 H" rx_valid_1 $end
$var reg 1 I" locked $end
$var reg 1 J" rst_204 $end
$var reg 1 K" rx_valid $end
$var reg 128 L" rx_data [127:0] $end
$var reg 1 n# _TRIGGER $end
$var reg 1 o# _WINDOW $end
$var reg 1 p# _GAP $end
$upscope $end
$enddefinitions $end
#0
$dumpvars
1"
1#
b1110011111000010110110111111101011100111110000101101101111111100111001111100001011011011111111101110011111000010110111000000000 $
0F"
1G"
0H"
1I"
0J"
0K"
b0 L"
0n#
1o#
0p#
$end
#1
b1110011111000010110110111111110011100111110000101101101111111110111001111100001011011100000000001110011111000010110111000000001 $
#2
b1110011111000010110110111111111011100111110000101101110000000000111001111100001011011100000000101110011111000010110111000000010 $
#3
b1110011111000010110111000000000011100111110000101101110000000010111001111100001011011100000001001110011111000010110111000000011 $
#4
0"
b1110011111000010110111000000001011100111110000101101110000000100111001111100001011011100000001101110011111000010110111000000100 $
#5
b1110011111000010110111000000010011100111110000101101110000000110111001111100001011011100000010001110011111000010110111000000101 $
#6
b1110011111000010110111000000011011100111110000101101110000001000111001111100001011011100000010101110011111000010110111000000110 $
#7
b1110011111000010110111000000100011100111110000101101110000001010111001111100001011011100000011001110011111000010110111000000111 $
#8
b1110011111000010110111000000101011100111110000101101110000001100111001111100001011011100000011101110011111000010110111000001000 $
#9
b1110011111000010110111000000110011100111110000101101110000001110111001111100001011011100000100001110011111000010110111000001001 $
#10
b1110011111000010110111000000111011100111110000101101110000010000111001111100001011011100000100101110011111000010110111000001010 $
#11
b1110011111000010110111000001000011100111110000101101110000010010111001111100001011011100000101001110011111000010110111000001011 $
#12
b1110011111000010110111000001001011100111110000101101110000010100111001111100001011011100000101101110011111000010110111000001100 $
#13
b1110011111000010110111000001010011100111110000101101110000010110111001111100001011011100000110001110011111000010110111000001101 $
#14
b1110011111000010110111000001011011100111110000101101110000011000111001111100001011011100000110101110011111000010110111000001110 $
#15
b1110011111000010110111000001100011100111110000101101110000011010111001111100001011011100000111001110011111000010110111000001111 $
#16
b1110011111000010110111000001101011100111110000101101110000011100111001111100001011011100000111101110011111000010110111000010000 $
#17
b1110011111000010110111000001110011100111110000101101110000011110111001111100001011011100001000001110011111000010110111000010001 $
#18
b1110011111000010110111000001111011100111110000101101110000100000111001111100001011011100001000101110011111000010110111000010010 $
#19
b1110011111000010110111000010000011100111110000101101110000100010111001111100001011011100001001001110011111000010110111000010011 $
#20
b1110011111000010110111000010001011100111110000101101110000100100111001111100001011011100001001101110011111000010110111000010100 $
#21
b1110011111000010110111000010010011100111110000101101110000100110111001111100001011011100001010001110011111000010110111000010101 $
#22
b1110011111000010110111000010011011100111110000101101110000101000111001111100001011011100001010101110011111000010110111000010110 $
#23
b1110011111000010110111000010100011100111110000101101110000101010111001111100001011011100001011001110011111000010110111000010111 $
#24
b1110011111000010110111000010101011100111110000101101110000101100111001111100001011011100001011101110011111000010110111000011000 $
#25
b1110011111000010110111000010110011100111110000101101110000101110111001111100001011011100001100001110011111000010110111000011001 $
#26
b1110011111000010110111000010111011100111110000101101110000110000111001111100001011011100001100101110011111000010110111000011010 $
#27
b1110011111000010110111000011000011100111110000101101110000110010111001111100001011011100001101001110011111000010110111000011011 $
#28
b1110011111000010110111000011001011100111110000101101110000110100111001111100001011011100001101101110011111000010110111000011100 $
#29
b1110011111000010110111000011010011100111110000101101110000110110111001111100001011011100001110001110011111000010110111000011101 $
#30
b1110011111000010110111000011011011100111110000101101110000111000111001111100001011011100001110101110011111000010110111000011110 $
#31
b1110011111000010110111000011100011100111110000101101110000111010111001111100001011011100001111001110011111000010110111000011111 $
#32
b1110011111000010110111000011101011100111110000101101110000111100111001111100001011011100001111101110011111000010110111000100000 $
#33
b1110011111000010110111000011110011100111110000101101110000111110111001111100001011011100010000001110011111000010110111000100001 $
#34
b1110011111000010110111000011111011100111110000101101110001000000111001111100001011011100010000101110011111000010110111000100010 $
#35
b1110011111000010110111000100000011100111110000101101110001000010111001111100001011011100010001001110011111000010110111000100011 $
#36
1"
b1110011111000010110111000100001011100111110000101101110001000100111001111100001011011100010001101110011111000010110111000100100 $
#37
b1110011111000010110111000100010011100111110000101101110001000110111001111100001011011100010010001110011111000010110111000100101 $
#38
b1110011111000010110111000100011011100111110000101101110001001000111001111100001011011100010010101110011111000010110111000100110 $
#39
b1110011111000010110111000100100011100111110000101101110001001010111001111100001011011100010011001110011111000010110111000100111 $
#40
b1110011111000010110111000100101011100111110000101101110001001100111001111100001011011100010011101110011111000010110111000101000 $
#41
b1110011111000010110111000100110011100111110000101101110001001110111001111100001011011100010100001110011111000010110111000101001 $
#42
b1110011111000010110111000100111011100111110000101101110001010000111001111100001011011100010100101110011111000010110111000101010 $
#43
b1110011111000010110111000101000011100111110000101101110001010010111001111100001011011100010101001110011111000010110111000101011 $
#44
b1110011111000010110111000101001011100111110000101101110001010100111001111100001011011100010101101110011111000010110111000101100 $
#45
b1110011111000010110111000101010011100111110000101101110001010110111001111100001011011100010110001110011111000010110111000101101 $
#46
b1110011111000010110111000101011011100111110000101101110001011000111001111100001011011100010110101110011111000010110111000101110 $
#47
b1110011111000010110111000101100011100111110000101101110001011010111001111100001011011100010111001110011111000010110111000101111 $
#48
b1110011111000010110111000101101011100111110000101101110001011100111001111100001011011100010111101110011111000010110111000110000 $
#49
b1110011111000010110111000101110011100111110000101101110001011110111001111100001011011100011000001110011111000010110111000110001 $
#50
b1110011111000010110111000101111011100111110000101101110001100000111001111100001011011100011000101110011111000010110111000110010 $
#51
b1110011111000010110111000110000011100111110000101101110001100010111001111100001011011100011001001110011111000010110111000110011 $
#52
b1110011111000010110111000110001011100111110000101101110001100100111001111100001011011100011001101110011111000010110111000110100 $
#53
b1110011111000010110111000110010011100111110000101101110001100110111001111100001011011100011010001110011111000010110111000110101 $
#54
b1110011111000010110111000110011011100111110000101101110001101000111001111100001011011100011010101110011111000010110111000110110 $
#55
b1110011111000010110111000110100011100111110000101101110001101010111001111100001011011100011011001110011111000010110111000110111 $
#56
b1110011111000010110111000110101011100111110000101101110001101100111001111100001011011100011011101110011111000010110111000111000 $
#57
b1110011111000010110111000110110011100111110000101101110001101110111001111100001011011100011100001110011111000010110111000111001 $
#58
b1110011111000010110111000110111011100111110000101101110001110000111001111100001011011100011100101110011111000010110111000111010 $
#59
b1110011111000010110111000111000011100111110000101101110001110010111001111100001011011100011101001110011111000010110111000111011 $
#60
b1110011111000010110111000111001011100111110000101101110001110100111001111100001011011100011101101110011111000010110111000111100 $
#61
b1110011111000010110111000111010011100111110000101101110001110110111001111100001011011100011110001110011111000010110111000111101 $
#62
b1110011111000010110111000111011011100111110000101101110001111000111001111100001011011100011110101110011111000010110111000111110 $
#63
b1110011111000010110111000111100011100111110000101101110001111010111001111100001011011100011111001110011111000010110111000111111 $
#64
b1110011111000010110111000111101011100111110000101101110001111100111001111100001011011100011111101110011111000010110111001000000 $
#65
b1110011111000010110111000111110011100111110000101101110001111110111001111100001011011100100000001110011111000010110111001000001 $
#66
b1110011111000010110111000111111011100111110000101101110010000000111001111100001011011100100000101110011111000010110111001000010 $
#67
b1110011111000010110111001000000011100111110000101101110010000010111001111100001011011100100001001110011111000010110111001000011 $
#68
0"
b1110011111000010110111001000001011100111110000101101110010000100111001111100001011011100100001101110011111000010110111001000100 $
#69
b1110011111000010110111001000010011100111110000101101110010000110111001111100001011011100100010001110011111000010110111001000101 $
#70
b1110011111000010110111001000011011100111110000101101110010001000111001111100001011011100100010101110011111000010110111001000110 $
#71
b1110011111000010110111001000100011100111110000101101110010001010111001111100001011011100100011001110011111000010110111001000111 $
#72
b1110011111000010110111001000101011100111110000101101110010001100111001111100001011011100100011101110011111000010110111001001000 $
#73
b1110011111000010110111001000110011100111110000101101110010001110111001111100001011011100100100001110011111000010110111001001001 $
#74
b1110011111000010110111001000111011100111110000101101110010010000111001111100001011011100100100101110011111000010110111001001010 $
#75
b1110011111000010110111001001000011100111110000101101110010010010111001111100001011011100100101001110011111000010110111001001011 $
#76
b1110011111000010110111001001001011100111110000101101110010010100111001111100001011011100100101101110011111000010110111001001100 $
#77
b1110011111000010110111001001010011100111110000101101110010010110111001111100001011011100100110001110011111000010110111001001101 $
#78
b1110011111000010110111001001011011100111110000101101110010011000111001111100001011011100100110101110011111000010110111001001110 $
#79
b1110011111000010110111001001100011100111110000101101110010011010111001111100001011011100100111001110011111000010110111001001111 $
#80
b1110011111000010110111001001101011100111110000101101110010011100111001111100001011011100100111101110011111000010110111001010000 $
#81
b1110011111000010110111001001110011100111110000101101110010011110111001111100001011011100101000001110011111000010110111001010001 $
#82
b1110011111000010110111001001111011100111110000101101110010100000111001111100001011011100101000101110011111000010110111001010010 $
#83
b1110011111000010110111001010000011100111110000101101110010100010111001111100001011011100101001001110011111000010110111001010011 $
#84
b1110011111000010110111001010001011100111110000101101110010100100111001111100001011011100101001101110011111000010110111001010100 $
#85
b1110011111000010110111001010010011100111110000101101110010100110111001111100001011011100101010001110011111000010110111001010101 $
#86
b1110011111000010110111001010011011100111110000101101110010101000111001111100001011011100101010101110011111000010110111001010110 $
#87
b1110011111000010110111001010100011100111110000101101110010101010111001111100001011011100101011001110011111000010110111001010111 $
#88
b1110011111000010110111001010101011100111110000101101110010101100111001111100001011011100101011101110011111000010110111001011000 $
#89
b1110011111000010110111001010110011100111110000101101110010101110111001111100001011011100101100001110011111000010110111001011001 $
#90
b1110011111000010110111001010111011100111110000101101110010110000111001111100001011011100101100101110011111000010110111001011010 $
#91
b1110011111000010110111001011000011100111110000101101110010110010111001111100001011011100101101001110011111000010110111001011011 $
#92
b1110011111000010110111001011001011100111110000101101110010110100111001111100001011011100101101101110011111000010110111001011100 $
#93
b1110011111000010110111001011010011100111110000101101110010110110111001111100001011011100101110001110011111000010110111001011101 $
#94
b1110011111000010110111001011011011100111110000101101110010111000111001111100001011011100101110101110011111000010110111001011110 $
#95
b1110011111000010110111001011100011100111110000101101110010111010111001111100001011011100101111001110011111000010110111001011111 $
#96
b1110011111000010110111001011101011100111110000101101110010111100111001111100001011011100101111101110011111000010110111001100000 $
#97
b1110011111000010110111001011110011100111110000101101110010111110111001111100001011011100110000001110011111000010110111001100001 $
#98
b1110011111000010110111001011111011100111110000101101110011000000111001111100001011011100110000101110011111000010110111001100010 $
#99
b1110011111000010110111001100000011100111110000101101110011000010111001111100001011011100110001001110011111000010110111001100011 $
#100
1"
b1110011111000010110111001100001011100111110000101101110011000100111001111100001011011100110001101110011111000010110111001100100 $
1n#
#101
b1110011111000010110111001100010011100111110000101101110011000110111001111100001011011100110010001110011111000010110111001100101 $
#102
b1110011111000010110111001100011011100111110000101101110011001000111001111100001011011100110010101110011111000010110111001100110 $
#103
b1110011111000010110111001100100011100111110000101101110011001010111001111100001011011100110011001110011111000010110111001100111 $
#104
b1110011111000010110111001100101011100111110000101101110011001100111001111100001011011100110011101110011111000010110111001101000 $
#105
b1110011111000010110111001100110011100111110000101101110011001110111001111100001011011100110100001110011111000010110111001101001 $
#106
b1110011111000010110111001100111011100111110000101101110011010000111001111100001011011100110100101110011111000010110111001101010 $
#107
b1110011111000010110111001101000011100111110000101101110011010010111001111100001011011100110101001110011111000010110111001101011 $
#108
b1110011111000010110111001101001011100111110000101101110011010100111001111100001011011100110101101110011111000010110111001101100 $
#109
b1110011111000010110111001101010011100111110000101101110011010110111001111100001011011100110110001110011111000010110111001101101 $
#110
b1110011111000010110111001101011011100111110000101101110011011000111001111100001011011100110110101110011111000010110111001101110 $
#111
b1110011111000010110111001101100011100111110000101101110011011010111001111100001011011100110111001110011111000010110111001101111 $
#112
b1110011111000010110111001101101011100111110000101101110011011100111001111100001011011100110111101110011111000010110111001110000 $
#113
b1110011111000010110111001101110011100111110000101101110011011110111001111100001011011100111000001110011111000010110111001110001 $
#114
b1110011111000010110111001101111011100111110000101101110011100000111001111100001011011100111000101110011111000010110111001110010 $
#115
b1110011111000010110111001110000011100111110000101101110011100010111001111100001011011100111001001110011111000010110111001110011 $
#116
b1110011111000010110111001110001011100111110000101101110011100100111001111100001011011100111001101110011111000010110111001110100 $
#117
b1110011111000010110111001110010011100111110000101101110011100110111001111100001011011100111010001110011111000010110111001110101 $
#118
b1110011111000010110111001110011011100111110000101101110011101000111001111100001011011100111010101110011111000010110111001110110 $
#119
b1110011111000010110111001110100011100111110000101101110011101010111001111100001011011100111011001110011111000010110111001110111 $
#120
b1110011111000010110111001110101011100111110000101101110011101100111001111100001011011100111011101110011111000010110111001111000 $
#121
b1110011111000010110111001110110011100111110000101101110011101110111001111100001011011100111100001110011111000010110111001111001 $
#122
b1110011111000010110111001110111011100111110000101101110011110000111001111100001011011100111100101110011111000010110111001111010 $
#123
b1110011111000010110111001111000011100111110000101101110011110010111001111100001011011100111101001110011111000010110111001111011 $
#124
b1110011111000010110111001111001011100111110000101101110011110100111001111100001011011100111101101110011111000010110111001111100 $
#125
b1110011111000010110111001111010011100111110000101101110011110110111001111100001011011100111110001110011111000010110111001111101 $
#126
b1110011111000010110111001111011011100111110000101101110011111000111001111100001011011100111110101110011111000010110111001111110 $
#127
b1110011111000010110111001111100011100111110000101101110011111010111001111100001011011100111111001110011111000010110111001111111 $
#128
b1110011111000010110111001111101011100111110000101101110011111100111001111100001011011100111111101110011111000010110111010000000 $
#129
b1110011111000010110111001111110011100111110000101101110011111110111001111100001011011101000000001110011111000010110111010000001 $
#130
b1110011111000010110111001111111011100111110000101101110100000000111001111100001011011101000000101110011111000010110111010000010 $
#131
b1110011111000010110111010000000011100111110000101101110100000010111001111100001011011101000001001110011111000010110111010000011 $
#132
0"
b1110011111000010110111010000001011100111110000101101110100000100111001111100001011011101000001101110011111000010110111010000100 $
#133
b1110011111000010110111010000010011100111110000101101110100000110111001111100001011011101000010001110011111000010110111010000101 $
#134
b1110011111000010110111010000011011100111110000101101110100001000111001111100001011011101000010101110011111000010110111010000110 $
#135
b1110011111000010110111010000100011100111110000101101110100001010111001111100001011011101000011001110011111000010110111010000111 $
#136
b1110011111000010110111010000101011100111110000101101110100001100111001111100001011011101000011101110011111000010110111010001000 $
#137
b1110011111000010110111010000110011100111110000101101110100001110111001111100001011011101000100001110011111000010110111010001001 $
#138
b1110011111000010110111010000111011100111110000101101110100010000111001111100001011011101000100101110011111000010110111010001010 $
#139
b1110011111000010110111010001000011100111110000101101110100010010111001111100001011011101000101001110011111000010110111010001011 $
#140
b1110011111000010110111010001001011100111110000101101110100010100111001111100001011011101000101101110011111000010110111010001100 $
#141
b1110011111000010110111010001010011100111110000101101110100010110111001111100001011011101000110001110011111000010110111010001101 $
#142
b1110011111000010110111010001011011100111110000101101110100011000111001111100001011011101000110101110011111000010110111010001110 $
#143
b1110011111000010110111010001100011100111110000101101110100011010111001111100001011011101000111001110011111000010110111010001111 $
#144
b1110011111000010110111010001101011100111110000101101110100011100111001111100001011011101000111101110011111000010110111010010000 $
#145
b1110011111000010110111010001110011100111110000101101110100011110111001111100001011011101001000001110011111000010110111010010001 $
#146
b1110011111000010110111010001111011100111110000101101110100100000111001111100001011011101001000101110011111000010110111010010010 $
#147
b1110011111000010110111010010000011100111110000101101110100100010111001111100001011011101001001001110011111000010110111010010011 $
#148
b1110011111000010110111010010001011100111110000101101110100100100111001111100001011011101001001101110011111000010110111010010100 $
#149
b1110011111000010110111010010010011100111110000101101110100100110111001111100001011011101001010001110011111000010110111010010101 $
#150
b1110011111000010110111010010011011100111110000101101110100101000111001111100001011011101001010101110011111000010110111010010110 $
#151
b1110011111000010110111010010100011100111110000101101110100101010111001111100001011011101001011001110011111000010110111010010111 $
#152
b1110011111000010110111010010101011100111110000101101110100101100111001111100001011011101001011101110011111000010110111010011000 $
#153
b1110011111000010110111010010110011100111110000101101110100101110111001111100001011011101001100001110011111000010110111010011001 $
#154
b1110011111000010110111010010111011100111110000101101110100110000111001111100001011011101001100101110011111000010110111010011010 $
#155
b1110011111000010110111010011000011100111110000101101110100110010111001111100001011011101001101001110011111000010110111010011011 $
#156
b1110011111000010110111010011001011100111110000101101110100110100111001111100001011011101001101101110011111000010110111010011100 $
#157
b1110011111000010110111010011010011100111110000101101110100110110111001111100001011011101001110001110011111000010110111010011101 $
#158
b1110011111000010110111010011011011100111110000101101110100111000111001111100001011011101001110101110011111000010110111010011110 $
#159
b1110011111000010110111010011100011100111110000101101110100111010111001111100001011011101001111001110011111000010110111010011111 $
#160
b1110011111000010110111010011101011100111110000101101110100111100111001111100001011011101001111101110011111000010110111010100000 $
#161
b1110011111000010110111010011110011100111110000101101110100111110111001111100001011011101010000001110011111000010110111010100001 $
#162
b1110011111000010110111010011111011100111110000101101110101000000111001111100001011011101010000101110011111000010110111010100010 $
#163
b1110011111000010110111010100000011100111110000101101110101000010111001111100001011011101010001001110011111000010110111010100011 $
#164
1"
b1110011111000010110111010100001011100111110000101101110101000100111001111100001011011101010001101110011111000010110111010100100 $
#165
b1110011111000010110111010100010011100111110000101101110101000110111001111100001011011101010010001110011111000010110111010100101 $
#166
b1110011111000010110111010100011011100111110000101101110101001000111001111100001011011101010010101110011111000010110111010100110 $
#167
b1110011111000010110111010100100011100111110000101101110101001010111001111100001011011101010011001110011111000010110111010100111 $
#168
b1110011111000010110111010100101011100111110000101101110101001100111001111100001011011101010011101110011111000010110111010101000 $
#169
b1110011111000010110111010100110011100111110000101101110101001110111001111100001011011101010100001110011111000010110111010101001 $
#170
b1110011111000010110111010100111011100111110000101101110101010000111001111100001011011101010100101110011111000010110111010101010 $
#171
b1110011111000010110111010101000011100111110000101101110101010010111001111100001011011101010101001110011111000010110111010101011 $
#172
b1110011111000010110111010101001011100111110000101101110101010100111001111100001011011101010101101110011111000010110111010101100 $
#173
b1110011111000010110111010101010011100111110000101101110101010110111001111100001011011101010110001110011111000010110111010101101 $
#174
b1110011111000010110111010101011011100111110000101101110101011000111001111100001011011101010110101110011111000010110111010101110 $
#175
b1110011111000010110111010101100011100111110000101101110101011010111001111100001011011101010111001110011111000010110111010101111 $
#176
b1110011111000010110111010101101011100111110000101101110101011100111001111100001011011101010111101110011111000010110111010110000 $
#177
b1110011111000010110111010101110011100111110000101101110101011110111001111100001011011101011000001110011111000010110111010110001 $
#178
b1110011111000010110111010101111011100111110000101101110101100000111001111100001011011101011000101110011111000010110111010110010 $
#179
b1110011111000010110111010110000011100111110000101101110101100010111001111100001011011101011001001110011111000010110111010110011 $
#180
b1110011111000010110111010110001011100111110000101101110101100100111001111100001011011101011001101110011111000010110111010110100 $
#181
b1110011111000010110111010110010011100111110000101101110101100110111001111100001011011101011010001110011111000010110111010110101 $
#182
b1110011111000010110111010110011011100111110000101101110101101000111001111100001011011101011010101110011111000010110111010110110 $
#183
b1110011111000010110111010110100011100111110000101101110101101010111001111100001011011101011011001110011111000010110111010110111 $
#184
b1110011111000010110111010110101011100111110000101101110101101100111001111100001011011101011011101110011111000010110111010111000 $
#185
b1110011111000010110111010110110011100111110000101101110101101110111001111100001011011101011100001110011111000010110111010111001 $
#186
b1110011111000010110111010110111011100111110000101101110101110000111001111100001011011101011100101110011111000010110111010111010 $
#187
b1110011111000010110111010111000011100111110000101101110101110010111001111100001011011101011101001110011111000010110111010111011 $
#188
b1110011111000010110111010111001011100111110000101101110101110100111001111100001011011101011101101110011111000010110111010111100 $
#189
b1110011111000010110111010111010011100111110000101101110101110110111001111100001011011101011110001110011111000010110111010111101 $
#190
b1110011111000010110111010111011011100111110000101101110101111000111001111100001011011101011110101110011111000010110111010111110 $
#191
b1110011111000010110111010111100011100111110000101101110101111010111001111100001011011101011111001110011111000010110111010111111 $
#192
b1110011111000010110111010111101011100111110000101101110101111100111001111100001011011101011111101110011111000010110111011000000 $
#193
b1110011111000010110111010111110011100111110000101101110101111110111001111100001011011101100000001110011111000010110111011000001 $
#194
b1110011111000010110111010111111011100111110000101101110110000000111001111100001011011101100000101110011111000010110111011000010 $
#195
b1110011111000010110111011000000011100111110000101101110110000010111001111100001011011101100001001110011111000010110111011000011 $
#196
0"
b1110011111000010110111011000001011100111110000101101110110000100111001111100001011011101100001101110011111000010110111011000100 $
#197
b1110011111000010110111011000010011100111110000101101110110000110111001111100001011011101100010001110011111000010110111011000101 $
#198
b1110011111000010110111011000011011100111110000101101110110001000111001111100001011011101100010101110011111000010110111011000110 $
#199
b1110011111000010110111011000100011100111110000101101110110001010111001111100001011011101100011001110011111000010110111011000111 $
#200
b1110011111000010110111011000101011100111110000101101110110001100111001111100001011011101100011101110011111000010110111011001000 $
#201
b1110011111000010110111011000110011100111110000101101110110001110111001111100001011011101100100001110011111000010110111011001001 $
#202
b1110011111000010110111011000111011100111110000101101110110010000111001111100001011011101100100101110011111000010110111011001010 $
#203
b1110011111000010110111011001000011100111110000101101110110010010111001111100001011011101100101001110011111000010110111011001011 $
#204
b1110011111000010110111011001001011100111110000101101110110010100111001111100001011011101100101101110011111000010110111011001100 $
#205
b1110011111000010110111011001010011100111110000101101110110010110111001111100001011011101100110001110011111000010110111011001101 $
#206
b1110011111000010110111011001011011100111110000101101110110011000111001111100001011011101100110101110011111000010110111011001110 $
#207
b1110011111000010110111011001100011100111110000101101110110011010111001111100001011011101100111001110011111000010110111011001111 $
#208
b1110011111000010110111011001101011100111110000101101110110011100111001111100001011011101100111101110011111000010110111011010000 $
#209
b1110011111000010110111011001110011100111110000101101110110011110111001111100001011011101101000001110011111000010110111011010001 $
#210
b1110011111000010110111011001111011100111110000101101110110100000111001111100001011011101101000101110011111000010110111011010010 $
#211
b1110011111000010110111011010000011100111110000101101110110100010111001111100001011011101101001001110011111000010110111011010011 $
#212
b1110011111000010110111011010001011100111110000101101110110100100111001111100001011011101101001101110011111000010110111011010100 $
#213
b1110011111000010110111011010010011100111110000101101110110100110111001111100001011011101101010001110011111000010110111011010101 $
#214
b1110011111000010110111011010011011100111110000101101110110101000111001111100001011011101101010101110011111000010110111011010110 $
#215
b1110011111000010110111011010100011100111110000101101110110101010111001111100001011011101101011001110011111000010110111011010111 $
#216
b1110011111000010110111011010101011100111110000101101110110101100111001111100001011011101101011101110011111000010110111011011000 $
#217
b1110011111000010110111011010110011100111110000101101110110101110111001111100001011011101101100001110011111000010110111011011001 $
#218
b1110011111000010110111011010111011100111110000101101110110110000111001111100001011011101101100101110011111000010110111011011010 $
#219
b1110011111000010110111011011000011100111110000101101110110110010111001111100001011011101101101001110011111000010110111011011011 $
#220
b1110011111000010110111011011001011100111110000101101110110110100111001111100001011011101101101101110011111000010110111011011100 $
#221
b1110011111000010110111011011010011100111110000101101110110110110111001111100001011011101101110001110011111000010110111011011101 $
#222
b1110011111000010110111011011011011100111110000101101110110111000111001111100001011011101101110101110011111000010110111011011110 $
#223
b1110011111000010110111011011100011100111110000101101110110111010111001111100001011011101101111001110011111000010110111011011111 $
#224
b1110011111000010110111011011101011100111110000101101110110111100111001111100001011011101101111101110011111000010110111011100000 $
#225
b1110011111000010110111011011110011100111110000101101110110111110111001111100001011011101110000001110011111000010110111011100001 $
#226
b1110011111000010110111011011111011100111110000101101110111000000111001111100001011011101110000101110011111000010110111011100010 $
#227
b1110011111000010110111011100000011100111110000101101110111000010111001111100001011011101110001001110011111000010110111011100011 $
#228
1"
b1110011111000010110111011100001011100111110000101101110111000100111001111100001011011101110001101110011111000010110111011100100 $
#229
b1110011111000010110111011100010011100111110000101101110111000110111001111100001011011101110010001110011111000010110111011100101 $
#230
b1110011111000010110111011100011011100111110000101101110111001000111001111100001011011101110010101110011111000010110111011100110 $
#231
b1110011111000010110111011100100011100111110000101101110111001010111001111100001011011101110011001110011111000010110111011100111 $
#232
b1110011111000010110111011100101011100111110000101101110111001100111001111100001011011101110011101110011111000010110111011101000 $
#233
b1110011111000010110111011100110011100111110000101101110111001110111001111100001011011101110100001110011111000010110111011101001 $
#234
b1110011111000010110111011100111011100111110000101101110111010000111001111100001011011101110100101110011111000010110111011101010 $
#235
b1110011111000010110111011101000011100111110000101101110111010010111001111100001011011101110101001110011111000010110111011101011 $
#236
b1110011111000010110111011101001011100111110000101101110111010100111001111100001011011101110101101110011111000010110111011101100 $
#237
b1110011111000010110111011101010011100111110000101101110111010110111001111100001011011101110110001110011111000010110111011101101 $
#238
b1110011111000010110111011101011011100111110000101101110111011000111001111100001011011101110110101110011111000010110111011101110 $
#239
b1110011111000010110111011101100011100111110000101101110111011010111001111100001011011101110111001110011111000010110111011101111 $
#240
b1110011111000010110111011101101011100111110000101101110111011100111001111100001011011101110111101110011111000010110111011110000 $
#241
b1110011111000010110111011101110011100111110000101101110111011110111001111100001011011101111000001110011111000010110111011110001 $
#242
b1110011111000010110111011101111011100111110000101101110111100000111001111100001011011101111000101110011111000010110111011110010 $
#243
b1110011111000010110111011110000011100111110000101101110111100010111001111100001011011101111001001110011111000010110111011110011 $
#244
b1110011111000010110111011110001011100111110000101101110111100100111001111100001011011101111001101110011111000010110111011110100 $
#245
b1110011111000010110111011110010011100111110000101101110111100110111001111100001011011101111010001110011111000010110111011110101 $
#246
b1110011111000010110111011110011011100111110000101101110111101000111001111100001011011101111010101110011111000010110111011110110 $
#247
b1110011111000010110111011110100011100111110000101101110111101010111001111100001011011101111011001110011111000010110111011110111 $
#248
b1110011111000010110111011110101011100111110000101101110111101100111001111100001011011101111011101110011111000010110111011111000 $
#249
b1110011111000010110111011110110011100111110000101101110111101110111001111100001011011101111100001110011111000010110111011111001 $
#250
b1110011111000010110111011110111011100111110000101101110111110000111001111100001011011101111100101110011111000010110111011111010 $
#251
b1110011111000010110111011111000011100111110000101101110111110010111001111100001011011101111101001110011111000010110111011111011 $
#252
b1110011111000010110111011111001011100111110000101101110111110100111001111100001011011101111101101110011111000010110111011111100 $
#253
b1110011111000010110111011111010011100111110000101101110111110110111001111100001011011101111110001110011111000010110111011111101 $
#254
b1110011111000010110111011111011011100111110000101101110111111000111001111100001011011101111110101110011111000010110111011111110 $
#255
b1110011111000010110111011111100011100111110000101101110111111010111001111100001011011101111111001110011111000010110111011111111 $
#256
b1110011111000010110111011111101011100111110000101101110111111100111001111100001011011101111111101110011111000010110111100000000 $
#257
b1110011111000010110111011111110011100111110000101101110111111110111001111100001011011110000000001110011111000010110111100000001 $
#258
b1110011111000010110111011111111011100111110000101101111000000000111001111100001011011110000000101110011111000010110111100000010 $
#259
b1110011111000010110111100000000011100111110000101101111000000010111001111100001011011110000001001110011111000010110111100000011 $
#260
0"
b1110011111000010110111100000001011100111110000101101111000000100111001111100001011011110000001101110011111000010110111100000100 $
#261
b1110011111000010110111100000010011100111110000101101111000000110111001111100001011011110000010001110011111000010110111100000101 $
#262
b1110011111000010110111100000011011100111110000101101111000001000111001111100001011011110000010101110011111000010110111100000110 $
#263
b1110011111000010110111100000100011100111110000101101111000001010111001111100001011011110000011001110011111000010110111100000111 $
#264
b1110011111000010110111100000101011100111110000101101111000001100111001111100001011011110000011101110011111000010110111100001000 $
#265
b1110011111000010110111100000110011100111110000101101111000001110111001111100001011011110000100001110011111000010110111100001001 $
#266
b1110011111000010110111100000111011100111110000101101111000010000111001111100001011011110000100101110011111000010110111100001010 $
#267
b1110011111000010110111100001000011100111110000101101111000010010111001111100001011011110000101001110011111000010110111100001011 $
#268
b1110011111000010110111100001001011100111110000101101111000010100111001111100001011011110000101101110011111000010110111100001100 $
#269
b1110011111000010110111100001010011100111110000101101111000010110111001111100001011011110000110001110011111000010110111100001101 $
#270
b1110011111000010110111100001011011100111110000101101111000011000111001111100001011011110000110101110011111000010110111100001110 $
#271
b1110011111000010110111100001100011100111110000101101111000011010111001111100001011011110000111001110011111000010110111100001111 $
#272
b1110011111000010110111100001101011100111110000101101111000011100111001111100001011011110000111101110011111000010110111100010000 $
#273
b1110011111000010110111100001110011100111110000101101111000011110111001111100001011011110001000001110011111000010110111100010001 $
#274
b1110011111000010110111100001111011100111110000101101111000100000111001111100001011011110001000101110011111000010110111100010010 $
#275
b1110011111000010110111100010000011100111110000101101111000100010111001111100001011011110001001001110011111000010110111100010011 $
#276
b1110011111000010110111100010001011100111110000101101111000100100111001111100001011011110001001101110011111000010110111100010100 $
#277
b1110011111000010110111100010010011100111110000101101111000100110111001111100001011011110001010001110011111000010110111100010101 $
#278
b1110011111000010110111100010011011100111110000101101111000101000111001111100001011011110001010101110011111000010110111100010110 $
#279
b1110011111000010110111100010100011100111110000101101111000101010111001111100001011011110001011001110011111000010110111100010111 $
#280
b1110011111000010110111100010101011100111110000101101111000101100111001111100001011011110001011101110011111000010110111100011000 $
#281
b1110011111000010110111100010110011100111110000101101111000101110111001111100001011011110001100001110011111000010110111100011001 $
#282
b1110011111000010110111100010111011100111110000101101111000110000111001111100001011011110001100101110011111000010110111100011010 $
#283
b1110011111000010110111100011000011100111110000101101111000110010111001111100001011011110001101001110011111000010110111100011011 $
#284
b1110011111000010110111100011001011100111110000101101111000110100111001111100001011011110001101101110011111000010110111100011100 $
#285
b1110011111000010110111100011010011100111110000101101111000110110111001111100001011011110001110001110011111000010110111100011101 $
#286
b1110011111000010110111100011011011100111110000101101111000111000111001111100001011011110001110101110011111000010110111100011110 $
#287
b1110011111000010110111100011100011100111110000101101111000111010111001111100001011011110001111001110011111000010110111100011111 $
#288
b1110011111000010110111100011101011100111110000101101111000111100111001111100001011011110001111101110011111000010110111100100000 $
#289
b1110011111000010110111100011110011100111110000101101111000111110111001111100001011011110010000001110011111000010110111100100001 $
