.Xil/Vivado-9364-llc/hw_ila_data_1/zip_work/waveform.vcd
$date
        2025-Jun-19 11:45:31
$end
$version
        Vivado v2022.2 (64-bit)
$end
$timescale
        1ps
$end
$scope module dut $end
$var reg 1 " sysref $end
$var reg 1 # tx_ready $end
$var reg 128 $ tx_data [127:0] $end
$var reg 1 F" rx_sync_0_OBUF $end
$var reg 1 G" tx_sync_0_IBUF $end
$var reg 1 H" rx_valid_1 $end
$var reg 1 I" locked $end
$var reg 1 J" rst_204 $end
$var reg 1 K" rx_valid $end
$var reg 128 L" rx_data [127:0] $end
$var reg 1 n# _TRIGGER $end
$var reg 1 o# _WINDOW $end
$var reg 1 p# _GAP $end
$upscope $end
$enddefinitions $end
#0
$dumpvars
0"
1#
b1101010001110011110101100110010011010100011100111101011001100110110101000111001111010110011010001101010001110011110101100110101 $
0F"
1G"
0H"
1I"
0J"
0K"
b0 L"
0n#
1o#
0p#
$end
#1
b1101010001110011110101100110011011010100011100111101011001101000110101000111001111010110011010101101010001110011110101100110110 $
#2
b1101010001110011110101100110100011010100011100111101011001101010110101000111001111010110011011001101010001110011110101100110111 $
#3
b1101010001110011110101100110101011010100011100111101011001101100110101000111001111010110011011101101010001110011110101100111000 $
#4
1"
b1101010001110011110101100110110011010100011100111101011001101110110101000111001111010110011100001101010001110011110101100111001 $
#5
b1101010001110011110101100110111011010100011100111101011001110000110101000111001111010110011100101101010001110011110101100111010 $
#6
b1101010001110011110101100111000011010100011100111101011001110010110101000111001111010110011101001101010001110011110101100111011 $
#7
b1101010001110011110101100111001011010100011100111101011001110100110101000111001111010110011101101101010001110011110101100111100 $
#8
b1101010001110011110101100111010011010100011100111101011001110110110101000111001111010110011110001101010001110011110101100111101 $
#9
b1101010001110011110101100111011011010100011100111101011001111000110101000111001111010110011110101101010001110011110101100111110 $
#10
b1101010001110011110101100111100011010100011100111101011001111010110101000111001111010110011111001101010001110011110101100111111 $
#11
b1101010001110011110101100111101011010100011100111101011001111100110101000111001111010110011111101101010001110011110101101000000 $
#12
b1101010001110011110101100111110011010100011100111101011001111110110101000111001111010110100000001101010001110011110101101000001 $
#13
b1101010001110011110101100111111011010100011100111101011010000000110101000111001111010110100000101101010001110011110101101000010 $
#14
b1101010001110011110101101000000011010100011100111101011010000010110101000111001111010110100001001101010001110011110101101000011 $
#15
b1101010001110011110101101000001011010100011100111101011010000100110101000111001111010110100001101101010001110011110101101000100 $
#16
b1101010001110011110101101000010011010100011100111101011010000110110101000111001111010110100010001101010001110011110101101000101 $
#17
b1101010001110011110101101000011011010100011100111101011010001000110101000111001111010110100010101101010001110011110101101000110 $
#18
b1101010001110011110101101000100011010100011100111101011010001010110101000111001111010110100011001101010001110011110101101000111 $
#19
b1101010001110011110101101000101011010100011100111101011010001100110101000111001111010110100011101101010001110011110101101001000 $
#20
0"
b1101010001110011110101101000110011010100011100111101011010001110110101000111001111010110100100001101010001110011110101101001001 $
#21
b1101010001110011110101101000111011010100011100111101011010010000110101000111001111010110100100101101010001110011110101101001010 $
#22
b1101010001110011110101101001000011010100011100111101011010010010110101000111001111010110100101001101010001110011110101101001011 $
#23
b1101010001110011110101101001001011010100011100111101011010010100110101000111001111010110100101101101010001110011110101101001100 $
#24
b1101010001110011110101101001010011010100011100111101011010010110110101000111001111010110100110001101010001110011110101101001101 $
#25
b1101010001110011110101101001011011010100011100111101011010011000110101000111001111010110100110101101010001110011110101101001110 $
#26
b1101010001110011110101101001100011010100011100111101011010011010110101000111001111010110100111001101010001110011110101101001111 $
#27
b1101010001110011110101101001101011010100011100111101011010011100110101000111001111010110100111101101010001110011110101101010000 $
#28
b1101010001110011110101101001110011010100011100111101011010011110110101000111001111010110101000001101010001110011110101101010001 $
#29
b1101010001110011110101101001111011010100011100111101011010100000110101000111001111010110101000101101010001110011110101101010010 $
#30
b1101010001110011110101101010000011010100011100111101011010100010110101000111001111010110101001001101010001110011110101101010011 $
#31
b1101010001110011110101101010001011010100011100111101011010100100110101000111001111010110101001101101010001110011110101101010100 $
#32
b1101010001110011110101101010010011010100011100111101011010100110110101000111001111010110101010001101010001110011110101101010101 $
#33
b1101010001110011110101101010011011010100011100111101011010101000110101000111001111010110101010101101010001110011110101101010110 $
#34
b1101010001110011110101101010100011010100011100111101011010101010110101000111001111010110101011001101010001110011110101101010111 $
#35
b1101010001110011110101101010101011010100011100111101011010101100110101000111001111010110101011101101010001110011110101101011000 $
#36
1"
b1101010001110011110101101010110011010100011100111101011010101110110101000111001111010110101100001101010001110011110101101011001 $
#37
b1101010001110011110101101010111011010100011100111101011010110000110101000111001111010110101100101101010001110011110101101011010 $
#38
b1101010001110011110101101011000011010100011100111101011010110010110101000111001111010110101101001101010001110011110101101011011 $
#39
b1101010001110011110101101011001011010100011100111101011010110100110101000111001111010110101101101101010001110011110101101011100 $
#40
b1101010001110011110101101011010011010100011100111101011010110110110101000111001111010110101110001101010001110011110101101011101 $
#41
b1101010001110011110101101011011011010100011100111101011010111000110101000111001111010110101110101101010001110011110101101011110 $
#42
b1101010001110011110101101011100011010100011100111101011010111010110101000111001111010110101111001101010001110011110101101011111 $
#43
b1101010001110011110101101011101011010100011100111101011010111100110101000111001111010110101111101101010001110011110101101100000 $
#44
b1101010001110011110101101011110011010100011100111101011010111110110101000111001111010110110000001101010001110011110101101100001 $
#45
b1101010001110011110101101011111011010100011100111101011011000000110101000111001111010110110000101101010001110011110101101100010 $
#46
b1101010001110011110101101100000011010100011100111101011011000010110101000111001111010110110001001101010001110011110101101100011 $
#47
b1101010001110011110101101100001011010100011100111101011011000100110101000111001111010110110001101101010001110011110101101100100 $
#48
b1101010001110011110101101100010011010100011100111101011011000110110101000111001111010110110010001101010001110011110101101100101 $
#49
b1101010001110011110101101100011011010100011100111101011011001000110101000111001111010110110010101101010001110011110101101100110 $
#50
b1101010001110011110101101100100011010100011100111101011011001010110101000111001111010110110011001101010001110011110101101100111 $
#51
b1101010001110011110101101100101011010100011100111101011011001100110101000111001111010110110011101101010001110011110101101101000 $
#52
0"
b1101010001110011110101101100110011010100011100111101011011001110110101000111001111010110110100001101010001110011110101101101001 $
#53
b1101010001110011110101101100111011010100011100111101011011010000110101000111001111010110110100101101010001110011110101101101010 $
#54
b1101010001110011110101101101000011010100011100111101011011010010110101000111001111010110110101001101010001110011110101101101011 $
#55
b1101010001110011110101101101001011010100011100111101011011010100110101000111001111010110110101101101010001110011110101101101100 $
#56
b1101010001110011110101101101010011010100011100111101011011010110110101000111001111010110110110001101010001110011110101101101101 $
#57
b1101010001110011110101101101011011010100011100111101011011011000110101000111001111010110110110101101010001110011110101101101110 $
#58
b1101010001110011110101101101100011010100011100111101011011011010110101000111001111010110110111001101010001110011110101101101111 $
#59
b1101010001110011110101101101101011010100011100111101011011011100110101000111001111010110110111101101010001110011110101101110000 $
#60
b1101010001110011110101101101110011010100011100111101011011011110110101000111001111010110111000001101010001110011110101101110001 $
#61
b1101010001110011110101101101111011010100011100111101011011100000110101000111001111010110111000101101010001110011110101101110010 $
#62
b1101010001110011110101101110000011010100011100111101011011100010110101000111001111010110111001001101010001110011110101101110011 $
#63
b1101010001110011110101101110001011010100011100111101011011100100110101000111001111010110111001101101010001110011110101101110100 $
#64
b1101010001110011110101101110010011010100011100111101011011100110110101000111001111010110111010001101010001110011110101101110101 $
#65
b1101010001110011110101101110011011010100011100111101011011101000110101000111001111010110111010101101010001110011110101101110110 $
#66
b1101010001110011110101101110100011010100011100111101011011101010110101000111001111010110111011001101010001110011110101101110111 $
#67
b1101010001110011110101101110101011010100011100111101011011101100110101000111001111010110111011101101010001110011110101101111000 $
#68
1"
b1101010001110011110101101110110011010100011100111101011011101110110101000111001111010110111100001101010001110011110101101111001 $
#69
b1101010001110011110101101110111011010100011100111101011011110000110101000111001111010110111100101101010001110011110101101111010 $
#70
b1101010001110011110101101111000011010100011100111101011011110010110101000111001111010110111101001101010001110011110101101111011 $
#71
b1101010001110011110101101111001011010100011100111101011011110100110101000111001111010110111101101101010001110011110101101111100 $
#72
b1101010001110011110101101111010011010100011100111101011011110110110101000111001111010110111110001101010001110011110101101111101 $
#73
b1101010001110011110101101111011011010100011100111101011011111000110101000111001111010110111110101101010001110011110101101111110 $
#74
b1101010001110011110101101111100011010100011100111101011011111010110101000111001111010110111111001101010001110011110101101111111 $
#75
b1101010001110011110101101111101011010100011100111101011011111100110101000111001111010110111111101101010001110011110101110000000 $
#76
b1101010001110011110101101111110011010100011100111101011011111110110101000111001111010111000000001101010001110011110101110000001 $
#77
b1101010001110011110101101111111011010100011100111101011100000000110101000111001111010111000000101101010001110011110101110000010 $
#78
b1101010001110011110101110000000011010100011100111101011100000010110101000111001111010111000001001101010001110011110101110000011 $
#79
b1101010001110011110101110000001011010100011100111101011100000100110101000111001111010111000001101101010001110011110101110000100 $
#80
b1101010001110011110101110000010011010100011100111101011100000110110101000111001111010111000010001101010001110011110101110000101 $
#81
b1101010001110011110101110000011011010100011100111101011100001000110101000111001111010111000010101101010001110011110101110000110 $
#82
b1101010001110011110101110000100011010100011100111101011100001010110101000111001111010111000011001101010001110011110101110000111 $
#83
b1101010001110011110101110000101011010100011100111101011100001100110101000111001111010111000011101101010001110011110101110001000 $
#84
0"
b1101010001110011110101110000110011010100011100111101011100001110110101000111001111010111000100001101010001110011110101110001001 $
#85
b1101010001110011110101110000111011010100011100111101011100010000110101000111001111010111000100101101010001110011110101110001010 $
#86
b1101010001110011110101110001000011010100011100111101011100010010110101000111001111010111000101001101010001110011110101110001011 $
#87
b1101010001110011110101110001001011010100011100111101011100010100110101000111001111010111000101101101010001110011110101110001100 $
#88
b1101010001110011110101110001010011010100011100111101011100010110110101000111001111010111000110001101010001110011110101110001101 $
#89
b1101010001110011110101110001011011010100011100111101011100011000110101000111001111010111000110101101010001110011110101110001110 $
#90
b1101010001110011110101110001100011010100011100111101011100011010110101000111001111010111000111001101010001110011110101110001111 $
#91
b1101010001110011110101110001101011010100011100111101011100011100110101000111001111010111000111101101010001110011110101110010000 $
#92
b1101010001110011110101110001110011010100011100111101011100011110110101000111001111010111001000001101010001110011110101110010001 $
#93
b1101010001110011110101110001111011010100011100111101011100100000110101000111001111010111001000101101010001110011110101110010010 $
#94
b1101010001110011110101110010000011010100011100111101011100100010110101000111001111010111001001001101010001110011110101110010011 $
#95
b1101010001110011110101110010001011010100011100111101011100100100110101000111001111010111001001101101010001110011110101110010100 $
#96
b1101010001110011110101110010010011010100011100111101011100100110110101000111001111010111001010001101010001110011110101110010101 $
#97
b1101010001110011110101110010011011010100011100111101011100101000110101000111001111010111001010101101010001110011110101110010110 $
#98
b1101010001110011110101110010100011010100011100111101011100101010110101000111001111010111001011001101010001110011110101110010111 $
#99
b1101010001110011110101110010101011010100011100111101011100101100110101000111001111010111001011101101010001110011110101110011000 $
#100
1"
b1101010001110011110101110010110011010100011100111101011100101110110101000111001111010111001100001101010001110011110101110011001 $
1n#
#101
b1101010001110011110101110010111011010100011100111101011100110000110101000111001111010111001100101101010001110011110101110011010 $
#102
b1101010001110011110101110011000011010100011100111101011100110010110101000111001111010111001101001101010001110011110101110011011 $
#103
b1101010001110011110101110011001011010100011100111101011100110100110101000111001111010111001101101101010001110011110101110011100 $
#104
b1101010001110011110101110011010011010100011100111101011100110110110101000111001111010111001110001101010001110011110101110011101 $
#105
b1101010001110011110101110011011011010100011100111101011100111000110101000111001111010111001110101101010001110011110101110011110 $
#106
b1101010001110011110101110011100011010100011100111101011100111010110101000111001111010111001111001101010001110011110101110011111 $
#107
b1101010001110011110101110011101011010100011100111101011100111100110101000111001111010111001111101101010001110011110101110100000 $
#108
b1101010001110011110101110011110011010100011100111101011100111110110101000111001111010111010000001101010001110011110101110100001 $
#109
b1101010001110011110101110011111011010100011100111101011101000000110101000111001111010111010000101101010001110011110101110100010 $
#110
b1101010001110011110101110100000011010100011100111101011101000010110101000111001111010111010001001101010001110011110101110100011 $
#111
b1101010001110011110101110100001011010100011100111101011101000100110101000111001111010111010001101101010001110011110101110100100 $
#112
b1101010001110011110101110100010011010100011100111101011101000110110101000111001111010111010010001101010001110011110101110100101 $
#113
b1101010001110011110101110100011011010100011100111101011101001000110101000111001111010111010010101101010001110011110101110100110 $
#114
b1101010001110011110101110100100011010100011100111101011101001010110101000111001111010111010011001101010001110011110101110100111 $
#115
b1101010001110011110101110100101011010100011100111101011101001100110101000111001111010111010011101101010001110011110101110101000 $
#116
0"
b1101010001110011110101110100110011010100011100111101011101001110110101000111001111010111010100001101010001110011110101110101001 $
#117
b1101010001110011110101110100111011010100011100111101011101010000110101000111001111010111010100101101010001110011110101110101010 $
#118
b1101010001110011110101110101000011010100011100111101011101010010110101000111001111010111010101001101010001110011110101110101011 $
#119
b1101010001110011110101110101001011010100011100111101011101010100110101000111001111010111010101101101010001110011110101110101100 $
#120
b1101010001110011110101110101010011010100011100111101011101010110110101000111001111010111010110001101010001110011110101110101101 $
#121
b1101010001110011110101110101011011010100011100111101011101011000110101000111001111010111010110101101010001110011110101110101110 $
#122
b1101010001110011110101110101100011010100011100111101011101011010110101000111001111010111010111001101010001110011110101110101111 $
#123
b1101010001110011110101110101101011010100011100111101011101011100110101000111001111010111010111101101010001110011110101110110000 $
#124
b1101010001110011110101110101110011010100011100111101011101011110110101000111001111010111011000001101010001110011110101110110001 $
#125
b1101010001110011110101110101111011010100011100111101011101100000110101000111001111010111011000101101010001110011110101110110010 $
#126
b1101010001110011110101110110000011010100011100111101011101100010110101000111001111010111011001001101010001110011110101110110011 $
#127
b1101010001110011110101110110001011010100011100111101011101100100110101000111001111010111011001101101010001110011110101110110100 $
#128
b1101010001110011110101110110010011010100011100111101011101100110110101000111001111010111011010001101010001110011110101110110101 $
#129
b1101010001110011110101110110011011010100011100111101011101101000110101000111001111010111011010101101010001110011110101110110110 $
#130
b1101010001110011110101110110100011010100011100111101011101101010110101000111001111010111011011001101010001110011110101110110111 $
#131
b1101010001110011110101110110101011010100011100111101011101101100110101000111001111010111011011101101010001110011110101110111000 $
#132
1"
b1101010001110011110101110110110011010100011100111101011101101110110101000111001111010111011100001101010001110011110101110111001 $
#133
b1101010001110011110101110110111011010100011100111101011101110000110101000111001111010111011100101101010001110011110101110111010 $
#134
b1101010001110011110101110111000011010100011100111101011101110010110101000111001111010111011101001101010001110011110101110111011 $
#135
b1101010001110011110101110111001011010100011100111101011101110100110101000111001111010111011101101101010001110011110101110111100 $
#136
b1101010001110011110101110111010011010100011100111101011101110110110101000111001111010111011110001101010001110011110101110111101 $
#137
b1101010001110011110101110111011011010100011100111101011101111000110101000111001111010111011110101101010001110011110101110111110 $
#138
b1101010001110011110101110111100011010100011100111101011101111010110101000111001111010111011111001101010001110011110101110111111 $
#139
b1101010001110011110101110111101011010100011100111101011101111100110101000111001111010111011111101101010001110011110101111000000 $
#140
b1101010001110011110101110111110011010100011100111101011101111110110101000111001111010111100000001101010001110011110101111000001 $
#141
b1101010001110011110101110111111011010100011100111101011110000000110101000111001111010111100000101101010001110011110101111000010 $
#142
b1101010001110011110101111000000011010100011100111101011110000010110101000111001111010111100001001101010001110011110101111000011 $
#143
b1101010001110011110101111000001011010100011100111101011110000100110101000111001111010111100001101101010001110011110101111000100 $
#144
b1101010001110011110101111000010011010100011100111101011110000110110101000111001111010111100010001101010001110011110101111000101 $
#145
b1101010001110011110101111000011011010100011100111101011110001000110101000111001111010111100010101101010001110011110101111000110 $
#146
b1101010001110011110101111000100011010100011100111101011110001010110101000111001111010111100011001101010001110011110101111000111 $
#147
b1101010001110011110101111000101011010100011100111101011110001100110101000111001111010111100011101101010001110011110101111001000 $
#148
0"
b1101010001110011110101111000110011010100011100111101011110001110110101000111001111010111100100001101010001110011110101111001001 $
#149
b1101010001110011110101111000111011010100011100111101011110010000110101000111001111010111100100101101010001110011110101111001010 $
#150
b1101010001110011110101111001000011010100011100111101011110010010110101000111001111010111100101001101010001110011110101111001011 $
#151
b1101010001110011110101111001001011010100011100111101011110010100110101000111001111010111100101101101010001110011110101111001100 $
#152
b1101010001110011110101111001010011010100011100111101011110010110110101000111001111010111100110001101010001110011110101111001101 $
#153
b1101010001110011110101111001011011010100011100111101011110011000110101000111001111010111100110101101010001110011110101111001110 $
#154
b1101010001110011110101111001100011010100011100111101011110011010110101000111001111010111100111001101010001110011110101111001111 $
#155
b1101010001110011110101111001101011010100011100111101011110011100110101000111001111010111100111101101010001110011110101111010000 $
#156
b1101010001110011110101111001110011010100011100111101011110011110110101000111001111010111101000001101010001110011110101111010001 $
#157
b1101010001110011110101111001111011010100011100111101011110100000110101000111001111010111101000101101010001110011110101111010010 $
#158
b1101010001110011110101111010000011010100011100111101011110100010110101000111001111010111101001001101010001110011110101111010011 $
#159
b1101010001110011110101111010001011010100011100111101011110100100110101000111001111010111101001101101010001110011110101111010100 $
#160
b1101010001110011110101111010010011010100011100111101011110100110110101000111001111010111101010001101010001110011110101111010101 $
#161
b1101010001110011110101111010011011010100011100111101011110101000110101000111001111010111101010101101010001110011110101111010110 $
#162
b1101010001110011110101111010100011010100011100111101011110101010110101000111001111010111101011001101010001110011110101111010111 $
#163
b1101010001110011110101111010101011010100011100111101011110101100110101000111001111010111101011101101010001110011110101111011000 $
#164
1"
b1101010001110011110101111010110011010100011100111101011110101110110101000111001111010111101100001101010001110011110101111011001 $
#165
b1101010001110011110101111010111011010100011100111101011110110000110101000111001111010111101100101101010001110011110101111011010 $
#166
b1101010001110011110101111011000011010100011100111101011110110010110101000111001111010111101101001101010001110011110101111011011 $
#167
b1101010001110011110101111011001011010100011100111101011110110100110101000111001111010111101101101101010001110011110101111011100 $
#168
b1101010001110011110101111011010011010100011100111101011110110110110101000111001111010111101110001101010001110011110101111011101 $
#169
b1101010001110011110101111011011011010100011100111101011110111000110101000111001111010111101110101101010001110011110101111011110 $
#170
b1101010001110011110101111011100011010100011100111101011110111010110101000111001111010111101111001101010001110011110101111011111 $
#171
b1101010001110011110101111011101011010100011100111101011110111100110101000111001111010111101111101101010001110011110101111100000 $
#172
b1101010001110011110101111011110011010100011100111101011110111110110101000111001111010111110000001101010001110011110101111100001 $
#173
b1101010001110011110101111011111011010100011100111101011111000000110101000111001111010111110000101101010001110011110101111100010 $
#174
b1101010001110011110101111100000011010100011100111101011111000010110101000111001111010111110001001101010001110011110101111100011 $
#175
b1101010001110011110101111100001011010100011100111101011111000100110101000111001111010111110001101101010001110011110101111100100 $
#176
b1101010001110011110101111100010011010100011100111101011111000110110101000111001111010111110010001101010001110011110101111100101 $
#177
b1101010001110011110101111100011011010100011100111101011111001000110101000111001111010111110010101101010001110011110101111100110 $
#178
b1101010001110011110101111100100011010100011100111101011111001010110101000111001111010111110011001101010001110011110101111100111 $
#179
b1101010001110011110101111100101011010100011100111101011111001100110101000111001111010111110011101101010001110011110101111101000 $
#180
0"
b1101010001110011110101111100110011010100011100111101011111001110110101000111001111010111110100001101010001110011110101111101001 $
#181
b1101010001110011110101111100111011010100011100111101011111010000110101000111001111010111110100101101010001110011110101111101010 $
#182
b1101010001110011110101111101000011010100011100111101011111010010110101000111001111010111110101001101010001110011110101111101011 $
#183
b1101010001110011110101111101001011010100011100111101011111010100110101000111001111010111110101101101010001110011110101111101100 $
#184
b1101010001110011110101111101010011010100011100111101011111010110110101000111001111010111110110001101010001110011110101111101101 $
#185
b1101010001110011110101111101011011010100011100111101011111011000110101000111001111010111110110101101010001110011110101111101110 $
#186
b1101010001110011110101111101100011010100011100111101011111011010110101000111001111010111110111001101010001110011110101111101111 $
#187
b1101010001110011110101111101101011010100011100111101011111011100110101000111001111010111110111101101010001110011110101111110000 $
#188
b1101010001110011110101111101110011010100011100111101011111011110110101000111001111010111111000001101010001110011110101111110001 $
#189
b1101010001110011110101111101111011010100011100111101011111100000110101000111001111010111111000101101010001110011110101111110010 $
#190
b1101010001110011110101111110000011010100011100111101011111100010110101000111001111010111111001001101010001110011110101111110011 $
#191
b1101010001110011110101111110001011010100011100111101011111100100110101000111001111010111111001101101010001110011110101111110100 $
#192
b1101010001110011110101111110010011010100011100111101011111100110110101000111001111010111111010001101010001110011110101111110101 $
#193
b1101010001110011110101111110011011010100011100111101011111101000110101000111001111010111111010101101010001110011110101111110110 $
#194
b1101010001110011110101111110100011010100011100111101011111101010110101000111001111010111111011001101010001110011110101111110111 $
#195
b1101010001110011110101111110101011010100011100111101011111101100110101000111001111010111111011101101010001110011110101111111000 $
#196
1"
b1101010001110011110101111110110011010100011100111101011111101110110101000111001111010111111100001101010001110011110101111111001 $
#197
b1101010001110011110101111110111011010100011100111101011111110000110101000111001111010111111100101101010001110011110101111111010 $
#198
b1101010001110011110101111111000011010100011100111101011111110010110101000111001111010111111101001101010001110011110101111111011 $
#199
b1101010001110011110101111111001011010100011100111101011111110100110101000111001111010111111101101101010001110011110101111111100 $
#200
b1101010001110011110101111111010011010100011100111101011111110110110101000111001111010111111110001101010001110011110101111111101 $
#201
b1101010001110011110101111111011011010100011100111101011111111000110101000111001111010111111110101101010001110011110101111111110 $
#202
b1101010001110011110101111111100011010100011100111101011111111010110101000111001111010111111111001101010001110011110101111111111 $
#203
b1101010001110011110101111111101011010100011100111101011111111100110101000111001111010111111111101101010001110011110110000000000 $
#204
b1101010001110011110101111111110011010100011100111101011111111110110101000111001111011000000000001101010001110011110110000000001 $
#205
b1101010001110011110101111111111011010100011100111101100000000000110101000111001111011000000000101101010001110011110110000000010 $
#206
b1101010001110011110110000000000011010100011100111101100000000010110101000111001111011000000001001101010001110011110110000000011 $
#207
b1101010001110011110110000000001011010100011100111101100000000100110101000111001111011000000001101101010001110011110110000000100 $
#208
b1101010001110011110110000000010011010100011100111101100000000110110101000111001111011000000010001101010001110011110110000000101 $
#209
b1101010001110011110110000000011011010100011100111101100000001000110101000111001111011000000010101101010001110011110110000000110 $
#210
b1101010001110011110110000000100011010100011100111101100000001010110101000111001111011000000011001101010001110011110110000000111 $
#211
b1101010001110011110110000000101011010100011100111101100000001100110101000111001111011000000011101101010001110011110110000001000 $
#212
0"
b1101010001110011110110000000110011010100011100111101100000001110110101000111001111011000000100001101010001110011110110000001001 $
#213
b1101010001110011110110000000111011010100011100111101100000010000110101000111001111011000000100101101010001110011110110000001010 $
#214
b1101010001110011110110000001000011010100011100111101100000010010110101000111001111011000000101001101010001110011110110000001011 $
#215
b1101010001110011110110000001001011010100011100111101100000010100110101000111001111011000000101101101010001110011110110000001100 $
#216
b1101010001110011110110000001010011010100011100111101100000010110110101000111001111011000000110001101010001110011110110000001101 $
#217
b1101010001110011110110000001011011010100011100111101100000011000110101000111001111011000000110101101010001110011110110000001110 $
#218
b1101010001110011110110000001100011010100011100111101100000011010110101000111001111011000000111001101010001110011110110000001111 $
#219
b1101010001110011110110000001101011010100011100111101100000011100110101000111001111011000000111101101010001110011110110000010000 $
#220
b1101010001110011110110000001110011010100011100111101100000011110110101000111001111011000001000001101010001110011110110000010001 $
#221
b1101010001110011110110000001111011010100011100111101100000100000110101000111001111011000001000101101010001110011110110000010010 $
#222
b1101010001110011110110000010000011010100011100111101100000100010110101000111001111011000001001001101010001110011110110000010011 $
#223
b1101010001110011110110000010001011010100011100111101100000100100110101000111001111011000001001101101010001110011110110000010100 $
#224
b1101010001110011110110000010010011010100011100111101100000100110110101000111001111011000001010001101010001110011110110000010101 $
#225
b1101010001110011110110000010011011010100011100111101100000101000110101000111001111011000001010101101010001110011110110000010110 $
#226
b1101010001110011110110000010100011010100011100111101100000101010110101000111001111011000001011001101010001110011110110000010111 $
#227
b1101010001110011110110000010101011010100011100111101100000101100110101000111001111011000001011101101010001110011110110000011000 $
#228
1"
b1101010001110011110110000010110011010100011100111101100000101110110101000111001111011000001100001101010001110011110110000011001 $
#229
b1101010001110011110110000010111011010100011100111101100000110000110101000111001111011000001100101101010001110011110110000011010 $
#230
b1101010001110011110110000011000011010100011100111101100000110010110101000111001111011000001101001101010001110011110110000011011 $
#231
b1101010001110011110110000011001011010100011100111101100000110100110101000111001111011000001101101101010001110011110110000011100 $
#232
b1101010001110011110110000011010011010100011100111101100000110110110101000111001111011000001110001101010001110011110110000011101 $
#233
b1101010001110011110110000011011011010100011100111101100000111000110101000111001111011000001110101101010001110011110110000011110 $
#234
b1101010001110011110110000011100011010100011100111101100000111010110101000111001111011000001111001101010001110011110110000011111 $
#235
b1101010001110011110110000011101011010100011100111101100000111100110101000111001111011000001111101101010001110011110110000100000 $
#236
b1101010001110011110110000011110011010100011100111101100000111110110101000111001111011000010000001101010001110011110110000100001 $
#237
b1101010001110011110110000011111011010100011100111101100001000000110101000111001111011000010000101101010001110011110110000100010 $
#238
b1101010001110011110110000100000011010100011100111101100001000010110101000111001111011000010001001101010001110011110110000100011 $
#239
b1101010001110011110110000100001011010100011100111101100001000100110101000111001111011000010001101101010001110011110110000100100 $
#240
b1101010001110011110110000100010011010100011100111101100001000110110101000111001111011000010010001101010001110011110110000100101 $
#241
b1101010001110011110110000100011011010100011100111101100001001000110101000111001111011000010010101101010001110011110110000100110 $
#242
b1101010001110011110110000100100011010100011100111101100001001010110101000111001111011000010011001101010001110011110110000100111 $
#243
b1101010001110011110110000100101011010100011100111101100001001100110101000111001111011000010011101101010001110011110110000101000 $
#244
0"
b1101010001110011110110000100110011010100011100111101100001001110110101000111001111011000010100001101010001110011110110000101001 $
#245
b1101010001110011110110000100111011010100011100111101100001010000110101000111001111011000010100101101010001110011110110000101010 $
#246
b1101010001110011110110000101000011010100011100111101100001010010110101000111001111011000010101001101010001110011110110000101011 $
#247
b1101010001110011110110000101001011010100011100111101100001010100110101000111001111011000010101101101010001110011110110000101100 $
#248
b1101010001110011110110000101010011010100011100111101100001010110110101000111001111011000010110001101010001110011110110000101101 $
#249
b1101010001110011110110000101011011010100011100111101100001011000110101000111001111011000010110101101010001110011110110000101110 $
#250
b1101010001110011110110000101100011010100011100111101100001011010110101000111001111011000010111001101010001110011110110000101111 $
#251
b1101010001110011110110000101101011010100011100111101100001011100110101000111001111011000010111101101010001110011110110000110000 $
#252
b1101010001110011110110000101110011010100011100111101100001011110110101000111001111011000011000001101010001110011110110000110001 $
#253
b1101010001110011110110000101111011010100011100111101100001100000110101000111001111011000011000101101010001110011110110000110010 $
#254
b1101010001110011110110000110000011010100011100111101100001100010110101000111001111011000011001001101010001110011110110000110011 $
#255
b1101010001110011110110000110001011010100011100111101100001100100110101000111001111011000011001101101010001110011110110000110100 $
#256
b1101010001110011110110000110010011010100011100111101100001100110110101000111001111011000011010001101010001110011110110000110101 $
#257
b1101010001110011110110000110011011010100011100111101100001101000110101000111001111011000011010101101010001110011110110000110110 $
#258
b1101010001110011110110000110100011010100011100111101100001101010110101000111001111011000011011001101010001110011110110000110111 $
#259
b1101010001110011110110000110101011010100011100111101100001101100110101000111001111011000011011101101010001110011110110000111000 $
#260
1"
b1101010001110011110110000110110011010100011100111101100001101110110101000111001111011000011100001101010001110011110110000111001 $
#261
b1101010001110011110110000110111011010100011100111101100001110000110101000111001111011000011100101101010001110011110110000111010 $
#262
b1101010001110011110110000111000011010100011100111101100001110010110101000111001111011000011101001101010001110011110110000111011 $
#263
b1101010001110011110110000111001011010100011100111101100001110100110101000111001111011000011101101101010001110011110110000111100 $
#264
b1101010001110011110110000111010011010100011100111101100001110110110101000111001111011000011110001101010001110011110110000111101 $
#265
b1101010001110011110110000111011011010100011100111101100001111000110101000111001111011000011110101101010001110011110110000111110 $
#266
b1101010001110011110110000111100011010100011100111101100001111010110101000111001111011000011111001101010001110011110110000111111 $
#267
b1101010001110011110110000111101011010100011100111101100001111100110101000111001111011000011111101101010001110011110110001000000 $
#268
b1101010001110011110110000111110011010100011100111101100001111110110101000111001111011000100000001101010001110011110110001000001 $
#269
b1101010001110011110110000111111011010100011100111101100010000000110101000111001111011000100000101101010001110011110110001000010 $
#270
b1101010001110011110110001000000011010100011100111101100010000010110101000111001111011000100001001101010001110011110110001000011 $
#271
b1101010001110011110110001000001011010100011100111101100010000100110101000111001111011000100001101101010001110011110110001000100 $
#272
b1101010001110011110110001000010011010100011100111101100010000110110101000111001111011000100010001101010001110011110110001000101 $
#273
b1101010001110011110110001000011011010100011100111101100010001000110101000111001111011000100010101101010001110011110110001000110 $
#274
b1101010001110011110110001000100011010100011100111101100010001010110101000111001111011000100011001101010001110011110110001000111 $
#275
b1101010001110011110110001000101011010100011100111101100010001100110101000111001111011000100011101101010001110011110110001001000 $
#276
0"
b1101010001110011110110001000110011010100011100111101100010001110110101000111001111011000100100001101010001110011110110001001001 $
#277
b1101010001110011110110001000111011010100011100111101100010010000110101000111001111011000100100101101010001110011110110001001010 $
#278
b1101010001110011110110001001000011010100011100111101100010010010110101000111001111011000100101001101010001110011110110001001011 $
#279
b1101010001110011110110001001001011010100011100111101100010010100110101000111001111011000100101101101010001110011110110001001100 $
#280
b1101010001110011110110001001010011010100011100111101100010010110110101000111001111011000100110001101010001110011110110001001101 $
#281
b1101010001110011110110001001011011010100011100111101100010011000110101000111001111011000100110101101010001110011110110001001110 $
#282
b1101010001110011110110001001100011010100011100111101100010011010110101000111001111011000100111001101010001110011110110001001111 $
#283
b1101010001110011110110001001101011010100011100111101100010011100110101000111001111011000100111101101010001110011110110001010000 $
#284
b1101010001110011110110001001110011010100011100111101100010011110110101000111001111011000101000001101010001110011110110001010001 $
#285
b1101010001110011110110001001111011010100011100111101100010100000110101000111001111011000101000101101010001110011110110001010010 $
#286
b1101010001110011110110001010000011010100011100111101100010100010110101000111001111011000101001001101010001110011110110001010011 $
#287
b1101010001110011110110001010001011010100011100111101100010100100110101000111001111011000101001101101010001110011110110001010100 $
#288
b1101010001110011110110001010010011010100011100111101100010100110110101000111001111011000101010001101010001110011110110001010101 $
#289
b1101010001110011110110001010011011010100011100111101100010101000110101000111001111011000101010101101010001110011110110001010110 $
