.Xil/Vivado-45516-llc/hw_ila_data_1/zip_work/waveform.vcd
$date
        2025-Sep-13 15:09:21
$end
$version
        Vivado v2022.2 (64-bit)
$end
$timescale
        1ps
$end
$scope module dut $end
$var reg 256 " top_jesd204_inst/rx_data [255:0] $end
$var reg 1 f# top_jesd204_inst/rx_valid $end
$var reg 1 g# top_jesd204_inst/sys_rst_n $end
$var reg 1 h# top_jesd204_inst/rx_sync_0 $end
$var reg 1 i# top_jesd204_inst/sysref $end
$var reg 1 j# top_jesd204_inst/rst_204 $end
$var reg 1 k# _TRIGGER $end
$var reg 1 l# _WINDOW $end
$var reg 1 m# _GAP $end
$upscope $end
$enddefinitions $end
#0
$dumpvars
b1111000111110010110111010111001000001111111110000011111111000000111110000000011100011111111101001111000111110010110111010111001001100000011100111111101010001001110111010111001001001111101010101101110101110010010011111010101011000011100000111101111001110010 "
1f#
0g#
1h#
0i#
0j#
0k#
1l#
0m#
$end
#1
b1111001011110010110111100111001000010000111110000100000011000000111110010000011100100000111101001111001011110010110111100111001001100001011100111111101110001001110111100111001001010000101010101101111001110010010100001010101011000100100000111101111101110010 "
#2
b1111001111110010110111110111001000010001111110000100000111000000111110100000011100100001111101001111001111110010110111110111001001100010011100111111110010001001110111110111001001010001101010101101111101110010010100011010101011000101100000111110000001110010 "
#3
b1111010011110010111000000111001000010010111110000100001011000000111110110000011100100010111101001111010011110010111000000111001001100011011100111111110110001001111000000111001001010010101010101110000001110010010100101010101011000110100000111110000101110010 "
#4
b1111010111110010111000010111001000010011111110000100001111000000111111000000011100100011111101001111010111110010111000010111001001100100011100111111111010001001111000010111001001010011101010101110000101110010010100111010101011000111100000111110001001110010 "
#5
b1111011011110010111000100111001000010100111110000100010011000000111111010000011100100100111101001111011011110010111000100111001001100101011100111111111110001001111000100111001001010100101010101110001001110010010101001010101011001000100000111110001101110010 "
#6
b1111011111110010111000110111001000010101111110000100010111000000111111100000011100100101111101001111011111110010111000110111001001100110011100110000000010001010111000110111001001010101101010101110001101110010010101011010101011001001100000111110010001110010 "
#7
b1111100011110010111001000111001000010110111110000100011011000000111111110000011100100110111101001111100011110010111001000111001001100111011100110000000110001010111001000111001001010110101010101110010001110010010101101010101011001010100000111110010101110010 "
1i#
#8
b1111100111110010111001010111001000010111111110000100011111000000000000000000100000100111111101001111100111110010111001010111001001101000011100110000001010001010111001010111001001010111101010101110010101110010010101111010101011001011100000111110011001110010 "
#9
b1111101011110010111001100111001000011000111110000100100011000000000000010000100000101000111101001111101011110010111001100111001001101001011100110000001110001010111001100111001001011000101010101110011001110010010110001010101011001100100000111110011101110010 "
#10
b1111101111110010111001110111001000011001111110000100100111000000000000100000100000101001111101001111101111110010111001110111001001101010011100110000010010001010111001110111001001011001101010101110011101110010010110011010101011001101100000111110100001110010 "
#11
b1111110011110010111010000111001000011010111110000100101011000000000000110000100000101010111101001111110011110010111010000111001001101011011100110000010110001010111010000111001001011010101010101110100001110010010110101010101011001110100000111110100101110010 "
#12
b1111110111110010111010010111001000011011111110000100101111000000000001000000100000101011111101001111110111110010111010010111001001101100011100110000011010001010111010010111001001011011101010101110100101110010010110111010101011001111100000111110101001110010 "
#13
b1111111011110010111010100111001000011100111110000100110011000000000001010000100000101100111101001111111011110010111010100111001001101101011100110000011110001010111010100111001001011100101010101110101001110010010111001010101011010000100000111110101101110010 "
#14
b1111111111110010111010110111001000011101111110000100110111000000000001100000100000101101111101001111111111110010111010110111001001101110011100110000100010001010111010110111001001011101101010101110101101110010010111011010101011010001100000111110110001110010 "
#15
b11110011111011000111001000011110111110000100111011000000000001110000100000101110111101000000000011110011111011000111001001101111011100110000100110001010111011000111001001011110101010101110110001110010010111101010101011010010100000111110110101110010 "
#16
b111110011111011010111001000011111111110000100111111000000000010000000100000101111111101000000000111110011111011010111001001110000011100110000101010001010111011010111001001011111101010101110110101110010010111111010101011010011100000111110111001110010 "
#17
b1011110011111011100111001000100000111110000101000011000000000010010000100000110000111101000000001011110011111011100111001001110001011100110000101110001010111011100111001001100000101010101110111001110010011000001010101011010100100000111110111101110010 "
#18
b1111110011111011110111001000100001111110000101000111000000000010100000100000110001111101000000001111110011111011110111001001110010011100110000110010001010111011110111001001100001101010101110111101110010011000011010101011010101100000111111000001110010 "
#19
b10011110011111100000111001000100010111110000101001011000000000010110000100000110010111101000000010011110011111100000111001001110011011100110000110110001010111100000111001001100010101010101111000001110010011000101010101011010110100000111111000101110010 "
#20
b10111110011111100010111001000100011111110000101001111000000000011000000100000110011111101000000010111110011111100010111001001110100011100110000111010001010111100010111001001100011101010101111000101110010011000111010101011010111100000111111001001110010 "
#21
b11011110011111100100111001000100100111110000101010011000000000011010000100000110100111101000000011011110011111100100111001001110101011100110000111110001010111100100111001001100100101010101111001001110010011001001010101011011000100000111111001101110010 "
#22
b11111110011111100110111001000100101111110000101010111000000000011100000100000110101111101000000011111110011111100110111001001110110011100110001000010001010111100110111001001100101101010101111001101110010011001011010101011011001100000111111010001110010 "
#23
b100011110011111101000111001000100110111110000101011011000000000011110000100000110110111101000000100011110011111101000111001001110111011100110001000110001010111101000111001001100110101010101111010001110010011001101010101011011010100000111111010101110010 "
#24
b100111110011111101010111001000100111111110000101011111000000000100000000100000110111111101000000100111110011111101010111001001111000011100110001001010001010111101010111001001100111101010101111010101110010011001111010101011011011100000111111011001110010 "
#25
b101011110011111101100111001000101000111110000101100011000000000100010000100000111000111101000000101011110011111101100111001001111001011100110001001110001010111101100111001001101000101010101111011001110010011010001010101011011100100000111111011101110010 "
#26
b101111110011111101110111001000101001111110000101100111000000000100100000100000111001111101000000101111110011111101110111001001111010011100110001010010001010111101110111001001101001101010101111011101110010011010011010101011011101100000111111100001110010 "
#27
b110011110011111110000111001000101010111110000101101011000000000100110000100000111010111101000000110011110011111110000111001001111011011100110001010110001010111110000111001001101010101010101111100001110010011010101010101011011110100000111111100101110010 "
#28
b110111110011111110010111001000101011111110000101101111000000000101000000100000111011111101000000110111110011111110010111001001111100011100110001011010001010111110010111001001101011101010101111100101110010011010111010101011011111100000111111101001110010 "
#29
b111011110011111110100111001000101100111110000101110011000000000101010000100000111100111101000000111011110011111110100111001001111101011100110001011110001010111110100111001001101100101010101111101001110010011011001010101011100000100000111111101101110010 "
#30
b111111110011111110110111001000101101111110000101110111000000000101100000100000111101111101000000111111110011111110110111001001111110011100110001100010001010111110110111001001101101101010101111101101110010011011011010101011100001100000111111110001110010 "
#31
b1000011110011111111000111001000101110111110000101111011000000000101110000100000111110111101000001000011110011111111000111001001111111011100110001100110001010111111000111001001101110101010101111110001110010011011101010101011100010100000111111110101110010 "
0i#
#32
b1000111110011111111010111001000101111111110000101111111000000000110000000100000111111111101000001000111110011111111010111001010000000011100110001101010001010111111010111001001101111101010101111110101110010011011111010101011100011100000111111111001110010 "
#33
b1001011110011111111100111001000110000111110000110000011000000000110010000100001000000111101000001001011110011111111100111001010000001011100110001101110001010111111100111001001110000101010101111111001110010011100001010101011100100100000111111111101110010 "
#34
b1001111110011111111110111001000110001111110000110000111000000000110100000100001000001111101000001001111110011111111110111001010000010011100110001110010001010111111110111001001110001101010101111111101110010011100011010101011100101100000110000000001110011 "
#35
b1010011110011000000000111001100110010111110000110001011000000000110110000100001000010111101000001010011110011000000000111001110000011011100110001110110001010000000000111001101110010101010100000000001110011011100101010101011100110100000110000000101110011 "
#36
b1010111110011000000010111001100110011111110000110001111000000000111000000100001000011111101000001010111110011000000010111001110000100011100110001111010001010000000010111001101110011101010100000000101110011011100111010101011100111100000110000001001110011 "
#37
b1011011110011000000100111001100110100111110000110010011000000000111010000100001000100111101000001011011110011000000100111001110000101011100110001111110001010000000100111001101110100101010100000001001110011011101001010101011101000100000110000001101110011 "
#38
b1011111110011000000110111001100110101111110000110010111000000000111100000100001000101111101000001011111110011000000110111001110000110011100110010000010001010000000110111001101110101101010100000001101110011011101011010101011101001100000110000010001110011 "
#39
b1100011110011000001000111001100110110111110000110011011000000000111110000100001000110111101000001100011110011000001000111001110000111011100110010000110001010000001000111001101110110101010100000010001110011011101101010101011101010100000110000010101110011 "
#40
b1100111110011000001010111001100110111111110000110011111000000001000000000100001000111111101000001100111110011000001010111001110001000011100110010001010001010000001010111001101110111101010100000010101110011011101111010101011101011100000110000011001110011 "
#41
b1101011110011000001100111001100111000111110000110100011000000001000010000100001001000111101000001101011110011000001100111001110001001011100110010001110001010000001100111001101111000101010100000011001110011011110001010101011101100100000110000011101110011 "
#42
b1101111110011000001110111001100111001111110000110100111000000001000100000100001001001111101000001101111110011000001110111001110001010011100110010010010001010000001110111001101111001101010100000011101110011011110011010101011101101100000110000100001110011 "
#43
b1110011110011000010000111001100111010111110000110101011000000001000110000100001001010111101000001110011110011000010000111001110001011011100110010010110001010000010000111001101111010101010100000100001110011011110101010101011101110100000110000100101110011 "
#44
b1110111110011000010010111001100111011111110000110101111000000001001000000100001001011111101000001110111110011000010010111001110001100011100110010011010001010000010010111001101111011101010100000100101110011011110111010101011101111100000110000101001110011 "
#45
b1111011110011000010100111001100111100111110000110110011000000001001010000100001001100111101000001111011110011000010100111001110001101011100110010011110001010000010100111001101111100101010100000101001110011011111001010101011110000100000110000101101110011 "
#46
b1111111110011000010110111001100111101111110000110110111000000001001100000100001001101111101000001111111110011000010110111001110001110011100110010100010001010000010110111001101111101101010100000101101110011011111011010101011110001100000110000110001110011 "
#47
b10000011110011000011000111001100111110111110000110111011000000001001110000100001001110111101000010000011110011000011000111001110001111011100110010100110001010000011000111001101111110101010100000110001110011011111101010101011110010100000110000110101110011 "
#48
b10000111110011000011010111001100111111111110000110111111000000001010000000100001001111111101000010000111110011000011010111001110010000011100110010101010001010000011010111001101111111101010100000110101110011011111111010101011110011100000110000111001110011 "
#49
b10001011110011000011100111001101000000111110000111000011000000001010010000100001010000111101000010001011110011000011100111001110010001011100110010101110001010000011100111001110000000101010100000111001110011100000001010101011110100100000110000111101110011 "
#50
b10001111110011000011110111001101000001111110000111000111000000001010100000100001010001111101000010001111110011000011110111001110010010011100110010110010001010000011110111001110000001101010100000111101110011100000011010101011110101100000110001000001110011 "
#51
b10010011110011000100000111001101000010111110000111001011000000001010110000100001010010111101000010010011110011000100000111001110010011011100110010110110001010000100000111001110000010101010100001000001110011100000101010101011110110100000110001000101110011 "
#52
b10010111110011000100010111001101000011111110000111001111000000001011000000100001010011111101000010010111110011000100010111001110010100011100110010111010001010000100010111001110000011101010100001000101110011100000111010101011110111100000110001001001110011 "
#53
b10011011110011000100100111001101000100111110000111010011000000001011010000100001010100111101000010011011110011000100100111001110010101011100110010111110001010000100100111001110000100101010100001001001110011100001001010101011111000100000110001001101110011 "
#54
b10011111110011000100110111001101000101111110000111010111000000001011100000100001010101111101000010011111110011000100110111001110010110011100110011000010001010000100110111001110000101101010100001001101110011100001011010101011111001100000110001010001110011 "
#55
b10100011110011000101000111001101000110111110000111011011000000001011110000100001010110111101000010100011110011000101000111001110010111011100110011000110001010000101000111001110000110101010100001010001110011100001101010101011111010100000110001010101110011 "
1i#
#56
b10100111110011000101010111001101000111111110000111011111000000001100000000100001010111111101000010100111110011000101010111001110011000011100110011001010001010000101010111001110000111101010100001010101110011100001111010101011111011100000110001011001110011 "
#57
b10101011110011000101100111001101001000111110000111100011000000001100010000100001011000111101000010101011110011000101100111001110011001011100110011001110001010000101100111001110001000101010100001011001110011100010001010101011111100100000110001011101110011 "
#58
b10101111110011000101110111001101001001111110000111100111000000001100100000100001011001111101000010101111110011000101110111001110011010011100110011010010001010000101110111001110001001101010100001011101110011100010011010101011111101100000110001100001110011 "
#59
b10110011110011000110000111001101001010111110000111101011000000001100110000100001011010111101000010110011110011000110000111001110011011011100110011010110001010000110000111001110001010101010100001100001110011100010101010101011111110100000110001100101110011 "
#60
b10110111110011000110010111001101001011111110000111101111000000001101000000100001011011111101000010110111110011000110010111001110011100011100110011011010001010000110010111001110001011101010100001100101110011100010111010101011111111100000110001101001110011 "
#61
b10111011110011000110100111001101001100111110000111110011000000001101010000100001011100111101000010111011110011000110100111001110011101011100110011011110001010000110100111001110001100101010100001101001110011100011001010101000000000100001000001101101110011 "
#62
b10111111110011000110110111001101001101111110000111110111000000001101100000100001011101111101000010111111110011000110110111001110011110011100110011100010001010000110110111001110001101101010100001101101110011100011011010101000000001100001000001110001110011 "
#63
b11000011110011000111000111001101001110111110000111111011000000001101110000100001011110111101000011000011110011000111000111001110011111011100110011100110001010000111000111001110001110101010100001110001110011100011101010101000000010100001000001110101110011 "
#64
b11000111110011000111010111001101001111111110000111111111000000001110000000100001011111111101000011000111110011000111010111001110100000011100110011101010001010000111010111001110001111101010100001110101110011100011111010101000000011100001000001111001110011 "
#65
b11001011110011000111100111001101010000111110001000000011000000001110010000100001100000111101000011001011110011000111100111001110100001011100110011101110001010000111100111001110010000101010100001111001110011100100001010101000000100100001000001111101110011 "
#66
b11001111110011000111110111001101010001111110001000000111000000001110100000100001100001111101000011001111110011000111110111001110100010011100110011110010001010000111110111001110010001101010100001111101110011100100011010101000000101100001000010000001110011 "
#67
b11010011110011001000000111001101010010111110001000001011000000001110110000100001100010111101000011010011110011001000000111001110100011011100110011110110001010001000000111001110010010101010100010000001110011100100101010101000000110100001000010000101110011 "
#68
b11010111110011001000010111001101010011111110001000001111000000001111000000100001100011111101000011010111110011001000010111001110100100011100110011111010001010001000010111001110010011101010100010000101110011100100111010101000000111100001000010001001110011 "
#69
b11011011110011001000100111001101010100111110001000010011000000001111010000100001100100111101000011011011110011001000100111001110100101011100110011111110001010001000100111001110010100101010100010001001110011100101001010101000001000100001000010001101110011 "
#70
b11011111110011001000110111001101010101111110001000010111000000001111100000100001100101111101000011011111110011001000110111001110100110011100110100000010001010001000110111001110010101101010100010001101110011100101011010101000001001100001000010010001110011 "
#71
b11100011110011001001000111001101010110111110001000011011000000001111110000100001100110111101000011100011110011001001000111001110100111011100110100000110001010001001000111001110010110101010100010010001110011100101101010101000001010100001000010010101110011 "
#72
b11100111110011001001010111001101010111111110001000011111000000010000000000100001100111111101000011100111110011001001010111001110101000011100110100001010001010001001010111001110010111101010100010010101110011100101111010101000001011100001000010011001110011 "
#73
b11101011110011001001100111001101011000111110001000100011000000010000010000100001101000111101000011101011110011001001100111001110101001011100110100001110001010001001100111001110011000101010100010011001110011100110001010101000001100100001000010011101110011 "
#74
b11101111110011001001110111001101011001111110001000100111000000010000100000100001101001111101000011101111110011001001110111001110101010011100110100010010001010001001110111001110011001101010100010011101110011100110011010101000001101100001000010100001110011 "
#75
b11110011110011001010000111001101011010111110001000101011000000010000110000100001101010111101000011110011110011001010000111001110101011011100110100010110001010001010000111001110011010101010100010100001110011100110101010101000001110100001000010100101110011 "
#76
b11110111110011001010010111001101011011111110001000101111000000010001000000100001101011111101000011110111110011001010010111001110101100011100110100011010001010001010010111001110011011101010100010100101110011100110111010101000001111100001000010101001110011 "
#77
b11111011110011001010100111001101011100111110001000110011000000010001010000100001101100111101000011111011110011001010100111001110101101011100110100011110001010001010100111001110011100101010100010101001110011100111001010101000010000100001000010101101110011 "
#78
b11111111110011001010110111001101011101111110001000110111000000010001100000100001101101111101000011111111110011001010110111001110101110011100110100100010001010001010110111001110011101101010100010101101110011100111011010101000010001100001000010110001110011 "
#79
b100000011110011001011000111001101011110111110001000111011000000010001110000100001101110111101000100000011110011001011000111001110101111011100110100100110001010001011000111001110011110101010100010110001110011100111101010101000010010100001000010110101110011 "
0i#
#80
b100000111110011001011010111001101011111111110001000111111000000010010000000100001101111111101000100000111110011001011010111001110110000011100110100101010001010001011010111001110011111101010100010110101110011100111111010101000010011100001000010111001110011 "
#81
b100001011110011001011100111001101100000111110001001000011000000010010010000100001110000111101000100001011110011001011100111001110110001011100110100101110001010001011100111001110100000101010100010111001110011101000001010101000010100100001000010111101110011 "
#82
b100001111110011001011110111001101100001111110001001000111000000010010100000100001110001111101000100001111110011001011110111001110110010011100110100110010001010001011110111001110100001101010100010111101110011101000011010101000010101100001000011000001110011 "
#83
b100010011110011001100000111001101100010111110001001001011000000010010110000100001110010111101000100010011110011001100000111001110110011011100110100110110001010001100000111001110100010101010100011000001110011101000101010101000010110100001000011000101110011 "
#84
b100010111110011001100010111001101100011111110001001001111000000010011000000100001110011111101000100010111110011001100010111001110110100011100110100111010001010001100010111001110100011101010100011000101110011101000111010101000010111100001000011001001110011 "
#85
b100011011110011001100100111001101100100111110001001010011000000010011010000100001110100111101000100011011110011001100100111001110110101011100110100111110001010001100100111001110100100101010100011001001110011101001001010101000011000100001000011001101110011 "
#86
b100011111110011001100110111001101100101111110001001010111000000010011100000100001110101111101000100011111110011001100110111001110110110011100110101000010001010001100110111001110100101101010100011001101110011101001011010101000011001100001000011010001110011 "
#87
b100100011110011001101000111001101100110111110001001011011000000010011110000100001110110111101000100100011110011001101000111001110110111011100110101000110001010001101000111001110100110101010100011010001110011101001101010101000011010100001000011010101110011 "
#88
b100100111110011001101010111001101100111111110001001011111000000010100000000100001110111111101000100100111110011001101010111001110111000011100110101001010001010001101010111001110100111101010100011010101110011101001111010101000011011100001000011011001110011 "
#89
b100101011110011001101100111001101101000111110001001100011000000010100010000100001111000111101000100101011110011001101100111001110111001011100110101001110001010001101100111001110101000101010100011011001110011101010001010101000011100100001000011011101110011 "
#90
b100101111110011001101110111001101101001111110001001100111000000010100100000100001111001111101000100101111110011001101110111001110111010011100110101010010001010001101110111001110101001101010100011011101110011101010011010101000011101100001000011100001110011 "
#91
b100110011110011001110000111001101101010111110001001101011000000010100110000100001111010111101000100110011110011001110000111001110111011011100110101010110001010001110000111001110101010101010100011100001110011101010101010101000011110100001000011100101110011 "
#92
b100110111110011001110010111001101101011111110001001101111000000010101000000100001111011111101000100110111110011001110010111001110111100011100110101011010001010001110010111001110101011101010100011100101110011101010111010101000011111100001000011101001110011 "
#93
b100111011110011001110100111001101101100111110001001110011000000010101010000100001111100111101000100111011110011001110100111001110111101011100110101011110001010001110100111001110101100101010100011101001110011101011001010101000100000100001000011101101110011 "
#94
b100111111110011001110110111001101101101111110001001110111000000010101100000100001111101111101000100111111110011001110110111001110111110011100110101100010001010001110110111001110101101101010100011101101110011101011011010101000100001100001000011110001110011 "
#95
b101000011110011001111000111001101101110111110001001111011000000010101110000100001111110111101000101000011110011001111000111001110111111011100110101100110001010001111000111001110101110101010100011110001110011101011101010101000100010100001000011110101110011 "
#96
b101000111110011001111010111001101101111111110001001111111000000010110000000100001111111111101000101000111110011001111010111001111000000011100110101101010001010001111010111001110101111101010100011110101110011101011111010101000100011100001000011111001110011 "
#97
b101001011110011001111100111001101110000111110001010000011000000010110010000100010000000111101000101001011110011001111100111001111000001011100110101101110001010001111100111001110110000101010100011111001110011101100001010101000100100100001000011111101110011 "
#98
b101001111110011001111110111001101110001111110001010000111000000010110100000100010000001111101000101001111110011001111110111001111000010011100110101110010001010001111110111001110110001101010100011111101110011101100011010101000100101100001000100000001110011 "
#99
b101010011110011010000000111001101110010111110001010001011000000010110110000100010000010111101000101010011110011010000000111001111000011011100110101110110001010010000000111001110110010101010100100000001110011101100101010101000100110100001000100000101110011 "
#100
b101010111110011010000010111001101110011111110001010001111000000010111000000100010000011111101000101010111110011010000010111001111000100011100110101111010001010010000010111001110110011101010100100000101110011101100111010101000100111100001000100001001110011 "
#101
b101011011110011010000100111001101110100111110001010010011000000010111010000100010000100111101000101011011110011010000100111001111000101011100110101111110001010010000100111001110110100101010100100001001110011101101001010101000101000100001000100001101110011 "
#102
b101011111110011010000110111001101110101111110001010010111000000010111100000100010000101111101000101011111110011010000110111001111000110011100110110000010001010010000110111001110110101101010100100001101110011101101011010101000101001100001000100010001110011 "
#103
b101100011110011010001000111001101110110111110001010011011000000010111110000100010000110111101000101100011110011010001000111001111000111011100110110000110001010010001000111001110110110101010100100010001110011101101101010101000101010100001000100010101110011 "
1i#
#104
b101100111110011010001010111001101110111111110001010011111000000011000000000100010000111111101000101100111110011010001010111001111001000011100110110001010001010010001010111001110110111101010100100010101110011101101111010101000101011100001000100011001110011 "
#105
b101101011110011010001100111001101111000111110001010100011000000011000010000100010001000111101000101101011110011010001100111001111001001011100110110001110001010010001100111001110111000101010100100011001110011101110001010101000101100100001000100011101110011 "
#106
b101101111110011010001110111001101111001111110001010100111000000011000100000100010001001111101000101101111110011010001110111001111001010011100110110010010001010010001110111001110111001101010100100011101110011101110011010101000101101100001000100100001110011 "
#107
b101110011110011010010000111001101111010111110001010101011000000011000110000100010001010111101000101110011110011010010000111001111001011011100110110010110001010010010000111001110111010101010100100100001110011101110101010101000101110100001000100100101110011 "
#108
b101110111110011010010010111001101111011111110001010101111000000011001000000100010001011111101000101110111110011010010010111001111001100011100110110011010001010010010010111001110111011101010100100100101110011101110111010101000101111100001000100101001110011 "
#109
b101111011110011010010100111001101111100111110001010110011000000011001010000100010001100111101000101111011110011010010100111001111001101011100110110011110001010010010100111001110111100101010100100101001110011101111001010101000110000100001000100101101110011 "
#110
b101111111110011010010110111001101111101111110001010110111000000011001100000100010001101111101000101111111110011010010110111001111001110011100110110100010001010010010110111001110111101101010100100101101110011101111011010101000110001100001000100110001110011 "
#111
b110000011110011010011000111001101111110111110001010111011000000011001110000100010001110111101000110000011110011010011000111001111001111011100110110100110001010010011000111001110111110101010100100110001110011101111101010101000110010100001000100110101110011 "
#112
b110000111110011010011010111001101111111111110001010111111000000011010000000100010001111111101000110000111110011010011010111001111010000011100110110101010001010010011010111001110111111101010100100110101110011101111111010101000110011100001000100111001110011 "
#113
b110001011110011010011100111001110000000111110001011000011000000011010010000100010010000111101000110001011110011010011100111001111010001011100110110101110001010010011100111001111000000101010100100111001110011110000001010101000110100100001000100111101110011 "
#114
b110001111110011010011110111001110000001111110001011000111000000011010100000100010010001111101000110001111110011010011110111001111010010011100110110110010001010010011110111001111000001101010100100111101110011110000011010101000110101100001000101000001110011 "
#115
b110010011110011010100000111001110000010111110001011001011000000011010110000100010010010111101000110010011110011010100000111001111010011011100110110110110001010010100000111001111000010101010100101000001110011110000101010101000110110100001000101000101110011 "
#116
b110010111110011010100010111001110000011111110001011001111000000011011000000100010010011111101000110010111110011010100010111001111010100011100110110111010001010010100010111001111000011101010100101000101110011110000111010101000110111100001000101001001110011 "
#117
b110011011110011010100100111001110000100111110001011010011000000011011010000100010010100111101000110011011110011010100100111001111010101011100110110111110001010010100100111001111000100101010100101001001110011110001001010101000111000100001000101001101110011 "
#118
b110011111110011010100110111001110000101111110001011010111000000011011100000100010010101111101000110011111110011010100110111001111010110011100110111000010001010010100110111001111000101101010100101001101110011110001011010101000111001100001000101010001110011 "
#119
b110100011110011010101000111001110000110111110001011011011000000011011110000100010010110111101000110100011110011010101000111001111010111011100110111000110001010010101000111001111000110101010100101010001110011110001101010101000111010100001000101010101110011 "
#120
b110100111110011010101010111001110000111111110001011011111000000011100000000100010010111111101000110100111110011010101010111001111011000011100110111001010001010010101010111001111000111101010100101010101110011110001111010101000111011100001000101011001110011 "
#121
b110101011110011010101100111001110001000111110001011100011000000011100010000100010011000111101000110101011110011010101100111001111011001011100110111001110001010010101100111001111001000101010100101011001110011110010001010101000111100100001000101011101110011 "
#122
b110101111110011010101110111001110001001111110001011100111000000011100100000100010011001111101000110101111110011010101110111001111011010011100110111010010001010010101110111001111001001101010100101011101110011110010011010101000111101100001000101100001110011 "
#123
b110110011110011010110000111001110001010111110001011101011000000011100110000100010011010111101000110110011110011010110000111001111011011011100110111010110001010010110000111001111001010101010100101100001110011110010101010101000111110100001000101100101110011 "
#124
b110110111110011010110010111001110001011111110001011101111000000011101000000100010011011111101000110110111110011010110010111001111011100011100110111011010001010010110010111001111001011101010100101100101110011110010111010101000111111100001000101101001110011 "
#125
b110111011110011010110100111001110001100111110001011110011000000011101010000100010011100111101000110111011110011010110100111001111011101011100110111011110001010010110100111001111001100101010100101101001110011110011001010101001000000100001000101101101110011 "
#126
b110111111110011010110110111001110001101111110001011110111000000011101100000100010011101111101000110111111110011010110110111001111011110011100110111100010001010010110110111001111001101101010100101101101110011110011011010101001000001100001000101110001110011 "
#127
b111000011110011010111000111001110001110111110001011111011000000011101110000100010011110111101000111000011110011010111000111001111011111011100110111100110001010010111000111001111001110101010100101110001110011110011101010101001000010100001000101110101110011 "
0i#
#128
b111000111110011010111010111001110001111111110001011111111000000011110000000100010011111111101000111000111110011010111010111001111100000011100110111101010001010010111010111001111001111101010100101110101110011110011111010101001000011100001000101111001110011 "
#129
b111001011110011010111100111001110010000111110001100000011000000011110010000100010100000111101000111001011110011010111100111001111100001011100110111101110001010010111100111001111010000101010100101111001110011110100001010101001000100100001000101111101110011 "
#130
b111001111110011010111110111001110010001111110001100000111000000011110100000100010100001111101000111001111110011010111110111001111100010011100110111110010001010010111110111001111010001101010100101111101110011110100011010101001000101100001000110000001110011 "
#131
b111010011110011011000000111001110010010111110001100001011000000011110110000100010100010111101000111010011110011011000000111001111100011011100110111110110001010011000000111001111010010101010100110000001110011110100101010101001000110100001000110000101110011 "
#132
b111010111110011011000010111001110010011111110001100001111000000011111000000100010100011111101000111010111110011011000010111001111100100011100110111111010001010011000010111001111010011101010100110000101110011110100111010101001000111100001000110001001110011 "
#133
b111011011110011011000100111001110010100111110001100010011000000011111010000100010100100111101000111011011110011011000100111001111100101011100110111111110001010011000100111001111010100101010100110001001110011110101001010101001001000100001000110001101110011 "
#134
b111011111110011011000110111001110010101111110001100010111000000011111100000100010100101111101000111011111110011011000110111001111100110011100111000000010001010011000110111001111010101101010100110001101110011110101011010101001001001100001000110010001110011 "
#135
b111100011110011011001000111001110010110111110001100011011000000011111110000100010100110111101000111100011110011011001000111001111100111011100111000000110001010011001000111001111010110101010100110010001110011110101101010101001001010100001000110010101110011 "
#136
b111100111110011011001010111001110010111111110001100011111000000100000000000100010100111111101000111100111110011011001010111001111101000011100111000001010001010011001010111001111010111101010100110010101110011110101111010101001001011100001000110011001110011 "
#137
b111101011110011011001100111001110011000111110001100100011000000100000010000100010101000111101000111101011110011011001100111001111101001011100111000001110001010011001100111001111011000101010100110011001110011110110001010101001001100100001000110011101110011 "
#138
b111101111110011011001110111001110011001111110001100100111000000100000100000100010101001111101000111101111110011011001110111001111101010011100111000010010001010011001110111001111011001101010100110011101110011110110011010101001001101100001000110100001110011 "
#139
b111110011110011011010000111001110011010111110001100101011000000100000110000100010101010111101000111110011110011011010000111001111101011011100111000010110001010011010000111001111011010101010100110100001110011110110101010101001001110100001000110100101110011 "
#140
b111110111110011011010010111001110011011111110001100101111000000100001000000100010101011111101000111110111110011011010010111001111101100011100111000011010001010011010010111001111011011101010100110100101110011110110111010101001001111100001000110101001110011 "
#141
b111111011110011011010100111001110011100111110001100110011000000100001010000100010101100111101000111111011110011011010100111001111101101011100111000011110001010011010100111001111011100101010100110101001110011110111001010101001010000100001000110101101110011 "
#142
b111111111110011011010110111001110011101111110001100110111000000100001100000100010101101111101000111111111110011011010110111001111101110011100111000100010001010011010110111001111011101101010100110101101110011110111011010101001010001100001000110110001110011 "
#143
b1000000011110011011011000111001110011110111110001100111011000000100001110000100010101110111101001000000011110011011011000111001111101111011100111000100110001010011011000111001111011110101010100110110001110011110111101010101001010010100001000110110101110011 "
#144
b1000000111110011011011010111001110011111111110001100111111000000100010000000100010101111111101001000000111110011011011010111001111110000011100111000101010001010011011010111001111011111101010100110110101110011110111111010101001010011100001000110111001110011 "
#145
b1000001011110011011011100111001110100000111110001101000011000000100010010000100010110000111101001000001011110011011011100111001111110001011100111000101110001010011011100111001111100000101010100110111001110011111000001010101001010100100001000110111101110011 "
#146
b1000001111110011011011110111001110100001111110001101000111000000100010100000100010110001111101001000001111110011011011110111001111110010011100111000110010001010011011110111001111100001101010100110111101110011111000011010101001010101100001000111000001110011 "
#147
b1000010011110011011100000111001110100010111110001101001011000000100010110000100010110010111101001000010011110011011100000111001111110011011100111000110110001010011100000111001111100010101010100111000001110011111000101010101001010110100001000111000101110011 "
#148
b1000010111110011011100010111001110100011111110001101001111000000100011000000100010110011111101001000010111110011011100010111001111110100011100111000111010001010011100010111001111100011101010100111000101110011111000111010101001010111100001000111001001110011 "
#149
b1000011011110011011100100111001110100100111110001101010011000000100011010000100010110100111101001000011011110011011100100111001111110101011100111000111110001010011100100111001111100100101010100111001001110011111001001010101001011000100001000111001101110011 "
#150
b1000011111110011011100110111001110100101111110001101010111000000100011100000100010110101111101001000011111110011011100110111001111110110011100111001000010001010011100110111001111100101101010100111001101110011111001011010101001011001100001000111010001110011 "
#151
b1000100011110011011101000111001110100110111110001101011011000000100011110000100010110110111101001000100011110011011101000111001111110111011100111001000110001010011101000111001111100110101010100111010001110011111001101010101001011010100001000111010101110011 "
1i#
#152
b1000100111110011011101010111001110100111111110001101011111000000100100000000100010110111111101001000100111110011011101010111001111111000011100111001001010001010011101010111001111100111101010100111010101110011111001111010101001011011100001000111011001110011 "
#153
b1000101011110011011101100111001110101000111110001101100011000000100100010000100010111000111101001000101011110011011101100111001111111001011100111001001110001010011101100111001111101000101010100111011001110011111010001010101001011100100001000111011101110011 "
#154
b1000101111110011011101110111001110101001111110001101100111000000100100100000100010111001111101001000101111110011011101110111001111111010011100111001010010001010011101110111001111101001101010100111011101110011111010011010101001011101100001000111100001110011 "
#155
b1000110011110011011110000111001110101010111110001101101011000000100100110000100010111010111101001000110011110011011110000111001111111011011100111001010110001010011110000111001111101010101010100111100001110011111010101010101001011110100001000111100101110011 "
#156
b1000110111110011011110010111001110101011111110001101101111000000100101000000100010111011111101001000110111110011011110010111001111111100011100111001011010001010011110010111001111101011101010100111100101110011111010111010101001011111100001000111101001110011 "
#157
b1000111011110011011110100111001110101100111110001101110011000000100101010000100010111100111101001000111011110011011110100111001111111101011100111001011110001010011110100111001111101100101010100111101001110011111011001010101001100000100001000111101101110011 "
