.Xil/Vivado-51588-llc/hw_ila_data_1/zip_work/waveform.vcd
$date
        2025-Sep-10 20:33:05
$end
$version
        Vivado v2022.2 (64-bit)
$end
$timescale
        1ps
$end
$scope module dut $end
$var reg 256 " top_jesd204_inst/rx_data [255:0] $end
$var reg 1 f# top_jesd204_inst/rx_valid $end
$var reg 1 g# top_jesd204_inst/sys_rst_n $end
$var reg 1 h# top_jesd204_inst/rx_sync_0 $end
$var reg 1 i# top_jesd204_inst/sysref $end
$var reg 1 j# top_jesd204_inst/rst_204 $end
$var reg 1 k# _TRIGGER $end
$var reg 1 l# _WINDOW $end
$var reg 1 m# _GAP $end
$upscope $end
$enddefinitions $end
#0
$dumpvars
b10111110100000001011000010000000011100001000000111110101100101001101101011110101011101001000010001111110100000000111000010000000011100001000000011100000110111000110110010000010001101010101110001101100100000100011010101011100000001001100010001110000100000 "
1f#
0g#
1h#
0i#
0j#
0k#
1l#
0m#
$end
#1
b11000010100000001011010010000000011101001000000111111001100101001101111011110101011110001000010010000010100000000111010010000000011101001000000011100100110111000111000010000010001110010101110001110000100000100011100101011100000010001100010001110100100000 "
#2
b11000110100000001011100010000000011110001000000111111101100101001110001011110101011111001000010010000110100000000111100010000000011110001000000011101000110111000111010010000010001111010101110001110100100000100011110101011100000011001100010001111000100000 "
#3
b11001010100000001011110010000000011111001000001000000001100101001110011011110101100000001000010010001010100000000111110010000000011111001000000011101100110111000111100010000010010000010101110001111000100000100100000101011100000100001100010001111100100000 "
#4
b11001110100000001100000010000000100000001000001000000101100101001110101011110101100001001000010010001110100000001000000010000000100000001000000011110000110111000111110010000010010001010101110001111100100000100100010101011100000101001100010010000000100000 "
#5
b11010010100000001100010010000000100001001000001000001001100101001110111011110101100010001000010010010010100000001000010010000000100001001000000011110100110111001000000010000010010010010101110010000000100000100100100101011100000110001100010010000100100000 "
#6
b11010110100000001100100010000000100010001000001000001101100101001111001011110101100011001000010010010110100000001000100010000000100010001000000011111000110111001000010010000010010011010101110010000100100000100100110101011100000111001100010010001000100000 "
1i#
#7
b11011010100000001100110010000000100011001000001000010001100101001111011011110101100100001000010010011010100000001000110010000000100011001000000011111100110111001000100010000010010100010101110010001000100000100101000101011100001000001100010010001100100000 "
#8
b11011110100000001101000010000000100100001000001000010101100101001111101011110101100101001000010010011110100000001001000010000000100100001000000100000000110111001000110010000010010101010101110010001100100000100101010101011100001001001100010010010000100000 "
#9
b11100010100000001101010010000000100101001000001000011001100101001111111011110101100110001000010010100010100000001001010010000000100101001000000100000100110111001001000010000010010110010101110010010000100000100101100101011100001010001100010010010100100000 "
#10
b11100110100000001101100010000000100110001000001000011101100101010000001011110101100111001000010010100110100000001001100010000000100110001000000100001000110111001001010010000010010111010101110010010100100000100101110101011100001011001100010010011000100000 "
#11
b11101010100000001101110010000000100111001000001000100001100101010000011011110101101000001000010010101010100000001001110010000000100111001000000100001100110111001001100010000010011000010101110010011000100000100110000101011100001100001100010010011100100000 "
#12
b11101110100000001110000010000000101000001000001000100101100101010000101011110101101001001000010010101110100000001010000010000000101000001000000100010000110111001001110010000010011001010101110010011100100000100110010101011100001101001100010010100000100000 "
#13
b11110010100000001110010010000000101001001000001000101001100101010000111011110101101010001000010010110010100000001010010010000000101001001000000100010100110111001010000010000010011010010101110010100000100000100110100101011100001110001100010010100100100000 "
#14
b11110110100000001110100010000000101010001000001000101101100101010001001011110101101011001000010010110110100000001010100010000000101010001000000100011000110111001010010010000010011011010101110010100100100000100110110101011100001111001100010010101000100000 "
#15
b11111010100000001110110010000000101011001000001000110001100101010001011011110101101100001000010010111010100000001010110010000000101011001000000100011100110111001010100010000010011100010101110010101000100000100111000101011100010000001100010010101100100000 "
#16
b11111110100000001111000010000000101100001000001000110101100101010001101011110101101101001000010010111110100000001011000010000000101100001000000100100000110111001010110010000010011101010101110010101100100000100111010101011100010001001100010010110000100000 "
#17
b100000010100000001111010010000000101101001000001000111001100101010001111011110101101110001000010011000010100000001011010010000000101101001000000100100100110111001011000010000010011110010101110010110000100000100111100101011100010010001100010010110100100000 "
0i#
#18
b100000110100000001111100010000000101110001000001000111101100101010010001011110101101111001000010011000110100000001011100010000000101110001000000100101000110111001011010010000010011111010101110010110100100000100111110101011100010011001100010010111000100000 "
#19
b100001010100000001111110010000000101111001000001001000001100101010010011011110101110000001000010011001010100000001011110010000000101111001000000100101100110111001011100010000010100000010101110010111000100000101000000101011100010100001100010010111100100000 "
#20
b100001110100000010000000010000000110000001000001001000101100101010010101011110101110001001000010011001110100000001100000010000000110000001000000100110000110111001011110010000010100001010101110010111100100000101000010101011100010101001100010011000000100000 "
1i#
#21
b100010010100000010000010010000000110001001000001001001001100101010010111011110101110010001000010011010010100000001100010010000000110001001000000100110100110111001100000010000010100010010101110011000000100000101000100101011100010110001100010011000100100000 "
#22
b100010110100000010000100010000000110010001000001001001101100101010011001011110101110011001000010011010110100000001100100010000000110010001000000100111000110111001100010010000010100011010101110011000100100000101000110101011100010111001100010011001000100000 "
#23
b100011010100000010000110010000000110011001000001001010001100101010011011011110101110100001000010011011010100000001100110010000000110011001000000100111100110111001100100010000010100100010101110011001000100000101001000101011100011000001100010011001100100000 "
#24
b100011110100000010001000010000000110100001000001001010101100101010011101011110101110101001000010011011110100000001101000010000000110100001000000101000000110111001100110010000010100101010101110011001100100000101001010101011100011001001100010011010000100000 "
#25
b100100010100000010001010010000000110101001000001001011001100101010011111011110101110110001000010011100010100000001101010010000000110101001000000101000100110111001101000010000010100110010101110011010000100000101001100101011100011010001100010011010100100000 "
#26
b100100110100000010001100010000000110110001000001001011101100101010100001011110101110111001000010011100110100000001101100010000000110110001000000101001000110111001101010010000010100111010101110011010100100000101001110101011100011011001100010011011000100000 "
#27
b100101010100000010001110010000000110111001000001001100001100101010100011011110101111000001000010011101010100000001101110010000000110111001000000101001100110111001101100010000010101000010101110011011000100000101010000101011100011100001100010011011100100000 "
#28
b100101110100000010010000010000000111000001000001001100101100101010100101011110101111001001000010011101110100000001110000010000000111000001000000101010000110111001101110010000010101001010101110011011100100000101010010101011100011101001100010011100000100000 "
#29
b100110010100000010010010010000000111001001000001001101001100101010100111011110101111010001000010011110010100000001110010010000000111001001000000101010100110111001110000010000010101010010101110011100000100000101010100101011100011110001100010011100100100000 "
#30
b100110110100000010010100010000000111010001000001001101101100101010101001011110101111011001000010011110110100000001110100010000000111010001000000101011000110111001110010010000010101011010101110011100100100000101010110101011100011111001100010011101000100000 "
0i#
#31
b100111010100000010010110010000000111011001000001001110001100101010101011011110101111100001000010011111010100000001110110010000000111011001000000101011100110111001110100010000010101100010101110011101000100000101011000101011100100000001100010011101100100000 "
#32
b100111110100000010011000010000000111100001000001001110101100101010101101011110101111101001000010011111110100000001111000010000000111100001000000101100000110111001110110010000010101101010101110011101100100000101011010101011100100001001100010011110000100000 "
#33
b101000010100000010011010010000000111101001000001001111001100101010101111011110101111110001000010100000010100000001111010010000000111101001000000101100100110111001111000010000010101110010101110011110000100000101011100101011100100010001100010011110100100000 "
#34
b101000110100000010011100010000000111110001000001001111101100101010110001011110101111111001000010100000110100000001111100010000000111110001000000101101000110111001111010010000010101111010101110011110100100000101011110101011100100011001100010011111000100000 "
#35
b101001010100000010011110010000000111111001000001010000001100101010110011011110110000000001000010100001010100000001111110010000000111111001000000101101100110111001111100010000010110000010101110011111000100000101100000101011100100100001100010011111100100000 "
#36
b101001110100000010100000010000001000000001000001010000101100101010110101011110110000001001000010100001110100000010000000010000001000000001000000101110000110111001111110010000010110001010101110011111100100000101100010101011100100101001100010100000000100000 "
#37
b101010010100000010100010010000001000001001000001010001001100101010110111011110110000010001000010100010010100000010000010010000001000001001000000101110100110111010000000010000010110010010101110100000000100000101100100101011100100110001100010100000100100000 "
#38
b101010110100000010100100010000001000010001000001010001101100101010111001011110110000011001000010100010110100000010000100010000001000010001000000101111000110111010000010010000010110011010101110100000100100000101100110101011100100111001100010100001000100000 "
#39
b101011010100000010100110010000001000011001000001010010001100101010111011011110110000100001000010100011010100000010000110010000001000011001000000101111100110111010000100010000010110100010101110100001000100000101101000101011100101000001100010100001100100000 "
#40
b101011110100000010101000010000001000100001000001010010101100101010111101011110110000101001000010100011110100000010001000010000001000100001000000110000000110111010000110010000010110101010101110100001100100000101101010101011100101001001100010100010000100000 "
#41
b101100010100000010101010010000001000101001000001010011001100101010111111011110110000110001000010100100010100000010001010010000001000101001000000110000100110111010001000010000010110110010101110100010000100000101101100101011100101010001100010100010100100000 "
#42
b101100110100000010101100010000001000110001000001010011101100101011000001011110110000111001000010100100110100000010001100010000001000110001000000110001000110111010001010010000010110111010101110100010100100000101101110101011100101011001100010100011000100000 "
#43
b101101010100000010101110010000001000111001000001010100001100101011000011011110110001000001000010100101010100000010001110010000001000111001000000110001100110111010001100010000010111000010101110100011000100000101110000101011100101100001100010100011100100000 "
#44
b101101110100000010110000010000001001000001000001010100101100101011000101011110110001001001000010100101110100000010010000010000001001000001000000110010000110111010001110010000010111001010101110100011100100000101110010101011100101101001100010100100000100000 "
#45
b101110010100000010110010010000001001001001000001010101001100101011000111011110110001010001000010100110010100000010010010010000001001001001000000110010100110111010010000010000010111010010101110100100000100000101110100101011100101110001100010100100100100000 "
#46
b101110110100000010110100010000001001010001000001010101101100101011001001011110110001011001000010100110110100000010010100010000001001010001000000110011000110111010010010010000010111011010101110100100100100000101110110101011100101111001100010100101000100000 "
#47
b101111010100000010110110010000001001011001000001010110001100101011001011011110110001100001000010100111010100000010010110010000001001011001000000110011100110111010010100010000010111100010101110100101000100000101111000101011100110000001100010100101100100000 "
#48
b101111110100000010111000010000001001100001000001010110101100101011001101011110110001101001000010100111110100000010011000010000001001100001000000110100000110111010010110010000010111101010101110100101100100000101111010101011100110001001100010100110000100000 "
#49
b110000010100000010111010010000001001101001000001010111001100101011001111011110110001110001000010101000010100000010011010010000001001101001000000110100100110111010011000010000010111110010101110100110000100000101111100101011100110010001100010100110100100000 "
#50
b110000110100000010111100010000001001110001000001010111101100101011010001011110110001111001000010101000110100000010011100010000001001110001000000110101000110111010011010010000010111111010101110100110100100000101111110101011100110011001100010100111000100000 "
#51
b110001010100000010111110010000001001111001000001011000001100101011010011011110110010000001000010101001010100000010011110010000001001111001000000110101100110111010011100010000011000000010101110100111000100000110000000101011100110100001100010100111100100000 "
#52
b110001110100000011000000010000001010000001000001011000101100101011010101011110110010001001000010101001110100000010100000010000001010000001000000110110000110111010011110010000011000001010101110100111100100000110000010101011100110101001100010101000000100000 "
#53
b110010010100000011000010010000001010001001000001011001001100101011010111011110110010010001000010101010010100000010100010010000001010001001000000110110100110111010100000010000011000010010101110101000000100000110000100101011100110110001100010101000100100000 "
#54
b110010110100000011000100010000001010010001000001011001101100101011011001011110110010011001000010101010110100000010100100010000001010010001000000110111000110111010100010010000011000011010101110101000100100000110000110101011100110111001100010101001000100000 "
1i#
#55
b110011010100000011000110010000001010011001000001011010001100101011011011011110110010100001000010101011010100000010100110010000001010011001000000110111100110111010100100010000011000100010101110101001000100000110001000101011100111000001100010101001100100000 "
#56
b110011110100000011001000010000001010100001000001011010101100101011011101011110110010101001000010101011110100000010101000010000001010100001000000111000000110111010100110010000011000101010101110101001100100000110001010101011100111001001100010101010000100000 "
#57
b110100010100000011001010010000001010101001000001011011001100101011011111011110110010110001000010101100010100000010101010010000001010101001000000111000100110111010101000010000011000110010101110101010000100000110001100101011100111010001100010101010100100000 "
#58
b110100110100000011001100010000001010110001000001011011101100101011100001011110110010111001000010101100110100000010101100010000001010110001000000111001000110111010101010010000011000111010101110101010100100000110001110101011100111011001100010101011000100000 "
#59
b110101010100000011001110010000001010111001000001011100001100101011100011011110110011000001000010101101010100000010101110010000001010111001000000111001100110111010101100010000011001000010101110101011000100000110010000101011100111100001100010101011100100000 "
#60
b110101110100000011010000010000001011000001000001011100101100101011100101011110110011001001000010101101110100000010110000010000001011000001000000111010000110111010101110010000011001001010101110101011100100000110010010101011100111101001100010101100000100000 "
#61
b110110010100000011010010010000001011001001000001011101001100101011100111011110110011010001000010101110010100000010110010010000001011001001000000111010100110111010110000010000011001010010101110101100000100000110010100101011100111110001100010101100100100000 "
#62
b110110110100000011010100010000001011010001000001011101101100101011101001011110110011011001000010101110110100000010110100010000001011010001000000111011000110111010110010010000011001011010101110101100100100000110010110101011100111111001100010101101000100000 "
#63
b110111010100000011010110010000001011011001000001011110001100101011101011011110110011100001000010101111010100000010110110010000001011011001000000111011100110111010110100010000011001100010101110101101000100000110011000101011101000000001100010101101100100000 "
#64
b110111110100000011011000010000001011100001000001011110101100101011101101011110110011101001000010101111110100000010111000010000001011100001000000111100000110111010110110010000011001101010101110101101100100000110011010101011101000001001100010101110000100000 "
#65
b111000010100000011011010010000001011101001000001011111001100101011101111011110110011110001000010110000010100000010111010010000001011101001000000111100100110111010111000010000011001110010101110101110000100000110011100101011101000010001100010101110100100000 "
0i#
#66
b111000110100000011011100010000001011110001000001011111101100101011110001011110110011111001000010110000110100000010111100010000001011110001000000111101000110111010111010010000011001111010101110101110100100000110011110101011101000011001100010101111000100000 "
1i#
#67
b111001010100000011011110010000001011111001000001100000001100101011110011011110110100000001000010110001010100000010111110010000001011111001000000111101100110111010111100010000011010000010101110101111000100000110100000101011101000100001100010101111100100000 "
#68
b111001110100000011100000010000001100000001000001100000101100101011110101011110110100001001000010110001110100000011000000010000001100000001000000111110000110111010111110010000011010001010101110101111100100000110100010101011101000101001100010110000000100000 "
#69
b111010010100000011100010010000001100001001000001100001001100101011110111011110110100010001000010110010010100000011000010010000001100001001000000111110100110111011000000010000011010010010101110110000000100000110100100101011101000110001100010110000100100000 "
#70
b111010110100000011100100010000001100010001000001100001101100101011111001011110110100011001000010110010110100000011000100010000001100010001000000111111000110111011000010010000011010011010101110110000100100000110100110101011101000111001100010110001000100000 "
#71
b111011010100000011100110010000001100011001000001100010001100101011111011011110110100100001000010110011010100000011000110010000001100011001000000111111100110111011000100010000011010100010101110110001000100000110101000101011101001000001100010110001100100000 "
#72
b111011110100000011101000010000001100100001000001100010101100101011111101011110110100101001000010110011110100000011001000010000001100100001000001000000000110111011000110010000011010101010101110110001100100000110101010101011101001001001100010110010000100000 "
#73
b111100010100000011101010010000001100101001000001100011001100101011111111011110110100110001000010110100010100000011001010010000001100101001000001000000100110111011001000010000011010110010101110110010000100000110101100101011101001010001100010110010100100000 "
#74
b111100110100000011101100010000001100110001000001100011101100101100000001011110110100111001000010110100110100000011001100010000001100110001000001000001000110111011001010010000011010111010101110110010100100000110101110101011101001011001100010110011000100000 "
#75
b111101010100000011101110010000001100111001000001100100001100101100000011011110110101000001000010110101010100000011001110010000001100111001000001000001100110111011001100010000011011000010101110110011000100000110110000101011101001100001100010110011100100000 "
#76
b111101110100000011110000010000001101000001000001100100101100101100000101011110110101001001000010110101110100000011010000010000001101000001000001000010000110111011001110010000011011001010101110110011100100000110110010101011101001101001100010110100000100000 "
#77
b111110010100000011110010010000001101001001000001100101001100101100000111011110110101010001000010110110010100000011010010010000001101001001000001000010100110111011010000010000011011010010101110110100000100000110110100101011101001110001100010110100100100000 "
#78
b111110110100000011110100010000001101010001000001100101101100101100001001011110110101011001000010110110110100000011010100010000001101010001000001000011000110111011010010010000011011011010101110110100100100000110110110101011101001111001100010110101000100000 "
0i#
#79
b111111010100000011110110010000001101011001000001100110001100101100001011011110110101100001000010110111010100000011010110010000001101011001000001000011100110111011010100010000011011100010101110110101000100000110111000101011101010000001100010110101100100000 "
#80
b111111110100000011111000010000001101100001000001100110101100101100001101011110110101101001000010110111110100000011011000010000001101100001000001000100000110111011010110010000011011101010101110110101100100000110111010101011101010001001100010110110000100000 "
#81
b1000000010100000011111010010000001101101001000001100111001100101100001111011110110101110001000010111000010100000011011010010000001101101001000001000100100110111011011000010000011011110010101110110110000100000110111100101011101010010001100010110110100100000 "
#82
b1000000110100000011111100010000001101110001000001100111101100101100010001011110110101111001000010111000110100000011011100010000001101110001000001000101000110111011011010010000011011111010101110110110100100000110111110101011101010011001100010110111000100000 "
#83
b1000001010100000011111110010000001101111001000001101000001100101100010011011110110110000001000010111001010100000011011110010000001101111001000001000101100110111011011100010000011100000010101110110111000100000111000000101011101010100001100010110111100100000 "
#84
b1000001110100000100000000010000001110000001000001101000101100101100010101011110110110001001000010111001110100000011100000010000001110000001000001000110000110111011011110010000011100001010101110110111100100000111000010101011101010101001100010111000000100000 "
#85
b1000010010100000100000010010000001110001001000001101001001100101100010111011110110110010001000010111010010100000011100010010000001110001001000001000110100110111011100000010000011100010010101110111000000100000111000100101011101010110001100010111000100100000 "
#86
b1000010110100000100000100010000001110010001000001101001101100101100011001011110110110011001000010111010110100000011100100010000001110010001000001000111000110111011100010010000011100011010101110111000100100000111000110101011101010111001100010111001000100000 "
#87
b1000011010100000100000110010000001110011001000001101010001100101100011011011110110110100001000010111011010100000011100110010000001110011001000001000111100110111011100100010000011100100010101110111001000100000111001000101011101011000001100010111001100100000 "
#88
b1000011110100000100001000010000001110100001000001101010101100101100011101011110110110101001000010111011110100000011101000010000001110100001000001001000000110111011100110010000011100101010101110111001100100000111001010101011101011001001100010111010000100000 "
#89
b1000100010100000100001010010000001110101001000001101011001100101100011111011110110110110001000010111100010100000011101010010000001110101001000001001000100110111011101000010000011100110010101110111010000100000111001100101011101011010001100010111010100100000 "
#90
b1000100110100000100001100010000001110110001000001101011101100101100100001011110110110111001000010111100110100000011101100010000001110110001000001001001000110111011101010010000011100111010101110111010100100000111001110101011101011011001100010111011000100000 "
#91
b1000101010100000100001110010000001110111001000001101100001100101100100011011110110111000001000010111101010100000011101110010000001110111001000001001001100110111011101100010000011101000010101110111011000100000111010000101011101011100001100010111011100100000 "
#92
b1000101110100000100010000010000001111000001000001101100101100101100100101011110110111001001000010111101110100000011110000010000001111000001000001001010000110111011101110010000011101001010101110111011100100000111010010101011101011101001100010111100000100000 "
#93
b1000110010100000100010010010000001111001001000001101101001100101100100111011110110111010001000010111110010100000011110010010000001111001001000001001010100110111011110000010000011101010010101110111100000100000111010100101011101011110001100010111100100100000 "
#94
b1000110110100000100010100010000001111010001000001101101101100101100101001011110110111011001000010111110110100000011110100010000001111010001000001001011000110111011110010010000011101011010101110111100100100000111010110101011101011111001100010111101000100000 "
#95
b1000111010100000100010110010000001111011001000001101110001100101100101011011110110111100001000010111111010100000011110110010000001111011001000001001011100110111011110100010000011101100010101110111101000100000111011000101011101100000001100010111101100100000 "
#96
b1000111110100000100011000010000001111100001000001101110101100101100101101011110110111101001000010111111110100000011111000010000001111100001000001001100000110111011110110010000011101101010101110111101100100000111011010101011101100001001100010111110000100000 "
#97
b1001000010100000100011010010000001111101001000001101111001100101100101111011110110111110001000011000000010100000011111010010000001111101001000001001100100110111011111000010000011101110010101110111110000100000111011100101011101100010001100010111110100100000 "
#98
b1001000110100000100011100010000001111110001000001101111101100101100110001011110110111111001000011000000110100000011111100010000001111110001000001001101000110111011111010010000011101111010101110111110100100000111011110101011101100011001100010111111000100000 "
#99
b1001001010100000100011110010000001111111001000001110000001100101100110011011110111000000001000011000001010100000011111110010000001111111001000001001101100110111011111100010000011110000010101110111111000100000111100000101011101100100001100010111111100100000 "
#100
b1001001110100000100100000010000010000000001000001110000101100101100110101011110111000001001000011000001110100000100000000010000010000000001000001001110000110111011111110010000011110001010101110111111100100000111100010101011101100101001100011000000000100000 "
#101
b1001010010100000100100010010000010000001001000001110001001100101100110111011110111000010001000011000010010100000100000010010000010000001001000001001110100110111100000000010000011110010010101111000000000100000111100100101011101100110001100011000000100100000 "
#102
b1001010110100000100100100010000010000010001000001110001101100101100111001011110111000011001000011000010110100000100000100010000010000010001000001001111000110111100000010010000011110011010101111000000100100000111100110101011101100111001100011000001000100000 "
1i#
#103
b1001011010100000100100110010000010000011001000001110010001100101100111011011110111000100001000011000011010100000100000110010000010000011001000001001111100110111100000100010000011110100010101111000001000100000111101000101011101101000001100011000001100100000 "
#104
b1001011110100000100101000010000010000100001000001110010101100101100111101011110111000101001000011000011110100000100001000010000010000100001000001010000000110111100000110010000011110101010101111000001100100000111101010101011101101001001100011000010000100000 "
#105
b1001100010100000100101010010000010000101001000001110011001100101100111111011110111000110001000011000100010100000100001010010000010000101001000001010000100110111100001000010000011110110010101111000010000100000111101100101011101101010001100011000010100100000 "
#106
b1001100110100000100101100010000010000110001000001110011101100101101000001011110111000111001000011000100110100000100001100010000010000110001000001010001000110111100001010010000011110111010101111000010100100000111101110101011101101011001100011000011000100000 "
#107
b1001101010100000100101110010000010000111001000001110100001100101101000011011110111001000001000011000101010100000100001110010000010000111001000001010001100110111100001100010000011111000010101111000011000100000111110000101011101101100001100011000011100100000 "
#108
b1001101110100000100110000010000010001000001000001110100101100101101000101011110111001001001000011000101110100000100010000010000010001000001000001010010000110111100001110010000011111001010101111000011100100000111110010101011101101101001100011000100000100000 "
#109
b1001110010100000100110010010000010001001001000001110101001100101101000111011110111001010001000011000110010100000100010010010000010001001001000001010010100110111100010000010000011111010010101111000100000100000111110100101011101101110001100011000100100100000 "
#110
b1001110110100000100110100010000010001010001000001110101101100101101001001011110111001011001000011000110110100000100010100010000010001010001000001010011000110111100010010010000011111011010101111000100100100000111110110101011101101111001100011000101000100000 "
#111
b1001111010100000100110110010000010001011001000001110110001100101101001011011110111001100001000011000111010100000100010110010000010001011001000001010011100110111100010100010000011111100010101111000101000100000111111000101011101110000001100011000101100100000 "
#112
b1001111110100000100111000010000010001100001000001110110101100101101001101011110111001101001000011000111110100000100011000010000010001100001000001010100000110111100010110010000011111101010101111000101100100000111111010101011101110001001100011000110000100000 "
#113
b1010000010100000100111010010000010001101001000001110111001100101101001111011110111001110001000011001000010100000100011010010000010001101001000001010100100110111100011000010000011111110010101111000110000100000111111100101011101110010001100011000110100100000 "
0i#
#114
b1010000110100000100111100010000010001110001000001110111101100101101010001011110111001111001000011001000110100000100011100010000010001110001000001010101000110111100011010010000011111111010101111000110100100000111111110101011101110011001100011000111000100000 "
#115
b1010001010100000100111110010000010001111001000001111000001100101101010011011110111010000001000011001001010100000100011110010000010001111001000001010101100110111100011100010000000000000010110001000111000100000000000000101100001110100001100011000111100100000 "
1i#
#116
b1010001110100000101000000010000010010000001000001111000101100101101010101011110111010001001000011001001110100000100100000010000010010000001000001010110000110111100011110010000000000001010110001000111100100000000000010101100001110101001100011001000000100000 "
#117
b1010010010100000101000010010000010010001001000001111001001100101101010111011110111010010001000011001010010100000100100010010000010010001001000001010110100110111100100000010000000000010010110001001000000100000000000100101100001110110001100011001000100100000 "
#118
b1010010110100000101000100010000010010010001000001111001101100101101011001011110111010011001000011001010110100000100100100010000010010010001000001010111000110111100100010010000000000011010110001001000100100000000000110101100001110111001100011001001000100000 "
#119
b1010011010100000101000110010000010010011001000001111010001100101101011011011110111010100001000011001011010100000100100110010000010010011001000001010111100110111100100100010000000000100010110001001001000100000000001000101100001111000001100011001001100100000 "
#120
b1010011110100000101001000010000010010100001000001111010101100101101011101011110111010101001000011001011110100000100101000010000010010100001000001011000000110111100100110010000000000101010110001001001100100000000001010101100001111001001100011001010000100000 "
#121
b1010100010100000101001010010000010010101001000001111011001100101101011111011110111010110001000011001100010100000100101010010000010010101001000001011000100110111100101000010000000000110010110001001010000100000000001100101100001111010001100011001010100100000 "
#122
b1010100110100000101001100010000010010110001000001111011101100101101100001011110111010111001000011001100110100000100101100010000010010110001000001011001000110111100101010010000000000111010110001001010100100000000001110101100001111011001100011001011000100000 "
#123
b1010101010100000101001110010000010010111001000001111100001100101101100011011110111011000001000011001101010100000100101110010000010010111001000001011001100110111100101100010000000001000010110001001011000100000000010000101100001111100001100011001011100100000 "
#124
b1010101110100000101010000010000010011000001000001111100101100101101100101011110111011001001000011001101110100000100110000010000010011000001000001011010000110111100101110010000000001001010110001001011100100000000010010101100001111101001100011001100000100000 "
#125
b1010110010100000101010010010000010011001001000001111101001100101101100111011110111011010001000011001110010100000100110010010000010011001001000001011010100110111100110000010000000001010010110001001100000100000000010100101100001111110001100011001100100100000 "
#126
b1010110110100000101010100010000010011010001000001111101101100101101101001011110111011011001000011001110110100000100110100010000010011010001000001011011000110111100110010010000000001011010110001001100100100000000010110101100001111111001100011001101000100000 "
0i#
#127
b1010111010100000101010110010000010011011001000001111110001100101101101011011110111011100001000011001111010100000100110110010000010011011001000001011011100110111100110100010000000001100010110001001101000100000000011000101100010000000001100011001101100100000 "
#128
b1010111110100000101011000010000010011100001000001111110101100101101101101011110111011101001000011001111110100000100111000010000010011100001000001011100000110111100110110010000000001101010110001001101100100000000011010101100010000001001100011001110000100000 "
#129
b1011000010100000101011010010000010011101001000001111111001100101101101111011110111011110001000011010000010100000100111010010000010011101001000001011100100110111100111000010000000001110010110001001110000100000000011100101100010000010001100011001110100100000 "
#130
b1011000110100000101011100010000010011110001000001111111101100101101110001011110111011111001000011010000110100000100111100010000010011110001000001011101000110111100111010010000000001111010110001001110100100000000011110101100010000011001100011001111000100000 "
#131
b1011001010100000101011110010000010011111001000000000000001100110101110011011110111100000001000011010001010100000100111110010000010011111001000001011101100110111100111100010000000010000010110001001111000100000000100000101100010000100001100011001111100100000 "
#132
b1011001110100000101100000010000010100000001000000000000101100110101110101011110111100001001000011010001110100000101000000010000010100000001000001011110000110111100111110010000000010001010110001001111100100000000100010101100010000101001100011010000000100000 "
#133
b1011010010100000101100010010000010100001001000000000001001100110101110111011110111100010001000011010010010100000101000010010000010100001001000001011110100110111101000000010000000010010010110001010000000100000000100100101100010000110001100011010000100100000 "
#134
b1011010110100000101100100010000010100010001000000000001101100110101111001011110111100011001000011010010110100000101000100010000010100010001000001011111000110111101000010010000000010011010110001010000100100000000100110101100010000111001100011010001000100000 "
#135
b1011011010100000101100110010000010100011001000000000010001100110101111011011110111100100001000011010011010100000101000110010000010100011001000001011111100110111101000100010000000010100010110001010001000100000000101000101100010001000001100011010001100100000 "
#136
b1011011110100000101101000010000010100100001000000000010101100110101111101011110111100101001000011010011110100000101001000010000010100100001000001100000000110111101000110010000000010101010110001010001100100000000101010101100010001001001100011010010000100000 "
#137
b1011100010100000101101010010000010100101001000000000011001100110101111111011110111100110001000011010100010100000101001010010000010100101001000001100000100110111101001000010000000010110010110001010010000100000000101100101100010001010001100011010010100100000 "
#138
b1011100110100000101101100010000010100110001000000000011101100110110000001011110111100111001000011010100110100000101001100010000010100110001000001100001000110111101001010010000000010111010110001010010100100000000101110101100010001011001100011010011000100000 "
#139
b1011101010100000101101110010000010100111001000000000100001100110110000011011110111101000001000011010101010100000101001110010000010100111001000001100001100110111101001100010000000011000010110001010011000100000000110000101100010001100001100011010011100100000 "
#140
b1011101110100000101110000010000010101000001000000000100101100110110000101011110111101001001000011010101110100000101010000010000010101000001000001100010000110111101001110010000000011001010110001010011100100000000110010101100010001101001100011010100000100000 "
#141
b1011110010100000101110010010000010101001001000000000101001100110110000111011110111101010001000011010110010100000101010010010000010101001001000001100010100110111101010000010000000011010010110001010100000100000000110100101100010001110001100011010100100100000 "
#142
b1011110110100000101110100010000010101010001000000000101101100110110001001011110111101011001000011010110110100000101010100010000010101010001000001100011000110111101010010010000000011011010110001010100100100000000110110101100010001111001100011010101000100000 "
#143
b1011111010100000101110110010000010101011001000000000110001100110110001011011110111101100001000011010111010100000101010110010000010101011001000001100011100110111101010100010000000011100010110001010101000100000000111000101100010010000001100011010101100100000 "
#144
b1011111110100000101111000010000010101100001000000000110101100110110001101011110111101101001000011010111110100000101011000010000010101100001000001100100000110111101010110010000000011101010110001010101100100000000111010101100010010001001100011010110000100000 "
#145
b1100000010100000101111010010000010101101001000000000111001100110110001111011110111101110001000011011000010100000101011010010000010101101001000001100100100110111101011000010000000011110010110001010110000100000000111100101100010010010001100011010110100100000 "
#146
b1100000110100000101111100010000010101110001000000000111101100110110010001011110111101111001000011011000110100000101011100010000010101110001000001100101000110111101011010010000000011111010110001010110100100000000111110101100010010011001100011010111000100000 "
#147
b1100001010100000101111110010000010101111001000000001000001100110110010011011110111110000001000011011001010100000101011110010000010101111001000001100101100110111101011100010000000100000010110001010111000100000001000000101100010010100001100011010111100100000 "
#148
b1100001110100000110000000010000010110000001000000001000101100110110010101011110111110001001000011011001110100000101100000010000010110000001000001100110000110111101011110010000000100001010110001010111100100000001000010101100010010101001100011011000000100000 "
#149
b1100010010100000110000010010000010110001001000000001001001100110110010111011110111110010001000011011010010100000101100010010000010110001001000001100110100110111101100000010000000100010010110001011000000100000001000100101100010010110001100011011000100100000 "
#150
b1100010110100000110000100010000010110010001000000001001101100110110011001011110111110011001000011011010110100000101100100010000010110010001000001100111000110111101100010010000000100011010110001011000100100000001000110101100010010111001100011011001000100000 "
1i#
#151
b1100011010100000110000110010000010110011001000000001010001100110110011011011110111110100001000011011011010100000101100110010000010110011001000001100111100110111101100100010000000100100010110001011001000100000001001000101100010011000001100011011001100100000 "
#152
b1100011110100000110001000010000010110100001000000001010101100110110011101011110111110101001000011011011110100000101101000010000010110100001000001101000000110111101100110010000000100101010110001011001100100000001001010101100010011001001100011011010000100000 "
#153
b1100100010100000110001010010000010110101001000000001011001100110110011111011110111110110001000011011100010100000101101010010000010110101001000001101000100110111101101000010000000100110010110001011010000100000001001100101100010011010001100011011010100100000 "
#154
b1100100110100000110001100010000010110110001000000001011101100110110100001011110111110111001000011011100110100000101101100010000010110110001000001101001000110111101101010010000000100111010110001011010100100000001001110101100010011011001100011011011000100000 "
#155
b1100101010100000110001110010000010110111001000000001100001100110110100011011110111111000001000011011101010100000101101110010000010110111001000001101001100110111101101100010000000101000010110001011011000100000001010000101100010011100001100011011011100100000 "
#156
b1100101110100000110010000010000010111000001000000001100101100110110100101011110111111001001000011011101110100000101110000010000010111000001000001101010000110111101101110010000000101001010110001011011100100000001010010101100010011101001100011011100000100000 "
