.Xil/Vivado-109444-llc/hw_ila_data_10/zip_work/waveform.vcd
$date
        2025-Aug-15 10:34:17
$end
$version
        Vivado v2022.2 (64-bit)
$end
$timescale
        1ps
$end
$scope module dut $end
$var reg 1 " test_top_aurora_inst/s_axi_tx_5_tvalid $end
$var reg 1 # test_top_aurora_inst/s_axi_tx_5_tready $end
$var reg 64 $ test_top_aurora_inst/s_axi_tx_5_tdata [63:0] $end
$var reg 8 d test_top_aurora_inst/s_axi_tx_5_tkeep [7:0] $end
$var reg 1 l test_top_aurora_inst/s_axi_tx_5_tlast $end
$var reg 1 m test_top_aurora_inst/m_axi_rx_5_tvalid $end
$var reg 64 n test_top_aurora_inst/m_axi_rx_5_tdata [63:0] $end
$var reg 8 P" test_top_aurora_inst/m_axi_rx_5_tkeep [7:0] $end
$var reg 1 X" test_top_aurora_inst/m_axi_rx_5_tlast $end
$var reg 1 Y" test_top_aurora_inst/ui_rst_n $end
$var reg 1 Z" _TRIGGER $end
$var reg 1 [" _WINDOW $end
$var reg 1 \" _GAP $end
$upscope $end
$enddefinitions $end
#0
$dumpvars
0"
1#
b0 $
b11111111 d
0l
0m
b1101111011011111111000001110000111011110110111111110000011100001 n
b11111111 P"
1X"
1Y"
0Z"
1["
0\"
$end
#100
1m
b1110001011100011111001001110010111100110111001111110100011101001 n
0X"
1Z"
#101
0m
#102
1m
b1110101011101011111011001110110111101110111011111111000011110001 n
#103
0m
#104
1m
b1111001011110011111101001111010111110110111101111111100011111001 n
#105
0m
#106
1m
b1111101011111011111111001111110111111110111111110000000000000001 n
#107
0m
#108
1m
b1000000011000001000000010100000110000001110000100000001001 n
#109
0m
#110
1m
b101000001011000011000000110100001110000011110001000000010001 n
#111
0m
#112
1m
b1001000010011000101000001010100010110000101110001100000011001 n
#113
0m
#114
1m
b1101000011011000111000001110100011110000111110010000000100001 n
#115
0m
#116
1m
b10001000100011001001000010010100100110001001110010100000101001 n
#117
0m
#118
1m
b10101000101011001011000010110100101110001011110011000000110001 n
#119
0m
#120
1m
b11001000110011001101000011010100110110001101110011100000111001 n
#121
0m
#122
1m
b11101000111011001111000011110100111110001111110100000001000001 n
#123
0m
#124
1m
b100001001000011010001000100010101000110010001110100100001001001 n
#125
0m
#126
1m
b100101001001011010011000100110101001110010011110101000001010001 n
#127
0m
#128
1m
b101001001010011010101000101010101010110010101110101100001011001 n
#129
0m
#130
1m
b101101001011011010111000101110101011110010111110110000001100001 n
#131
0m
#132
1m
b110001001100011011001000110010101100110011001110110100001101001 n
#133
0m
#134
1m
b110101001101011011011000110110101101110011011110111000001110001 n
#135
0m
#136
1m
b111001001110011011101000111010101110110011101110111100001111001 n
#137
0m
#138
1m
b111101001111011011111000111110101111110011111111000000010000001 n
#139
0m
#140
1m
b1000001010000011100001001000010110000110100001111000100010001001 n
#141
0m
#142
1m
b1000101010001011100011001000110110001110100011111001000010010001 n
#143
0m
#144
1m
b1001001010010011100101001001010110010110100101111001100010011001 n
#145
0m
#146
1m
b1001101010011011100111001001110110011110100111111010000010100001 n
#147
0m
#148
1m
b1010001010100011101001001010010110100110101001111010100010101001 n
#149
0m
#150
1m
b1010101010101011101011001010110110101110101011111011000010110001 n
#151
0m
#152
1m
b1011001010110011101101001011010110110110101101111011100010111001 n
#153
0m
#154
1m
b1011101010111011101111001011110110111110101111111100000011000001 n
#155
0m
#156
1m
b1100001011000011011101101000110110000000010011101001010111001001 n
#157
0m
#158
1m
b1011110010010101011101010111010110111100101101010001011100010111 n
#159
0m
#160
1m
b10101000000000001010100000000111100100101100001000010 n
#161
0m
#162
1m
b1110101110010000000000000000000001011000010000111100010011000101 n
#163
b1100011011000111110010001100100111000110110001111100100011001001 n
1X"
#164
0m
