.Xil/Vivado-76204-llc/hw_ila_data_5/zip_work/waveform.vcd
$date
        2025-Aug-18 16:25:48
$end
$version
        Vivado v2022.2 (64-bit)
$end
$timescale
        1ps
$end
$scope module dut $end
$var reg 1 " sysref $end
$var reg 1 # tx_ready $end
$var reg 64 $ tx_data [63:0] $end
$var reg 1 d rx_sync_0 $end
$var reg 1 e tx_sync_0 $end
$var reg 1 f rx_valid_1 $end
$var reg 1 g locked $end
$var reg 1 h rst_204 $end
$var reg 1 i rx_valid $end
$var reg 64 j rx_data [63:0] $end
$var reg 1 L" A3P_NOTICE_OBUF $end
$var reg 1 M" tx_sync_1 $end
$var reg 1 N" _TRIGGER $end
$var reg 1 O" _WINDOW $end
$var reg 1 P" _GAP $end
$upscope $end
$enddefinitions $end
#0
$dumpvars
0"
1#
b0 $
1d
1e
1f
1g
0h
1i
b100101100000000010010110000000001001011000000000100101100000000 j
1L"
0M"
0N"
1O"
0P"
$end
#2
b100110000000000010011000000000001001100000000000100110000000000 j
#4
b100110100000000010011010000000001001101000000000100110100000000 j
#5
1"
#6
b100111000000000010011100000000001001110000000000100111000000000 j
#8
b100111100000000010011110000000001001111000000000100111100000000 j
#10
b101000000000000010100000000000001010000000000000101000000000000 j
#12
b101000100000000010100010000000001010001000000000101000100000000 j
#14
b101001000000000010100100000000001010010000000000101001000000000 j
#16
b101001100000000010100110000000001010011000000000101001100000000 j
#18
b101010000000000010101000000000001010100000000000101010000000000 j
#20
b101010100000000010101010000000001010101000000000101010100000000 j
#22
b101011000000000010101100000000001010110000000000101011000000000 j
#24
b101011100000000010101110000000001010111000000000101011100000000 j
#26
b101100000000000010110000000000001011000000000000101100000000000 j
#28
b101100100000000010110010000000001011001000000000101100100000000 j
#30
b101101000000000010110100000000001011010000000000101101000000000 j
#32
b101101100000000010110110000000001011011000000000101101100000000 j
#34
b101110000000000010111000000000001011100000000000101110000000000 j
#36
b101110100000000010111010000000001011101000000000101110100000000 j
#37
0"
#38
b101111000000000010111100000000001011110000000000101111000000000 j
#40
b101111100000000010111110000000001011111000000000101111100000000 j
#42
b110000000000000011000000000000001100000000000000110000000000000 j
#44
b110000100000000011000010000000001100001000000000110000100000000 j
#46
b110001000000000011000100000000001100010000000000110001000000000 j
#48
b110001100000000011000110000000001100011000000000110001100000000 j
#50
b110010000000000011001000000000001100100000000000110010000000000 j
#52
b110010100000000011001010000000001100101000000000110010100000000 j
#54
b110011000000000011001100000000001100110000000000110011000000000 j
#56
b110011100000000011001110000000001100111000000000110011100000000 j
#58
b110100000000000011010000000000001101000000000000110100000000000 j
#60
b110100100000000011010010000000001101001000000000110100100000000 j
#62
b110101000000000011010100000000001101010000000000110101000000000 j
#64
b110101100000000011010110000000001101011000000000110101100000000 j
#66
b110110000000000011011000000000001101100000000000110110000000000 j
#68
b110110100000000011011010000000001101101000000000110110100000000 j
#69
1"
#70
b110111000000000011011100000000001101110000000000110111000000000 j
#72
b110111100000000011011110000000001101111000000000110111100000000 j
#74
b111000000000000011100000000000001110000000000000111000000000000 j
#76
b111000100000000011100010000000001110001000000000111000100000000 j
#78
b111001000000000011100100000000001110010000000000111001000000000 j
#80
b111001100000000011100110000000001110011000000000111001100000000 j
#82
b111010000000000011101000000000001110100000000000111010000000000 j
1M"
#83
0M"
#84
b111010100000000011101010000000001110101000000000111010100000000 j
#86
b111011000000000011101100000000001110110000000000111011000000000 j
#88
b111011100000000011101110000000001110111000000000111011100000000 j
#90
b111100000000000011110000000000001111000000000000111100000000000 j
#92
b111100100000000011110010000000001111001000000000111100100000000 j
#94
b111101000000000011110100000000001111010000000000111101000000000 j
#96
b111101100000000011110110000000001111011000000000111101100000000 j
#98
b111110000000000011111000000000001111100000000000111110000000000 j
#100
b111110100000000011111010000000001111101000000000111110100000000 j
1N"
#101
0"
#102
b111111000000000011111100000000001111110000000000111111000000000 j
#104
b111111100000000011111110000000001111111000000000111111100000000 j
#106
b0 j
#108
b100000000000000010000000000000001000000000000000100000000 j
#110
b1000000000000000100000000000000010000000000000001000000000 j
#112
b1100000000000000110000000000000011000000000000001100000000 j
#114
b10000000000000001000000000000000100000000000000010000000000 j
#116
b10100000000000001010000000000000101000000000000010100000000 j
1M"
#117
0M"
#118
b11000000000000001100000000000000110000000000000011000000000 j
#120
b11100000000000001110000000000000111000000000000011100000000 j
#122
b100000000000000010000000000000001000000000000000100000000000 j
#124
b100100000000000010010000000000001001000000000000100100000000 j
#126
b101000000000000010100000000000001010000000000000101000000000 j
#128
b101100000000000010110000000000001011000000000000101100000000 j
#130
b110000000000000011000000000000001100000000000000110000000000 j
#132
b110100000000000011010000000000001101000000000000110100000000 j
#133
1"
#134
b111000000000000011100000000000001110000000000000111000000000 j
#136
b111100000000000011110000000000001111000000000000111100000000 j
#138
b1000000000000000100000000000000010000000000000001000000000000 j
#140
b1000100000000000100010000000000010001000000000001000100000000 j
#142
b1001000000000000100100000000000010010000000000001001000000000 j
#144
b1001100000000000100110000000000010011000000000001001100000000 j
#146
b1010000000000000101000000000000010100000000000001010000000000 j
#148
b1010100000000000101010000000000010101000000000001010100000000 j
#150
b1011000000000000101100000000000010110000000000001011000000000 j
#152
b1011100000000000101110000000000010111000000000001011100000000 j
#154
b1100000000000000110000000000000011000000000000001100000000000 j
#156
b1100100000000000110010000000000011001000000000001100100000000 j
#158
b1101000000000000110100000000000011010000000000001101000000000 j
#160
b1101100000000000110110000000000011011000000000001101100000000 j
#162
b1110000000000000111000000000000011100000000000001110000000000 j
#164
b1110100000000000111010000000000011101000000000001110100000000 j
#165
0"
#166
b1111000000000000111100000000000011110000000000001111000000000 j
#168
b1111100000000000111110000000000011111000000000001111100000000 j
#170
b10000000000000001000000000000000100000000000000010000000000000 j
#172
b10000100000000001000010000000000100001000000000010000100000000 j
#174
b10001000000000001000100000000000100010000000000010001000000000 j
#176
b10001100000000001000110000000000100011000000000010001100000000 j
#178
b10010000000000001001000000000000100100000000000010010000000000 j
#180
b10010100000000001001010000000000100101000000000010010100000000 j
#182
b10011000000000001001100000000000100110000000000010011000000000 j
#184
b10011100000000001001110000000000100111000000000010011100000000 j
#186
b10100000000000001010000000000000101000000000000010100000000000 j
#188
b10100100000000001010010000000000101001000000000010100100000000 j
#190
b10101000000000001010100000000000101010000000000010101000000000 j
#192
b10101100000000001010110000000000101011000000000010101100000000 j
#194
b10110000000000001011000000000000101100000000000010110000000000 j
#196
b10110100000000001011010000000000101101000000000010110100000000 j
#197
1"
#198
b10111000000000001011100000000000101110000000000010111000000000 j
#200
b10111100000000001011110000000000101111000000000010111100000000 j
#202
b11000000000000001100000000000000110000000000000011000000000000 j
#204
b11000100000000001100010000000000110001000000000011000100000000 j
#206
b11001000000000001100100000000000110010000000000011001000000000 j
#208
b11001100000000001100110000000000110011000000000011001100000000 j
#210
b11010000000000001101000000000000110100000000000011010000000000 j
#212
b11010100000000001101010000000000110101000000000011010100000000 j
#214
b11011000000000001101100000000000110110000000000011011000000000 j
#216
b11011100000000001101110000000000110111000000000011011100000000 j
#218
b11100000000000001110000000000000111000000000000011100000000000 j
#220
b11100100000000001110010000000000111001000000000011100100000000 j
#222
b11101000000000001110100000000000111010000000000011101000000000 j
#224
b11101100000000001110110000000000111011000000000011101100000000 j
#226
b11110000000000001111000000000000111100000000000011110000000000 j
#228
b11110100000000001111010000000000111101000000000011110100000000 j
#229
0"
#230
b11111000000000001111100000000000111110000000000011111000000000 j
#232
b11111100000000001111110000000000111111000000000011111100000000 j
#234
b100000000000000010000000000000001000000000000000100000000000000 j
#236
b100000100000000010000010000000001000001000000000100000100000000 j
#238
b100001000000000010000100000000001000010000000000100001000000000 j
#240
b100001100000000010000110000000001000011000000000100001100000000 j
#242
b100010000000000010001000000000001000100000000000100010000000000 j
#244
b100010100000000010001010000000001000101000000000100010100000000 j
#246
b100011000000000010001100000000001000110000000000100011000000000 j
#248
b100011100000000010001110000000001000111000000000100011100000000 j
#250
b100100000000000010010000000000001001000000000000100100000000000 j
#252
b100100100000000010010010000000001001001000000000100100100000000 j
#254
b100101000000000010010100000000001001010000000000100101000000000 j
#256
b100101100000000010010110000000001001011000000000100101100000000 j
#258
b100110000000000010011000000000001001100000000000100110000000000 j
#260
b100110100000000010011010000000001001101000000000100110100000000 j
#261
1"
#262
b100111000000000010011100000000001001110000000000100111000000000 j
#264
b100111100000000010011110000000001001111000000000100111100000000 j
#266
b101000000000000010100000000000001010000000000000101000000000000 j
#268
b101000100000000010100010000000001010001000000000101000100000000 j
#270
b101001000000000010100100000000001010010000000000101001000000000 j
#272
b101001100000000010100110000000001010011000000000101001100000000 j
#274
b101010000000000010101000000000001010100000000000101010000000000 j
#276
b101010100000000010101010000000001010101000000000101010100000000 j
#278
b101011000000000010101100000000001010110000000000101011000000000 j
#280
b101011100000000010101110000000001010111000000000101011100000000 j
#282
b101100000000000010110000000000001011000000000000101100000000000 j
#284
b101100100000000010110010000000001011001000000000101100100000000 j
#286
b101101000000000010110100000000001011010000000000101101000000000 j
#288
b101101100000000010110110000000001011011000000000101101100000000 j
#290
b101110000000000010111000000000001011100000000000101110000000000 j
#292
b101110100000000010111010000000001011101000000000101110100000000 j
#293
0"
#294
b101111000000000010111100000000001011110000000000101111000000000 j
#296
b101111100000000010111110000000001011111000000000101111100000000 j
#298
b110000000000000011000000000000001100000000000000110000000000000 j
#300
b110000100000000011000010000000001100001000000000110000100000000 j
#302
b110001000000000011000100000000001100010000000000110001000000000 j
#304
b110001100000000011000110000000001100011000000000110001100000000 j
#306
b110010000000000011001000000000001100100000000000110010000000000 j
#308
b110010100000000011001010000000001100101000000000110010100000000 j
#310
b110011000000000011001100000000001100110000000000110011000000000 j
#312
b110011100000000011001110000000001100111000000000110011100000000 j
#314
b110100000000000011010000000000001101000000000000110100000000000 j
#316
b110100100000000011010010000000001101001000000000110100100000000 j
#318
b110101000000000011010100000000001101010000000000110101000000000 j
#320
b110101100000000011010110000000001101011000000000110101100000000 j
#322
b110110000000000011011000000000001101100000000000110110000000000 j
#324
b110110100000000011011010000000001101101000000000110110100000000 j
#325
1"
#326
b110111000000000011011100000000001101110000000000110111000000000 j
#328
b110111100000000011011110000000001101111000000000110111100000000 j
1M"
#330
b111000000000000011100000000000001110000000000000111000000000000 j
0M"
#332
b111000100000000011100010000000001110001000000000111000100000000 j
#334
b111001000000000011100100000000001110010000000000111001000000000 j
#336
b111001100000000011100110000000001110011000000000111001100000000 j
#338
b111010000000000011101000000000001110100000000000111010000000000 j
#340
b111010100000000011101010000000001110101000000000111010100000000 j
#342
b111011000000000011101100000000001110110000000000111011000000000 j
#344
b111011100000000011101110000000001110111000000000111011100000000 j
#346
b111100000000000011110000000000001111000000000000111100000000000 j
#347
1M"
#348
b111100100000000011110010000000001111001000000000111100100000000 j
0M"
#350
b111101000000000011110100000000001111010000000000111101000000000 j
#352
b111101100000000011110110000000001111011000000000111101100000000 j
#354
b111110000000000011111000000000001111100000000000111110000000000 j
#356
b111110100000000011111010000000001111101000000000111110100000000 j
#357
0"
#358
b111111000000000011111100000000001111110000000000111111000000000 j
#359
1M"
#360
b111111100000000011111110000000001111111000000000111111100000000 j
#361
0M"
#362
b0 j
#364
b100000000000000010000000000000001000000000000000100000000 j
#366
b1000000000000000100000000000000010000000000000001000000000 j
#368
b1100000000000000110000000000000011000000000000001100000000 j
#370
b10000000000000001000000000000000100000000000000010000000000 j
#372
b10100000000000001010000000000000101000000000000010100000000 j
#374
b11000000000000001100000000000000110000000000000011000000000 j
#376
b11100000000000001110000000000000111000000000000011100000000 j
#378
b100000000000000010000000000000001000000000000000100000000000 j
#380
b100100000000000010010000000000001001000000000000100100000000 j
#382
b101000000000000010100000000000001010000000000000101000000000 j
#384
b101100000000000010110000000000001011000000000000101100000000 j
#386
b110000000000000011000000000000001100000000000000110000000000 j
#388
b110100000000000011010000000000001101000000000000110100000000 j
#389
1"
#390
b111000000000000011100000000000001110000000000000111000000000 j
#392
b111100000000000011110000000000001111000000000000111100000000 j
#394
b1000000000000000100000000000000010000000000000001000000000000 j
#396
b1000100000000000100010000000000010001000000000001000100000000 j
#398
b1001000000000000100100000000000010010000000000001001000000000 j
#400
b1001100000000000100110000000000010011000000000001001100000000 j
#402
b1010000000000000101000000000000010100000000000001010000000000 j
#404
b1010100000000000101010000000000010101000000000001010100000000 j
#406
b1011000000000000101100000000000010110000000000001011000000000 j
#408
b1011100000000000101110000000000010111000000000001011100000000 j
#410
b1100000000000000110000000000000011000000000000001100000000000 j
#412
b1100100000000000110010000000000011001000000000001100100000000 j
#414
b1101000000000000110100000000000011010000000000001101000000000 j
1M"
#415
0M"
#416
b1101100000000000110110000000000011011000000000001101100000000 j
#418
b1110000000000000111000000000000011100000000000001110000000000 j
#420
b1110100000000000111010000000000011101000000000001110100000000 j
#421
0"
#422
b1111000000000000111100000000000011110000000000001111000000000 j
#424
b1111100000000000111110000000000011111000000000001111100000000 j
#426
b10000000000000001000000000000000100000000000000010000000000000 j
#428
b10000100000000001000010000000000100001000000000010000100000000 j
#430
b10001000000000001000100000000000100010000000000010001000000000 j
#432
b10001100000000001000110000000000100011000000000010001100000000 j
#434
b10010000000000001001000000000000100100000000000010010000000000 j
#436
b10010100000000001001010000000000100101000000000010010100000000 j
#438
b10011000000000001001100000000000100110000000000010011000000000 j
#440
b10011100000000001001110000000000100111000000000010011100000000 j
#442
b10100000000000001010000000000000101000000000000010100000000000 j
#444
b10100100000000001010010000000000101001000000000010100100000000 j
#446
b10101000000000001010100000000000101010000000000010101000000000 j
#448
b10101100000000001010110000000000101011000000000010101100000000 j
#450
b10110000000000001011000000000000101100000000000010110000000000 j
#452
b10110100000000001011010000000000101101000000000010110100000000 j
#453
1"
#454
b10111000000000001011100000000000101110000000000010111000000000 j
#456
b10111100000000001011110000000000101111000000000010111100000000 j
#458
b11000000000000001100000000000000110000000000000011000000000000 j
#460
b11000100000000001100010000000000110001000000000011000100000000 j
#462
b11001000000000001100100000000000110010000000000011001000000000 j
#464
b11001100000000001100110000000000110011000000000011001100000000 j
#466
b11010000000000001101000000000000110100000000000011010000000000 j
#468
b11010100000000001101010000000000110101000000000011010100000000 j
#470
b11011000000000001101100000000000110110000000000011011000000000 j
#472
b11011100000000001101110000000000110111000000000011011100000000 j
#474
b11100000000000001110000000000000111000000000000011100000000000 j
#476
b11100100000000001110010000000000111001000000000011100100000000 j
#478
b11101000000000001110100000000000111010000000000011101000000000 j
#480
b11101100000000001110110000000000111011000000000011101100000000 j
#482
b11110000000000001111000000000000111100000000000011110000000000 j
#484
b11110100000000001111010000000000111101000000000011110100000000 j
#485
0"
#486
b11111000000000001111100000000000111110000000000011111000000000 j
#488
b11111100000000001111110000000000111111000000000011111100000000 j
#490
b100000000000000010000000000000001000000000000000100000000000000 j
#492
b100000100000000010000010000000001000001000000000100000100000000 j
#494
b100001000000000010000100000000001000010000000000100001000000000 j
#496
b100001100000000010000110000000001000011000000000100001100000000 j
#498
b100010000000000010001000000000001000100000000000100010000000000 j
#500
b100010100000000010001010000000001000101000000000100010100000000 j
#502
b100011000000000010001100000000001000110000000000100011000000000 j
#504
b100011100000000010001110000000001000111000000000100011100000000 j
#506
b100100000000000010010000000000001001000000000000100100000000000 j
#508
b100100100000000010010010000000001001001000000000100100100000000 j
#510
b100101000000000010010100000000001001010000000000100101000000000 j
#512
b100101100000000010010110000000001001011000000000100101100000000 j
#514
b100110000000000010011000000000001001100000000000100110000000000 j
#516
b100110100000000010011010000000001001101000000000100110100000000 j
#517
1"
#518
b100111000000000010011100000000001001110000000000100111000000000 j
#520
b100111100000000010011110000000001001111000000000100111100000000 j
#522
b101000000000000010100000000000001010000000000000101000000000000 j
#524
b101000100000000010100010000000001010001000000000101000100000000 j
#526
b101001000000000010100100000000001010010000000000101001000000000 j
#528
b101001100000000010100110000000001010011000000000101001100000000 j
#530
b101010000000000010101000000000001010100000000000101010000000000 j
#532
b101010100000000010101010000000001010101000000000101010100000000 j
#534
b101011000000000010101100000000001010110000000000101011000000000 j
#536
b101011100000000010101110000000001010111000000000101011100000000 j
#538
b101100000000000010110000000000001011000000000000101100000000000 j
#540
b101100100000000010110010000000001011001000000000101100100000000 j
#542
b101101000000000010110100000000001011010000000000101101000000000 j
#543
1M"
#544
b101101100000000010110110000000001011011000000000101101100000000 j
#545
0M"
#546
b101110000000000010111000000000001011100000000000101110000000000 j
#548
b101110100000000010111010000000001011101000000000101110100000000 j
#549
0"
#550
b101111000000000010111100000000001011110000000000101111000000000 j
#552
b101111100000000010111110000000001011111000000000101111100000000 j
#554
b110000000000000011000000000000001100000000000000110000000000000 j
#556
b110000100000000011000010000000001100001000000000110000100000000 j
#558
b110001000000000011000100000000001100010000000000110001000000000 j
#560
b110001100000000011000110000000001100011000000000110001100000000 j
#562
b110010000000000011001000000000001100100000000000110010000000000 j
1M"
#563
0M"
#564
b110010100000000011001010000000001100101000000000110010100000000 j
#566
b110011000000000011001100000000001100110000000000110011000000000 j
#568
b110011100000000011001110000000001100111000000000110011100000000 j
#570
b110100000000000011010000000000001101000000000000110100000000000 j
#572
b110100100000000011010010000000001101001000000000110100100000000 j
#574
b110101000000000011010100000000001101010000000000110101000000000 j
#576
b110101100000000011010110000000001101011000000000110101100000000 j
#578
b110110000000000011011000000000001101100000000000110110000000000 j
#580
b110110100000000011011010000000001101101000000000110110100000000 j
#581
1"
#582
b110111000000000011011100000000001101110000000000110111000000000 j
#584
b110111100000000011011110000000001101111000000000110111100000000 j
#586
b111000000000000011100000000000001110000000000000111000000000000 j
#588
b111000100000000011100010000000001110001000000000111000100000000 j
#590
b111001000000000011100100000000001110010000000000111001000000000 j
#592
b111001100000000011100110000000001110011000000000111001100000000 j
#594
b111010000000000011101000000000001110100000000000111010000000000 j
#596
b111010100000000011101010000000001110101000000000111010100000000 j
#598
b111011000000000011101100000000001110110000000000111011000000000 j
#600
b111011100000000011101110000000001110111000000000111011100000000 j
#602
b111100000000000011110000000000001111000000000000111100000000000 j
#604
b111100100000000011110010000000001111001000000000111100100000000 j
#606
b111101000000000011110100000000001111010000000000111101000000000 j
1M"
#608
b111101100000000011110110000000001111011000000000111101100000000 j
0M"
#610
b111110000000000011111000000000001111100000000000111110000000000 j
#612
b111110100000000011111010000000001111101000000000111110100000000 j
#613
0"
1M"
#614
b111111000000000011111100000000001111110000000000111111000000000 j
0M"
#616
b111111100000000011111110000000001111111000000000111111100000000 j
#618
b0 j
#620
b100000000000000010000000000000001000000000000000100000000 j
#622
b1000000000000000100000000000000010000000000000001000000000 j
#624
b1100000000000000110000000000000011000000000000001100000000 j
#626
b10000000000000001000000000000000100000000000000010000000000 j
#628
b10100000000000001010000000000000101000000000000010100000000 j
#630
b11000000000000001100000000000000110000000000000011000000000 j
#632
b11100000000000001110000000000000111000000000000011100000000 j
#634
b100000000000000010000000000000001000000000000000100000000000 j
#636
b100100000000000010010000000000001001000000000000100100000000 j
#638
b101000000000000010100000000000001010000000000000101000000000 j
#640
b101100000000000010110000000000001011000000000000101100000000 j
#642
b110000000000000011000000000000001100000000000000110000000000 j
1M"
#643
0M"
#644
b110100000000000011010000000000001101000000000000110100000000 j
#645
1"
#646
b111000000000000011100000000000001110000000000000111000000000 j
#648
b111100000000000011110000000000001111000000000000111100000000 j
#650
b1000000000000000100000000000000010000000000000001000000000000 j
#652
b1000100000000000100010000000000010001000000000001000100000000 j
#654
b1001000000000000100100000000000010010000000000001001000000000 j
#656
b1001100000000000100110000000000010011000000000001001100000000 j
#658
b1010000000000000101000000000000010100000000000001010000000000 j
#660
b1010100000000000101010000000000010101000000000001010100000000 j
#662
b1011000000000000101100000000000010110000000000001011000000000 j
#664
b1011100000000000101110000000000010111000000000001011100000000 j
#666
b1100000000000000110000000000000011000000000000001100000000000 j
#668
b1100100000000000110010000000000011001000000000001100100000000 j
#670
b1101000000000000110100000000000011010000000000001101000000000 j
#672
b1101100000000000110110000000000011011000000000001101100000000 j
#674
b1110000000000000111000000000000011100000000000001110000000000 j
#676
b1110100000000000111010000000000011101000000000001110100000000 j
#677
0"
#678
b1111000000000000111100000000000011110000000000001111000000000 j
#680
b1111100000000000111110000000000011111000000000001111100000000 j
#682
b10000000000000001000000000000000100000000000000010000000000000 j
#684
b10000100000000001000010000000000100001000000000010000100000000 j
#686
b10001000000000001000100000000000100010000000000010001000000000 j
#688
b10001100000000001000110000000000100011000000000010001100000000 j
#690
b10010000000000001001000000000000100100000000000010010000000000 j
#692
b10010100000000001001010000000000100101000000000010010100000000 j
#694
b10011000000000001001100000000000100110000000000010011000000000 j
#696
b10011100000000001001110000000000100111000000000010011100000000 j
#698
b10100000000000001010000000000000101000000000000010100000000000 j
#700
b10100100000000001010010000000000101001000000000010100100000000 j
#702
b10101000000000001010100000000000101010000000000010101000000000 j
#704
b10101100000000001010110000000000101011000000000010101100000000 j
#706
b10110000000000001011000000000000101100000000000010110000000000 j
#708
b10110100000000001011010000000000101101000000000010110100000000 j
#709
1"
#710
b10111000000000001011100000000000101110000000000010111000000000 j
#712
b10111100000000001011110000000000101111000000000010111100000000 j
#714
b11000000000000001100000000000000110000000000000011000000000000 j
#716
b11000100000000001100010000000000110001000000000011000100000000 j
#718
b11001000000000001100100000000000110010000000000011001000000000 j
#720
b11001100000000001100110000000000110011000000000011001100000000 j
#722
b11010000000000001101000000000000110100000000000011010000000000 j
#724
b11010100000000001101010000000000110101000000000011010100000000 j
#726
b11011000000000001101100000000000110110000000000011011000000000 j
#728
b11011100000000001101110000000000110111000000000011011100000000 j
#730
b11100000000000001110000000000000111000000000000011100000000000 j
#732
b11100100000000001110010000000000111001000000000011100100000000 j
#734
b11101000000000001110100000000000111010000000000011101000000000 j
#736
b11101100000000001110110000000000111011000000000011101100000000 j
#738
b11110000000000001111000000000000111100000000000011110000000000 j
#740
b11110100000000001111010000000000111101000000000011110100000000 j
#741
0"
#742
b11111000000000001111100000000000111110000000000011111000000000 j
#744
b11111100000000001111110000000000111111000000000011111100000000 j
#746
b100000000000000010000000000000001000000000000000100000000000000 j
#748
b100000100000000010000010000000001000001000000000100000100000000 j
#750
b100001000000000010000100000000001000010000000000100001000000000 j
#752
b100001100000000010000110000000001000011000000000100001100000000 j
#754
b100010000000000010001000000000001000100000000000100010000000000 j
#756
b100010100000000010001010000000001000101000000000100010100000000 j
#758
b100011000000000010001100000000001000110000000000100011000000000 j
#760
b100011100000000010001110000000001000111000000000100011100000000 j
#762
b100100000000000010010000000000001001000000000000100100000000000 j
#764
b100100100000000010010010000000001001001000000000100100100000000 j
#766
b100101000000000010010100000000001001010000000000100101000000000 j
#768
b100101100000000010010110000000001001011000000000100101100000000 j
#770
b100110000000000010011000000000001001100000000000100110000000000 j
#772
b100110100000000010011010000000001001101000000000100110100000000 j
#773
1"
#774
b100111000000000010011100000000001001110000000000100111000000000 j
#776
b100111100000000010011110000000001001111000000000100111100000000 j
#778
b101000000000000010100000000000001010000000000000101000000000000 j
#780
b101000100000000010100010000000001010001000000000101000100000000 j
#782
b101001000000000010100100000000001010010000000000101001000000000 j
#784
b101001100000000010100110000000001010011000000000101001100000000 j
#786
b101010000000000010101000000000001010100000000000101010000000000 j
#788
b101010100000000010101010000000001010101000000000101010100000000 j
#790
b101011000000000010101100000000001010110000000000101011000000000 j
#792
b101011100000000010101110000000001010111000000000101011100000000 j
#794
b101100000000000010110000000000001011000000000000101100000000000 j
#796
b101100100000000010110010000000001011001000000000101100100000000 j
#798
b101101000000000010110100000000001011010000000000101101000000000 j
#800
b101101100000000010110110000000001011011000000000101101100000000 j
#802
b101110000000000010111000000000001011100000000000101110000000000 j
#804
b101110100000000010111010000000001011101000000000101110100000000 j
#805
0"
#806
b101111000000000010111100000000001011110000000000101111000000000 j
#808
b101111100000000010111110000000001011111000000000101111100000000 j
#810
b110000000000000011000000000000001100000000000000110000000000000 j
#812
b110000100000000011000010000000001100001000000000110000100000000 j
#814
b110001000000000011000100000000001100010000000000110001000000000 j
#816
b110001100000000011000110000000001100011000000000110001100000000 j
#818
b110010000000000011001000000000001100100000000000110010000000000 j
#820
b110010100000000011001010000000001100101000000000110010100000000 j
#822
b110011000000000011001100000000001100110000000000110011000000000 j
#824
b110011100000000011001110000000001100111000000000110011100000000 j
#826
b110100000000000011010000000000001101000000000000110100000000000 j
#828
b110100100000000011010010000000001101001000000000110100100000000 j
#830
b110101000000000011010100000000001101010000000000110101000000000 j
#832
b110101100000000011010110000000001101011000000000110101100000000 j
#834
b110110000000000011011000000000001101100000000000110110000000000 j
#836
b110110100000000011011010000000001101101000000000110110100000000 j
#837
1"
#838
b110111000000000011011100000000001101110000000000110111000000000 j
#840
b110111100000000011011110000000001101111000000000110111100000000 j
#842
b111000000000000011100000000000001110000000000000111000000000000 j
#844
b111000100000000011100010000000001110001000000000111000100000000 j
#846
b111001000000000011100100000000001110010000000000111001000000000 j
#848
b111001100000000011100110000000001110011000000000111001100000000 j
#850
b111010000000000011101000000000001110100000000000111010000000000 j
#852
b111010100000000011101010000000001110101000000000111010100000000 j
#854
b111011000000000011101100000000001110110000000000111011000000000 j
#856
b111011100000000011101110000000001110111000000000111011100000000 j
#858
b111100000000000011110000000000001111000000000000111100000000000 j
#860
b111100100000000011110010000000001111001000000000111100100000000 j
#862
b111101000000000011110100000000001111010000000000111101000000000 j
#864
b111101100000000011110110000000001111011000000000111101100000000 j
#865
1M"
#866
b111110000000000011111000000000001111100000000000111110000000000 j
#868
b111110100000000011111010000000001111101000000000111110100000000 j
0M"
#869
0"
#870
b111111000000000011111100000000001111110000000000111111000000000 j
#872
b111111100000000011111110000000001111111000000000111111100000000 j
#874
b0 j
#876
b100000000000000010000000000000001000000000000000100000000 j
#878
b1000000000000000100000000000000010000000000000001000000000 j
#880
b1100000000000000110000000000000011000000000000001100000000 j
#882
b10000000000000001000000000000000100000000000000010000000000 j
#884
b10100000000000001010000000000000101000000000000010100000000 j
1M"
#885
0M"
#886
b11000000000000001100000000000000110000000000000011000000000 j
#888
b11100000000000001110000000000000111000000000000011100000000 j
#890
b100000000000000010000000000000001000000000000000100000000000 j
#892
b100100000000000010010000000000001001000000000000100100000000 j
#894
b101000000000000010100000000000001010000000000000101000000000 j
#896
b101100000000000010110000000000001011000000000000101100000000 j
#898
b110000000000000011000000000000001100000000000000110000000000 j
#900
b110100000000000011010000000000001101000000000000110100000000 j
#901
1"
#902
b111000000000000011100000000000001110000000000000111000000000 j
#904
b111100000000000011110000000000001111000000000000111100000000 j
#906
b1000000000000000100000000000000010000000000000001000000000000 j
#908
b1000100000000000100010000000000010001000000000001000100000000 j
#910
b1001000000000000100100000000000010010000000000001001000000000 j
#912
b1001100000000000100110000000000010011000000000001001100000000 j
#914
b1010000000000000101000000000000010100000000000001010000000000 j
#916
b1010100000000000101010000000000010101000000000001010100000000 j
#918
b1011000000000000101100000000000010110000000000001011000000000 j
#920
b1011100000000000101110000000000010111000000000001011100000000 j
#922
b1100000000000000110000000000000011000000000000001100000000000 j
#924
b1100100000000000110010000000000011001000000000001100100000000 j
#926
b1101000000000000110100000000000011010000000000001101000000000 j
#928
b1101100000000000110110000000000011011000000000001101100000000 j
#930
b1110000000000000111000000000000011100000000000001110000000000 j
#932
b1110100000000000111010000000000011101000000000001110100000000 j
#933
0"
#934
b1111000000000000111100000000000011110000000000001111000000000 j
#936
b1111100000000000111110000000000011111000000000001111100000000 j
#938
b10000000000000001000000000000000100000000000000010000000000000 j
#940
b10000100000000001000010000000000100001000000000010000100000000 j
#942
b10001000000000001000100000000000100010000000000010001000000000 j
#944
b10001100000000001000110000000000100011000000000010001100000000 j
#946
b10010000000000001001000000000000100100000000000010010000000000 j
#948
b10010100000000001001010000000000100101000000000010010100000000 j
#950
b10011000000000001001100000000000100110000000000010011000000000 j
#952
b10011100000000001001110000000000100111000000000010011100000000 j
#954
b10100000000000001010000000000000101000000000000010100000000000 j
#956
b10100100000000001010010000000000101001000000000010100100000000 j
#958
b10101000000000001010100000000000101010000000000010101000000000 j
#960
b10101100000000001010110000000000101011000000000010101100000000 j
#962
b10110000000000001011000000000000101100000000000010110000000000 j
#964
b10110100000000001011010000000000101101000000000010110100000000 j
#965
1"
#966
b10111000000000001011100000000000101110000000000010111000000000 j
#968
b10111100000000001011110000000000101111000000000010111100000000 j
#970
b11000000000000001100000000000000110000000000000011000000000000 j
#972
b11000100000000001100010000000000110001000000000011000100000000 j
#974
b11001000000000001100100000000000110010000000000011001000000000 j
#976
b11001100000000001100110000000000110011000000000011001100000000 j
#978
b11010000000000001101000000000000110100000000000011010000000000 j
#980
b11010100000000001101010000000000110101000000000011010100000000 j
#982
b11011000000000001101100000000000110110000000000011011000000000 j
#984
b11011100000000001101110000000000110111000000000011011100000000 j
#986
b11100000000000001110000000000000111000000000000011100000000000 j
#988
b11100100000000001110010000000000111001000000000011100100000000 j
#990
b11101000000000001110100000000000111010000000000011101000000000 j
#992
b11101100000000001110110000000000111011000000000011101100000000 j
#994
b11110000000000001111000000000000111100000000000011110000000000 j
#996
b11110100000000001111010000000000111101000000000011110100000000 j
#997
0"
#998
b11111000000000001111100000000000111110000000000011111000000000 j
#1000
b11111100000000001111110000000000111111000000000011111100000000 j
#1002
b100000000000000010000000000000001000000000000000100000000000000 j
#1004
b100000100000000010000010000000001000001000000000100000100000000 j
#1006
b100001000000000010000100000000001000010000000000100001000000000 j
#1008
b100001100000000010000110000000001000011000000000100001100000000 j
#1010
b100010000000000010001000000000001000100000000000100010000000000 j
#1012
b100010100000000010001010000000001000101000000000100010100000000 j
#1014
b100011000000000010001100000000001000110000000000100011000000000 j
#1016
b100011100000000010001110000000001000111000000000100011100000000 j
#1018
b100100000000000010010000000000001001000000000000100100000000000 j
#1020
b100100100000000010010010000000001001001000000000100100100000000 j
#1022
b100101000000000010010100000000001001010000000000100101000000000 j
