.Xil/Vivado-132560-llc/hw_ila_data_1/zip_work/waveform.vcd
$date
        2025-Jul-08 14:56:54
$end
$version
        Vivado v2022.2 (64-bit)
$end
$timescale
        1ps
$end
$scope module dut $end
$var reg 1 " sysref $end
$var reg 1 # tx_ready $end
$var reg 64 $ tx_data [63:0] $end
$var reg 1 d rx_sync_0_OBUF $end
$var reg 1 e tx_sync_0_IBUF $end
$var reg 1 f rx_valid_1 $end
$var reg 1 g locked $end
$var reg 1 h rst_204 $end
$var reg 1 i rx_valid $end
$var reg 64 j rx_data [63:0] $end
$var reg 1 L" _TRIGGER $end
$var reg 1 M" _WINDOW $end
$var reg 1 N" _GAP $end
$upscope $end
$enddefinitions $end
#0
$dumpvars
1"
1#
b1010000101100101000111111110000110100001011001010001111111100010 $
1d
1e
0f
1g
0h
0i
b0 j
0L"
1M"
0N"
$end
#1
b1010000101100101000111111110001010100001011001010001111111100011 $
#2
b1010000101100101000111111110001110100001011001010001111111100100 $
#3
b1010000101100101000111111110010010100001011001010001111111100101 $
#4
b1010000101100101000111111110010110100001011001010001111111100110 $
#5
b1010000101100101000111111110011010100001011001010001111111100111 $
#6
b1010000101100101000111111110011110100001011001010001111111101000 $
#7
b1010000101100101000111111110100010100001011001010001111111101001 $
#8
0"
b1010000101100101000111111110100110100001011001010001111111101010 $
#9
b1010000101100101000111111110101010100001011001010001111111101011 $
#10
b1010000101100101000111111110101110100001011001010001111111101100 $
#11
b1010000101100101000111111110110010100001011001010001111111101101 $
#12
b1010000101100101000111111110110110100001011001010001111111101110 $
#13
b1010000101100101000111111110111010100001011001010001111111101111 $
#14
b1010000101100101000111111110111110100001011001010001111111110000 $
#15
b1010000101100101000111111111000010100001011001010001111111110001 $
#16
b1010000101100101000111111111000110100001011001010001111111110010 $
#17
b1010000101100101000111111111001010100001011001010001111111110011 $
#18
b1010000101100101000111111111001110100001011001010001111111110100 $
#19
b1010000101100101000111111111010010100001011001010001111111110101 $
#20
b1010000101100101000111111111010110100001011001010001111111110110 $
#21
b1010000101100101000111111111011010100001011001010001111111110111 $
#22
b1010000101100101000111111111011110100001011001010001111111111000 $
#23
b1010000101100101000111111111100010100001011001010001111111111001 $
#24
1"
b1010000101100101000111111111100110100001011001010001111111111010 $
#25
b1010000101100101000111111111101010100001011001010001111111111011 $
#26
b1010000101100101000111111111101110100001011001010001111111111100 $
#27
b1010000101100101000111111111110010100001011001010001111111111101 $
#28
b1010000101100101000111111111110110100001011001010001111111111110 $
#29
b1010000101100101000111111111111010100001011001010001111111111111 $
#30
b1010000101100101000111111111111110100001011001010010000000000000 $
#31
b1010000101100101001000000000000010100001011001010010000000000001 $
#32
b1010000101100101001000000000000110100001011001010010000000000010 $
#33
b1010000101100101001000000000001010100001011001010010000000000011 $
#34
b1010000101100101001000000000001110100001011001010010000000000100 $
#35
b1010000101100101001000000000010010100001011001010010000000000101 $
#36
b1010000101100101001000000000010110100001011001010010000000000110 $
#37
b1010000101100101001000000000011010100001011001010010000000000111 $
#38
b1010000101100101001000000000011110100001011001010010000000001000 $
#39
b1010000101100101001000000000100010100001011001010010000000001001 $
#40
0"
b1010000101100101001000000000100110100001011001010010000000001010 $
#41
b1010000101100101001000000000101010100001011001010010000000001011 $
#42
b1010000101100101001000000000101110100001011001010010000000001100 $
#43
b1010000101100101001000000000110010100001011001010010000000001101 $
#44
b1010000101100101001000000000110110100001011001010010000000001110 $
#45
b1010000101100101001000000000111010100001011001010010000000001111 $
#46
b1010000101100101001000000000111110100001011001010010000000010000 $
#47
b1010000101100101001000000001000010100001011001010010000000010001 $
#48
b1010000101100101001000000001000110100001011001010010000000010010 $
#49
b1010000101100101001000000001001010100001011001010010000000010011 $
#50
b1010000101100101001000000001001110100001011001010010000000010100 $
#51
b1010000101100101001000000001010010100001011001010010000000010101 $
#52
b1010000101100101001000000001010110100001011001010010000000010110 $
#53
b1010000101100101001000000001011010100001011001010010000000010111 $
#54
b1010000101100101001000000001011110100001011001010010000000011000 $
#55
b1010000101100101001000000001100010100001011001010010000000011001 $
#56
1"
b1010000101100101001000000001100110100001011001010010000000011010 $
#57
b1010000101100101001000000001101010100001011001010010000000011011 $
#58
b1010000101100101001000000001101110100001011001010010000000011100 $
#59
b1010000101100101001000000001110010100001011001010010000000011101 $
#60
b1010000101100101001000000001110110100001011001010010000000011110 $
#61
b1010000101100101001000000001111010100001011001010010000000011111 $
#62
b1010000101100101001000000001111110100001011001010010000000100000 $
#63
b1010000101100101001000000010000010100001011001010010000000100001 $
#64
b1010000101100101001000000010000110100001011001010010000000100010 $
#65
b1010000101100101001000000010001010100001011001010010000000100011 $
#66
b1010000101100101001000000010001110100001011001010010000000100100 $
#67
b1010000101100101001000000010010010100001011001010010000000100101 $
#68
b1010000101100101001000000010010110100001011001010010000000100110 $
#69
b1010000101100101001000000010011010100001011001010010000000100111 $
#70
b1010000101100101001000000010011110100001011001010010000000101000 $
#71
b1010000101100101001000000010100010100001011001010010000000101001 $
#72
0"
b1010000101100101001000000010100110100001011001010010000000101010 $
#73
b1010000101100101001000000010101010100001011001010010000000101011 $
#74
b1010000101100101001000000010101110100001011001010010000000101100 $
#75
b1010000101100101001000000010110010100001011001010010000000101101 $
#76
b1010000101100101001000000010110110100001011001010010000000101110 $
#77
b1010000101100101001000000010111010100001011001010010000000101111 $
#78
b1010000101100101001000000010111110100001011001010010000000110000 $
#79
b1010000101100101001000000011000010100001011001010010000000110001 $
#80
b1010000101100101001000000011000110100001011001010010000000110010 $
#81
b1010000101100101001000000011001010100001011001010010000000110011 $
#82
b1010000101100101001000000011001110100001011001010010000000110100 $
#83
b1010000101100101001000000011010010100001011001010010000000110101 $
#84
b1010000101100101001000000011010110100001011001010010000000110110 $
#85
b1010000101100101001000000011011010100001011001010010000000110111 $
#86
b1010000101100101001000000011011110100001011001010010000000111000 $
#87
b1010000101100101001000000011100010100001011001010010000000111001 $
#88
1"
b1010000101100101001000000011100110100001011001010010000000111010 $
#89
b1010000101100101001000000011101010100001011001010010000000111011 $
#90
b1010000101100101001000000011101110100001011001010010000000111100 $
#91
b1010000101100101001000000011110010100001011001010010000000111101 $
#92
b1010000101100101001000000011110110100001011001010010000000111110 $
#93
b1010000101100101001000000011111010100001011001010010000000111111 $
#94
b1010000101100101001000000011111110100001011001010010000001000000 $
#95
b1010000101100101001000000100000010100001011001010010000001000001 $
#96
b1010000101100101001000000100000110100001011001010010000001000010 $
#97
b1010000101100101001000000100001010100001011001010010000001000011 $
#98
b1010000101100101001000000100001110100001011001010010000001000100 $
#99
b1010000101100101001000000100010010100001011001010010000001000101 $
#100
b1010000101100101001000000100010110100001011001010010000001000110 $
1L"
#101
b1010000101100101001000000100011010100001011001010010000001000111 $
#102
b1010000101100101001000000100011110100001011001010010000001001000 $
#103
b1010000101100101001000000100100010100001011001010010000001001001 $
#104
0"
b1010000101100101001000000100100110100001011001010010000001001010 $
#105
b1010000101100101001000000100101010100001011001010010000001001011 $
#106
b1010000101100101001000000100101110100001011001010010000001001100 $
#107
b1010000101100101001000000100110010100001011001010010000001001101 $
#108
b1010000101100101001000000100110110100001011001010010000001001110 $
#109
b1010000101100101001000000100111010100001011001010010000001001111 $
#110
b1010000101100101001000000100111110100001011001010010000001010000 $
#111
b1010000101100101001000000101000010100001011001010010000001010001 $
#112
b1010000101100101001000000101000110100001011001010010000001010010 $
#113
b1010000101100101001000000101001010100001011001010010000001010011 $
#114
b1010000101100101001000000101001110100001011001010010000001010100 $
#115
b1010000101100101001000000101010010100001011001010010000001010101 $
#116
b1010000101100101001000000101010110100001011001010010000001010110 $
#117
b1010000101100101001000000101011010100001011001010010000001010111 $
#118
b1010000101100101001000000101011110100001011001010010000001011000 $
#119
b1010000101100101001000000101100010100001011001010010000001011001 $
#120
1"
b1010000101100101001000000101100110100001011001010010000001011010 $
#121
b1010000101100101001000000101101010100001011001010010000001011011 $
#122
b1010000101100101001000000101101110100001011001010010000001011100 $
#123
b1010000101100101001000000101110010100001011001010010000001011101 $
#124
b1010000101100101001000000101110110100001011001010010000001011110 $
#125
b1010000101100101001000000101111010100001011001010010000001011111 $
#126
b1010000101100101001000000101111110100001011001010010000001100000 $
#127
b1010000101100101001000000110000010100001011001010010000001100001 $
#128
b1010000101100101001000000110000110100001011001010010000001100010 $
#129
b1010000101100101001000000110001010100001011001010010000001100011 $
#130
b1010000101100101001000000110001110100001011001010010000001100100 $
#131
b1010000101100101001000000110010010100001011001010010000001100101 $
#132
b1010000101100101001000000110010110100001011001010010000001100110 $
#133
b1010000101100101001000000110011010100001011001010010000001100111 $
#134
b1010000101100101001000000110011110100001011001010010000001101000 $
#135
b1010000101100101001000000110100010100001011001010010000001101001 $
#136
0"
b1010000101100101001000000110100110100001011001010010000001101010 $
#137
b1010000101100101001000000110101010100001011001010010000001101011 $
#138
b1010000101100101001000000110101110100001011001010010000001101100 $
#139
b1010000101100101001000000110110010100001011001010010000001101101 $
#140
b1010000101100101001000000110110110100001011001010010000001101110 $
#141
b1010000101100101001000000110111010100001011001010010000001101111 $
#142
b1010000101100101001000000110111110100001011001010010000001110000 $
#143
b1010000101100101001000000111000010100001011001010010000001110001 $
#144
b1010000101100101001000000111000110100001011001010010000001110010 $
#145
b1010000101100101001000000111001010100001011001010010000001110011 $
#146
b1010000101100101001000000111001110100001011001010010000001110100 $
#147
b1010000101100101001000000111010010100001011001010010000001110101 $
#148
b1010000101100101001000000111010110100001011001010010000001110110 $
#149
b1010000101100101001000000111011010100001011001010010000001110111 $
#150
b1010000101100101001000000111011110100001011001010010000001111000 $
#151
b1010000101100101001000000111100010100001011001010010000001111001 $
#152
1"
b1010000101100101001000000111100110100001011001010010000001111010 $
#153
b1010000101100101001000000111101010100001011001010010000001111011 $
#154
b1010000101100101001000000111101110100001011001010010000001111100 $
#155
b1010000101100101001000000111110010100001011001010010000001111101 $
#156
b1010000101100101001000000111110110100001011001010010000001111110 $
#157
b1010000101100101001000000111111010100001011001010010000001111111 $
#158
b1010000101100101001000000111111110100001011001010010000010000000 $
#159
b1010000101100101001000001000000010100001011001010010000010000001 $
#160
b1010000101100101001000001000000110100001011001010010000010000010 $
#161
b1010000101100101001000001000001010100001011001010010000010000011 $
#162
b1010000101100101001000001000001110100001011001010010000010000100 $
#163
b1010000101100101001000001000010010100001011001010010000010000101 $
#164
b1010000101100101001000001000010110100001011001010010000010000110 $
#165
b1010000101100101001000001000011010100001011001010010000010000111 $
#166
b1010000101100101001000001000011110100001011001010010000010001000 $
#167
b1010000101100101001000001000100010100001011001010010000010001001 $
#168
0"
b1010000101100101001000001000100110100001011001010010000010001010 $
#169
b1010000101100101001000001000101010100001011001010010000010001011 $
#170
b1010000101100101001000001000101110100001011001010010000010001100 $
#171
b1010000101100101001000001000110010100001011001010010000010001101 $
#172
b1010000101100101001000001000110110100001011001010010000010001110 $
#173
b1010000101100101001000001000111010100001011001010010000010001111 $
#174
b1010000101100101001000001000111110100001011001010010000010010000 $
#175
b1010000101100101001000001001000010100001011001010010000010010001 $
#176
b1010000101100101001000001001000110100001011001010010000010010010 $
#177
b1010000101100101001000001001001010100001011001010010000010010011 $
#178
b1010000101100101001000001001001110100001011001010010000010010100 $
#179
b1010000101100101001000001001010010100001011001010010000010010101 $
#180
b1010000101100101001000001001010110100001011001010010000010010110 $
#181
b1010000101100101001000001001011010100001011001010010000010010111 $
#182
b1010000101100101001000001001011110100001011001010010000010011000 $
#183
b1010000101100101001000001001100010100001011001010010000010011001 $
#184
1"
b1010000101100101001000001001100110100001011001010010000010011010 $
#185
b1010000101100101001000001001101010100001011001010010000010011011 $
#186
b1010000101100101001000001001101110100001011001010010000010011100 $
#187
b1010000101100101001000001001110010100001011001010010000010011101 $
#188
b1010000101100101001000001001110110100001011001010010000010011110 $
#189
b1010000101100101001000001001111010100001011001010010000010011111 $
#190
b1010000101100101001000001001111110100001011001010010000010100000 $
#191
b1010000101100101001000001010000010100001011001010010000010100001 $
#192
b1010000101100101001000001010000110100001011001010010000010100010 $
#193
b1010000101100101001000001010001010100001011001010010000010100011 $
#194
b1010000101100101001000001010001110100001011001010010000010100100 $
#195
b1010000101100101001000001010010010100001011001010010000010100101 $
#196
b1010000101100101001000001010010110100001011001010010000010100110 $
#197
b1010000101100101001000001010011010100001011001010010000010100111 $
#198
b1010000101100101001000001010011110100001011001010010000010101000 $
#199
b1010000101100101001000001010100010100001011001010010000010101001 $
#200
0"
b1010000101100101001000001010100110100001011001010010000010101010 $
#201
b1010000101100101001000001010101010100001011001010010000010101011 $
#202
b1010000101100101001000001010101110100001011001010010000010101100 $
#203
b1010000101100101001000001010110010100001011001010010000010101101 $
#204
b1010000101100101001000001010110110100001011001010010000010101110 $
#205
b1010000101100101001000001010111010100001011001010010000010101111 $
#206
b1010000101100101001000001010111110100001011001010010000010110000 $
#207
b1010000101100101001000001011000010100001011001010010000010110001 $
#208
b1010000101100101001000001011000110100001011001010010000010110010 $
#209
b1010000101100101001000001011001010100001011001010010000010110011 $
#210
b1010000101100101001000001011001110100001011001010010000010110100 $
#211
b1010000101100101001000001011010010100001011001010010000010110101 $
#212
b1010000101100101001000001011010110100001011001010010000010110110 $
#213
b1010000101100101001000001011011010100001011001010010000010110111 $
#214
b1010000101100101001000001011011110100001011001010010000010111000 $
#215
b1010000101100101001000001011100010100001011001010010000010111001 $
#216
1"
b1010000101100101001000001011100110100001011001010010000010111010 $
#217
b1010000101100101001000001011101010100001011001010010000010111011 $
#218
b1010000101100101001000001011101110100001011001010010000010111100 $
#219
b1010000101100101001000001011110010100001011001010010000010111101 $
#220
b1010000101100101001000001011110110100001011001010010000010111110 $
#221
b1010000101100101001000001011111010100001011001010010000010111111 $
#222
b1010000101100101001000001011111110100001011001010010000011000000 $
#223
b1010000101100101001000001100000010100001011001010010000011000001 $
#224
b1010000101100101001000001100000110100001011001010010000011000010 $
#225
b1010000101100101001000001100001010100001011001010010000011000011 $
#226
b1010000101100101001000001100001110100001011001010010000011000100 $
#227
b1010000101100101001000001100010010100001011001010010000011000101 $
#228
b1010000101100101001000001100010110100001011001010010000011000110 $
#229
b1010000101100101001000001100011010100001011001010010000011000111 $
#230
b1010000101100101001000001100011110100001011001010010000011001000 $
#231
b1010000101100101001000001100100010100001011001010010000011001001 $
#232
0"
b1010000101100101001000001100100110100001011001010010000011001010 $
#233
b1010000101100101001000001100101010100001011001010010000011001011 $
#234
b1010000101100101001000001100101110100001011001010010000011001100 $
#235
b1010000101100101001000001100110010100001011001010010000011001101 $
#236
b1010000101100101001000001100110110100001011001010010000011001110 $
#237
b1010000101100101001000001100111010100001011001010010000011001111 $
#238
b1010000101100101001000001100111110100001011001010010000011010000 $
#239
b1010000101100101001000001101000010100001011001010010000011010001 $
#240
b1010000101100101001000001101000110100001011001010010000011010010 $
#241
b1010000101100101001000001101001010100001011001010010000011010011 $
#242
b1010000101100101001000001101001110100001011001010010000011010100 $
#243
b1010000101100101001000001101010010100001011001010010000011010101 $
#244
b1010000101100101001000001101010110100001011001010010000011010110 $
#245
b1010000101100101001000001101011010100001011001010010000011010111 $
#246
b1010000101100101001000001101011110100001011001010010000011011000 $
#247
b1010000101100101001000001101100010100001011001010010000011011001 $
#248
1"
b1010000101100101001000001101100110100001011001010010000011011010 $
#249
b1010000101100101001000001101101010100001011001010010000011011011 $
#250
b1010000101100101001000001101101110100001011001010010000011011100 $
#251
b1010000101100101001000001101110010100001011001010010000011011101 $
#252
b1010000101100101001000001101110110100001011001010010000011011110 $
#253
b1010000101100101001000001101111010100001011001010010000011011111 $
#254
b1010000101100101001000001101111110100001011001010010000011100000 $
#255
b1010000101100101001000001110000010100001011001010010000011100001 $
#256
b1010000101100101001000001110000110100001011001010010000011100010 $
#257
b1010000101100101001000001110001010100001011001010010000011100011 $
#258
b1010000101100101001000001110001110100001011001010010000011100100 $
#259
b1010000101100101001000001110010010100001011001010010000011100101 $
#260
b1010000101100101001000001110010110100001011001010010000011100110 $
#261
b1010000101100101001000001110011010100001011001010010000011100111 $
#262
b1010000101100101001000001110011110100001011001010010000011101000 $
#263
b1010000101100101001000001110100010100001011001010010000011101001 $
#264
0"
b1010000101100101001000001110100110100001011001010010000011101010 $
#265
b1010000101100101001000001110101010100001011001010010000011101011 $
#266
b1010000101100101001000001110101110100001011001010010000011101100 $
#267
b1010000101100101001000001110110010100001011001010010000011101101 $
#268
b1010000101100101001000001110110110100001011001010010000011101110 $
#269
b1010000101100101001000001110111010100001011001010010000011101111 $
#270
b1010000101100101001000001110111110100001011001010010000011110000 $
#271
b1010000101100101001000001111000010100001011001010010000011110001 $
#272
b1010000101100101001000001111000110100001011001010010000011110010 $
#273
b1010000101100101001000001111001010100001011001010010000011110011 $
#274
b1010000101100101001000001111001110100001011001010010000011110100 $
#275
b1010000101100101001000001111010010100001011001010010000011110101 $
#276
b1010000101100101001000001111010110100001011001010010000011110110 $
#277
b1010000101100101001000001111011010100001011001010010000011110111 $
#278
b1010000101100101001000001111011110100001011001010010000011111000 $
#279
b1010000101100101001000001111100010100001011001010010000011111001 $
#280
1"
b1010000101100101001000001111100110100001011001010010000011111010 $
#281
b1010000101100101001000001111101010100001011001010010000011111011 $
#282
b1010000101100101001000001111101110100001011001010010000011111100 $
#283
b1010000101100101001000001111110010100001011001010010000011111101 $
#284
b1010000101100101001000001111110110100001011001010010000011111110 $
#285
b1010000101100101001000001111111010100001011001010010000011111111 $
#286
b1010000101100101001000001111111110100001011001010010000100000000 $
#287
b1010000101100101001000010000000010100001011001010010000100000001 $
#288
b1010000101100101001000010000000110100001011001010010000100000010 $
#289
b1010000101100101001000010000001010100001011001010010000100000011 $
#290
b1010000101100101001000010000001110100001011001010010000100000100 $
#291
b1010000101100101001000010000010010100001011001010010000100000101 $
#292
b1010000101100101001000010000010110100001011001010010000100000110 $
#293
b1010000101100101001000010000011010100001011001010010000100000111 $
#294
b1010000101100101001000010000011110100001011001010010000100001000 $
#295
b1010000101100101001000010000100010100001011001010010000100001001 $
#296
0"
b1010000101100101001000010000100110100001011001010010000100001010 $
#297
b1010000101100101001000010000101010100001011001010010000100001011 $
#298
b1010000101100101001000010000101110100001011001010010000100001100 $
#299
b1010000101100101001000010000110010100001011001010010000100001101 $
#300
b1010000101100101001000010000110110100001011001010010000100001110 $
#301
b1010000101100101001000010000111010100001011001010010000100001111 $
#302
b1010000101100101001000010000111110100001011001010010000100010000 $
#303
b1010000101100101001000010001000010100001011001010010000100010001 $
#304
b1010000101100101001000010001000110100001011001010010000100010010 $
#305
b1010000101100101001000010001001010100001011001010010000100010011 $
#306
b1010000101100101001000010001001110100001011001010010000100010100 $
#307
b1010000101100101001000010001010010100001011001010010000100010101 $
#308
b1010000101100101001000010001010110100001011001010010000100010110 $
#309
b1010000101100101001000010001011010100001011001010010000100010111 $
#310
b1010000101100101001000010001011110100001011001010010000100011000 $
#311
b1010000101100101001000010001100010100001011001010010000100011001 $
#312
1"
b1010000101100101001000010001100110100001011001010010000100011010 $
#313
b1010000101100101001000010001101010100001011001010010000100011011 $
#314
b1010000101100101001000010001101110100001011001010010000100011100 $
#315
b1010000101100101001000010001110010100001011001010010000100011101 $
#316
b1010000101100101001000010001110110100001011001010010000100011110 $
#317
b1010000101100101001000010001111010100001011001010010000100011111 $
#318
b1010000101100101001000010001111110100001011001010010000100100000 $
#319
b1010000101100101001000010010000010100001011001010010000100100001 $
#320
b1010000101100101001000010010000110100001011001010010000100100010 $
#321
b1010000101100101001000010010001010100001011001010010000100100011 $
#322
b1010000101100101001000010010001110100001011001010010000100100100 $
#323
b1010000101100101001000010010010010100001011001010010000100100101 $
#324
b1010000101100101001000010010010110100001011001010010000100100110 $
#325
b1010000101100101001000010010011010100001011001010010000100100111 $
#326
b1010000101100101001000010010011110100001011001010010000100101000 $
#327
b1010000101100101001000010010100010100001011001010010000100101001 $
#328
0"
b1010000101100101001000010010100110100001011001010010000100101010 $
#329
b1010000101100101001000010010101010100001011001010010000100101011 $
#330
b1010000101100101001000010010101110100001011001010010000100101100 $
#331
b1010000101100101001000010010110010100001011001010010000100101101 $
#332
b1010000101100101001000010010110110100001011001010010000100101110 $
#333
b1010000101100101001000010010111010100001011001010010000100101111 $
#334
b1010000101100101001000010010111110100001011001010010000100110000 $
#335
b1010000101100101001000010011000010100001011001010010000100110001 $
#336
b1010000101100101001000010011000110100001011001010010000100110010 $
#337
b1010000101100101001000010011001010100001011001010010000100110011 $
#338
b1010000101100101001000010011001110100001011001010010000100110100 $
#339
b1010000101100101001000010011010010100001011001010010000100110101 $
#340
b1010000101100101001000010011010110100001011001010010000100110110 $
#341
b1010000101100101001000010011011010100001011001010010000100110111 $
#342
b1010000101100101001000010011011110100001011001010010000100111000 $
#343
b1010000101100101001000010011100010100001011001010010000100111001 $
#344
1"
b1010000101100101001000010011100110100001011001010010000100111010 $
#345
b1010000101100101001000010011101010100001011001010010000100111011 $
#346
b1010000101100101001000010011101110100001011001010010000100111100 $
#347
b1010000101100101001000010011110010100001011001010010000100111101 $
#348
b1010000101100101001000010011110110100001011001010010000100111110 $
#349
b1010000101100101001000010011111010100001011001010010000100111111 $
#350
b1010000101100101001000010011111110100001011001010010000101000000 $
#351
b1010000101100101001000010100000010100001011001010010000101000001 $
#352
b1010000101100101001000010100000110100001011001010010000101000010 $
#353
b1010000101100101001000010100001010100001011001010010000101000011 $
#354
b1010000101100101001000010100001110100001011001010010000101000100 $
#355
b1010000101100101001000010100010010100001011001010010000101000101 $
#356
b1010000101100101001000010100010110100001011001010010000101000110 $
#357
b1010000101100101001000010100011010100001011001010010000101000111 $
#358
b1010000101100101001000010100011110100001011001010010000101001000 $
#359
b1010000101100101001000010100100010100001011001010010000101001001 $
#360
0"
b1010000101100101001000010100100110100001011001010010000101001010 $
#361
b1010000101100101001000010100101010100001011001010010000101001011 $
#362
b1010000101100101001000010100101110100001011001010010000101001100 $
#363
b1010000101100101001000010100110010100001011001010010000101001101 $
#364
b1010000101100101001000010100110110100001011001010010000101001110 $
#365
b1010000101100101001000010100111010100001011001010010000101001111 $
#366
b1010000101100101001000010100111110100001011001010010000101010000 $
#367
b1010000101100101001000010101000010100001011001010010000101010001 $
#368
b1010000101100101001000010101000110100001011001010010000101010010 $
#369
b1010000101100101001000010101001010100001011001010010000101010011 $
#370
b1010000101100101001000010101001110100001011001010010000101010100 $
#371
b1010000101100101001000010101010010100001011001010010000101010101 $
#372
b1010000101100101001000010101010110100001011001010010000101010110 $
#373
b1010000101100101001000010101011010100001011001010010000101010111 $
#374
b1010000101100101001000010101011110100001011001010010000101011000 $
#375
b1010000101100101001000010101100010100001011001010010000101011001 $
#376
1"
b1010000101100101001000010101100110100001011001010010000101011010 $
#377
b1010000101100101001000010101101010100001011001010010000101011011 $
#378
b1010000101100101001000010101101110100001011001010010000101011100 $
#379
b1010000101100101001000010101110010100001011001010010000101011101 $
#380
b1010000101100101001000010101110110100001011001010010000101011110 $
#381
b1010000101100101001000010101111010100001011001010010000101011111 $
#382
b1010000101100101001000010101111110100001011001010010000101100000 $
#383
b1010000101100101001000010110000010100001011001010010000101100001 $
#384
b1010000101100101001000010110000110100001011001010010000101100010 $
#385
b1010000101100101001000010110001010100001011001010010000101100011 $
#386
b1010000101100101001000010110001110100001011001010010000101100100 $
#387
b1010000101100101001000010110010010100001011001010010000101100101 $
#388
b1010000101100101001000010110010110100001011001010010000101100110 $
#389
b1010000101100101001000010110011010100001011001010010000101100111 $
#390
b1010000101100101001000010110011110100001011001010010000101101000 $
#391
b1010000101100101001000010110100010100001011001010010000101101001 $
#392
0"
b1010000101100101001000010110100110100001011001010010000101101010 $
#393
b1010000101100101001000010110101010100001011001010010000101101011 $
#394
b1010000101100101001000010110101110100001011001010010000101101100 $
#395
b1010000101100101001000010110110010100001011001010010000101101101 $
#396
b1010000101100101001000010110110110100001011001010010000101101110 $
#397
b1010000101100101001000010110111010100001011001010010000101101111 $
#398
b1010000101100101001000010110111110100001011001010010000101110000 $
#399
b1010000101100101001000010111000010100001011001010010000101110001 $
#400
b1010000101100101001000010111000110100001011001010010000101110010 $
#401
b1010000101100101001000010111001010100001011001010010000101110011 $
#402
b1010000101100101001000010111001110100001011001010010000101110100 $
#403
b1010000101100101001000010111010010100001011001010010000101110101 $
#404
b1010000101100101001000010111010110100001011001010010000101110110 $
#405
b1010000101100101001000010111011010100001011001010010000101110111 $
#406
b1010000101100101001000010111011110100001011001010010000101111000 $
#407
b1010000101100101001000010111100010100001011001010010000101111001 $
#408
1"
b1010000101100101001000010111100110100001011001010010000101111010 $
#409
b1010000101100101001000010111101010100001011001010010000101111011 $
#410
b1010000101100101001000010111101110100001011001010010000101111100 $
#411
b1010000101100101001000010111110010100001011001010010000101111101 $
#412
b1010000101100101001000010111110110100001011001010010000101111110 $
#413
b1010000101100101001000010111111010100001011001010010000101111111 $
#414
b1010000101100101001000010111111110100001011001010010000110000000 $
#415
b1010000101100101001000011000000010100001011001010010000110000001 $
#416
b1010000101100101001000011000000110100001011001010010000110000010 $
#417
b1010000101100101001000011000001010100001011001010010000110000011 $
#418
b1010000101100101001000011000001110100001011001010010000110000100 $
#419
b1010000101100101001000011000010010100001011001010010000110000101 $
#420
b1010000101100101001000011000010110100001011001010010000110000110 $
#421
b1010000101100101001000011000011010100001011001010010000110000111 $
#422
b1010000101100101001000011000011110100001011001010010000110001000 $
#423
b1010000101100101001000011000100010100001011001010010000110001001 $
#424
0"
b1010000101100101001000011000100110100001011001010010000110001010 $
#425
b1010000101100101001000011000101010100001011001010010000110001011 $
#426
b1010000101100101001000011000101110100001011001010010000110001100 $
#427
b1010000101100101001000011000110010100001011001010010000110001101 $
#428
b1010000101100101001000011000110110100001011001010010000110001110 $
#429
b1010000101100101001000011000111010100001011001010010000110001111 $
#430
b1010000101100101001000011000111110100001011001010010000110010000 $
#431
b1010000101100101001000011001000010100001011001010010000110010001 $
#432
b1010000101100101001000011001000110100001011001010010000110010010 $
#433
b1010000101100101001000011001001010100001011001010010000110010011 $
#434
b1010000101100101001000011001001110100001011001010010000110010100 $
#435
b1010000101100101001000011001010010100001011001010010000110010101 $
#436
b1010000101100101001000011001010110100001011001010010000110010110 $
#437
b1010000101100101001000011001011010100001011001010010000110010111 $
#438
b1010000101100101001000011001011110100001011001010010000110011000 $
#439
b1010000101100101001000011001100010100001011001010010000110011001 $
#440
1"
b1010000101100101001000011001100110100001011001010010000110011010 $
#441
b1010000101100101001000011001101010100001011001010010000110011011 $
#442
b1010000101100101001000011001101110100001011001010010000110011100 $
#443
b1010000101100101001000011001110010100001011001010010000110011101 $
#444
b1010000101100101001000011001110110100001011001010010000110011110 $
#445
b1010000101100101001000011001111010100001011001010010000110011111 $
#446
b1010000101100101001000011001111110100001011001010010000110100000 $
#447
b1010000101100101001000011010000010100001011001010010000110100001 $
#448
b1010000101100101001000011010000110100001011001010010000110100010 $
#449
b1010000101100101001000011010001010100001011001010010000110100011 $
#450
b1010000101100101001000011010001110100001011001010010000110100100 $
#451
b1010000101100101001000011010010010100001011001010010000110100101 $
#452
b1010000101100101001000011010010110100001011001010010000110100110 $
#453
b1010000101100101001000011010011010100001011001010010000110100111 $
#454
b1010000101100101001000011010011110100001011001010010000110101000 $
#455
b1010000101100101001000011010100010100001011001010010000110101001 $
#456
0"
b1010000101100101001000011010100110100001011001010010000110101010 $
#457
b1010000101100101001000011010101010100001011001010010000110101011 $
#458
b1010000101100101001000011010101110100001011001010010000110101100 $
#459
b1010000101100101001000011010110010100001011001010010000110101101 $
#460
b1010000101100101001000011010110110100001011001010010000110101110 $
#461
b1010000101100101001000011010111010100001011001010010000110101111 $
#462
b1010000101100101001000011010111110100001011001010010000110110000 $
#463
b1010000101100101001000011011000010100001011001010010000110110001 $
#464
b1010000101100101001000011011000110100001011001010010000110110010 $
#465
b1010000101100101001000011011001010100001011001010010000110110011 $
#466
b1010000101100101001000011011001110100001011001010010000110110100 $
#467
b1010000101100101001000011011010010100001011001010010000110110101 $
#468
b1010000101100101001000011011010110100001011001010010000110110110 $
#469
b1010000101100101001000011011011010100001011001010010000110110111 $
#470
b1010000101100101001000011011011110100001011001010010000110111000 $
#471
b1010000101100101001000011011100010100001011001010010000110111001 $
#472
1"
b1010000101100101001000011011100110100001011001010010000110111010 $
#473
b1010000101100101001000011011101010100001011001010010000110111011 $
#474
b1010000101100101001000011011101110100001011001010010000110111100 $
#475
b1010000101100101001000011011110010100001011001010010000110111101 $
#476
b1010000101100101001000011011110110100001011001010010000110111110 $
#477
b1010000101100101001000011011111010100001011001010010000110111111 $
#478
b1010000101100101001000011011111110100001011001010010000111000000 $
#479
b1010000101100101001000011100000010100001011001010010000111000001 $
#480
b1010000101100101001000011100000110100001011001010010000111000010 $
#481
b1010000101100101001000011100001010100001011001010010000111000011 $
#482
b1010000101100101001000011100001110100001011001010010000111000100 $
#483
b1010000101100101001000011100010010100001011001010010000111000101 $
#484
b1010000101100101001000011100010110100001011001010010000111000110 $
#485
b1010000101100101001000011100011010100001011001010010000111000111 $
#486
b1010000101100101001000011100011110100001011001010010000111001000 $
#487
b1010000101100101001000011100100010100001011001010010000111001001 $
#488
0"
b1010000101100101001000011100100110100001011001010010000111001010 $
#489
b1010000101100101001000011100101010100001011001010010000111001011 $
#490
b1010000101100101001000011100101110100001011001010010000111001100 $
#491
b1010000101100101001000011100110010100001011001010010000111001101 $
#492
b1010000101100101001000011100110110100001011001010010000111001110 $
#493
b1010000101100101001000011100111010100001011001010010000111001111 $
#494
b1010000101100101001000011100111110100001011001010010000111010000 $
#495
b1010000101100101001000011101000010100001011001010010000111010001 $
#496
b1010000101100101001000011101000110100001011001010010000111010010 $
#497
b1010000101100101001000011101001010100001011001010010000111010011 $
#498
b1010000101100101001000011101001110100001011001010010000111010100 $
