.Xil/Vivado-121116-llc/hw_ila_data_1/zip_work/waveform.vcd
$date
        2025-Jun-18 14:41:26
$end
$version
        Vivado v2022.2 (64-bit)
$end
$timescale
        1ps
$end
$scope module dut $end
$var reg 1 " sysref $end
$var reg 1 # tx_ready $end
$var reg 128 $ tx_data [127:0] $end
$var reg 1 F" rx_sync_0_OBUF $end
$var reg 1 G" tx_sync_0_IBUF $end
$var reg 1 H" rx_valid_1 $end
$var reg 1 I" locked $end
$var reg 1 J" rst_204 $end
$var reg 1 K" rx_valid $end
$var reg 128 L" rx_data [127:0] $end
$var reg 1 n# _TRIGGER $end
$var reg 1 o# _WINDOW $end
$var reg 1 p# _GAP $end
$upscope $end
$enddefinitions $end
#0
$dumpvars
1"
1#
b11000110100100100101000010001001110001101001001001010000100010101100011010010010010100001000101111000110100100100101000010001100 $
0F"
1G"
0H"
1I"
0J"
0K"
b0 L"
0n#
1o#
0p#
$end
#1
b11000110100100100101000010001010110001101001001001010000100010111100011010010010010100001000110011000110100100100101000010001101 $
#2
b11000110100100100101000010001011110001101001001001010000100011001100011010010010010100001000110111000110100100100101000010001110 $
#3
b11000110100100100101000010001100110001101001001001010000100011011100011010010010010100001000111011000110100100100101000010001111 $
#4
b11000110100100100101000010001101110001101001001001010000100011101100011010010010010100001000111111000110100100100101000010010000 $
#5
b11000110100100100101000010001110110001101001001001010000100011111100011010010010010100001001000011000110100100100101000010010001 $
#6
b11000110100100100101000010001111110001101001001001010000100100001100011010010010010100001001000111000110100100100101000010010010 $
#7
b11000110100100100101000010010000110001101001001001010000100100011100011010010010010100001001001011000110100100100101000010010011 $
#8
b11000110100100100101000010010001110001101001001001010000100100101100011010010010010100001001001111000110100100100101000010010100 $
#9
b11000110100100100101000010010010110001101001001001010000100100111100011010010010010100001001010011000110100100100101000010010101 $
#10
b11000110100100100101000010010011110001101001001001010000100101001100011010010010010100001001010111000110100100100101000010010110 $
#11
b11000110100100100101000010010100110001101001001001010000100101011100011010010010010100001001011011000110100100100101000010010111 $
#12
b11000110100100100101000010010101110001101001001001010000100101101100011010010010010100001001011111000110100100100101000010011000 $
#13
b11000110100100100101000010010110110001101001001001010000100101111100011010010010010100001001100011000110100100100101000010011001 $
#14
b11000110100100100101000010010111110001101001001001010000100110001100011010010010010100001001100111000110100100100101000010011010 $
#15
b11000110100100100101000010011000110001101001001001010000100110011100011010010010010100001001101011000110100100100101000010011011 $
#16
b11000110100100100101000010011001110001101001001001010000100110101100011010010010010100001001101111000110100100100101000010011100 $
#17
b11000110100100100101000010011010110001101001001001010000100110111100011010010010010100001001110011000110100100100101000010011101 $
#18
b11000110100100100101000010011011110001101001001001010000100111001100011010010010010100001001110111000110100100100101000010011110 $
#19
b11000110100100100101000010011100110001101001001001010000100111011100011010010010010100001001111011000110100100100101000010011111 $
#20
b11000110100100100101000010011101110001101001001001010000100111101100011010010010010100001001111111000110100100100101000010100000 $
#21
b11000110100100100101000010011110110001101001001001010000100111111100011010010010010100001010000011000110100100100101000010100001 $
#22
b11000110100100100101000010011111110001101001001001010000101000001100011010010010010100001010000111000110100100100101000010100010 $
#23
b11000110100100100101000010100000110001101001001001010000101000011100011010010010010100001010001011000110100100100101000010100011 $
#24
b11000110100100100101000010100001110001101001001001010000101000101100011010010010010100001010001111000110100100100101000010100100 $
#25
b11000110100100100101000010100010110001101001001001010000101000111100011010010010010100001010010011000110100100100101000010100101 $
#26
b11000110100100100101000010100011110001101001001001010000101001001100011010010010010100001010010111000110100100100101000010100110 $
#27
b11000110100100100101000010100100110001101001001001010000101001011100011010010010010100001010011011000110100100100101000010100111 $
#28
b11000110100100100101000010100101110001101001001001010000101001101100011010010010010100001010011111000110100100100101000010101000 $
#29
b11000110100100100101000010100110110001101001001001010000101001111100011010010010010100001010100011000110100100100101000010101001 $
#30
b11000110100100100101000010100111110001101001001001010000101010001100011010010010010100001010100111000110100100100101000010101010 $
#31
b11000110100100100101000010101000110001101001001001010000101010011100011010010010010100001010101011000110100100100101000010101011 $
#32
b11000110100100100101000010101001110001101001001001010000101010101100011010010010010100001010101111000110100100100101000010101100 $
#33
b11000110100100100101000010101010110001101001001001010000101010111100011010010010010100001010110011000110100100100101000010101101 $
#34
b11000110100100100101000010101011110001101001001001010000101011001100011010010010010100001010110111000110100100100101000010101110 $
#35
b11000110100100100101000010101100110001101001001001010000101011011100011010010010010100001010111011000110100100100101000010101111 $
#36
0"
b11000110100100100101000010101101110001101001001001010000101011101100011010010010010100001010111111000110100100100101000010110000 $
#37
b11000110100100100101000010101110110001101001001001010000101011111100011010010010010100001011000011000110100100100101000010110001 $
#38
b11000110100100100101000010101111110001101001001001010000101100001100011010010010010100001011000111000110100100100101000010110010 $
#39
b11000110100100100101000010110000110001101001001001010000101100011100011010010010010100001011001011000110100100100101000010110011 $
#40
b11000110100100100101000010110001110001101001001001010000101100101100011010010010010100001011001111000110100100100101000010110100 $
#41
b11000110100100100101000010110010110001101001001001010000101100111100011010010010010100001011010011000110100100100101000010110101 $
#42
b11000110100100100101000010110011110001101001001001010000101101001100011010010010010100001011010111000110100100100101000010110110 $
#43
b11000110100100100101000010110100110001101001001001010000101101011100011010010010010100001011011011000110100100100101000010110111 $
#44
b11000110100100100101000010110101110001101001001001010000101101101100011010010010010100001011011111000110100100100101000010111000 $
#45
b11000110100100100101000010110110110001101001001001010000101101111100011010010010010100001011100011000110100100100101000010111001 $
#46
b11000110100100100101000010110111110001101001001001010000101110001100011010010010010100001011100111000110100100100101000010111010 $
#47
b11000110100100100101000010111000110001101001001001010000101110011100011010010010010100001011101011000110100100100101000010111011 $
#48
b11000110100100100101000010111001110001101001001001010000101110101100011010010010010100001011101111000110100100100101000010111100 $
#49
b11000110100100100101000010111010110001101001001001010000101110111100011010010010010100001011110011000110100100100101000010111101 $
#50
b11000110100100100101000010111011110001101001001001010000101111001100011010010010010100001011110111000110100100100101000010111110 $
#51
b11000110100100100101000010111100110001101001001001010000101111011100011010010010010100001011111011000110100100100101000010111111 $
#52
b11000110100100100101000010111101110001101001001001010000101111101100011010010010010100001011111111000110100100100101000011000000 $
#53
b11000110100100100101000010111110110001101001001001010000101111111100011010010010010100001100000011000110100100100101000011000001 $
#54
b11000110100100100101000010111111110001101001001001010000110000001100011010010010010100001100000111000110100100100101000011000010 $
#55
b11000110100100100101000011000000110001101001001001010000110000011100011010010010010100001100001011000110100100100101000011000011 $
#56
b11000110100100100101000011000001110001101001001001010000110000101100011010010010010100001100001111000110100100100101000011000100 $
#57
b11000110100100100101000011000010110001101001001001010000110000111100011010010010010100001100010011000110100100100101000011000101 $
#58
b11000110100100100101000011000011110001101001001001010000110001001100011010010010010100001100010111000110100100100101000011000110 $
#59
b11000110100100100101000011000100110001101001001001010000110001011100011010010010010100001100011011000110100100100101000011000111 $
#60
b11000110100100100101000011000101110001101001001001010000110001101100011010010010010100001100011111000110100100100101000011001000 $
#61
b11000110100100100101000011000110110001101001001001010000110001111100011010010010010100001100100011000110100100100101000011001001 $
#62
b11000110100100100101000011000111110001101001001001010000110010001100011010010010010100001100100111000110100100100101000011001010 $
#63
b11000110100100100101000011001000110001101001001001010000110010011100011010010010010100001100101011000110100100100101000011001011 $
#64
b11000110100100100101000011001001110001101001001001010000110010101100011010010010010100001100101111000110100100100101000011001100 $
#65
b11000110100100100101000011001010110001101001001001010000110010111100011010010010010100001100110011000110100100100101000011001101 $
#66
b11000110100100100101000011001011110001101001001001010000110011001100011010010010010100001100110111000110100100100101000011001110 $
#67
b11000110100100100101000011001100110001101001001001010000110011011100011010010010010100001100111011000110100100100101000011001111 $
#68
b11000110100100100101000011001101110001101001001001010000110011101100011010010010010100001100111111000110100100100101000011010000 $
#69
b11000110100100100101000011001110110001101001001001010000110011111100011010010010010100001101000011000110100100100101000011010001 $
#70
b11000110100100100101000011001111110001101001001001010000110100001100011010010010010100001101000111000110100100100101000011010010 $
#71
b11000110100100100101000011010000110001101001001001010000110100011100011010010010010100001101001011000110100100100101000011010011 $
#72
b11000110100100100101000011010001110001101001001001010000110100101100011010010010010100001101001111000110100100100101000011010100 $
#73
b11000110100100100101000011010010110001101001001001010000110100111100011010010010010100001101010011000110100100100101000011010101 $
#74
b11000110100100100101000011010011110001101001001001010000110101001100011010010010010100001101010111000110100100100101000011010110 $
#75
b11000110100100100101000011010100110001101001001001010000110101011100011010010010010100001101011011000110100100100101000011010111 $
#76
b11000110100100100101000011010101110001101001001001010000110101101100011010010010010100001101011111000110100100100101000011011000 $
#77
b11000110100100100101000011010110110001101001001001010000110101111100011010010010010100001101100011000110100100100101000011011001 $
#78
b11000110100100100101000011010111110001101001001001010000110110001100011010010010010100001101100111000110100100100101000011011010 $
#79
b11000110100100100101000011011000110001101001001001010000110110011100011010010010010100001101101011000110100100100101000011011011 $
#80
b11000110100100100101000011011001110001101001001001010000110110101100011010010010010100001101101111000110100100100101000011011100 $
#81
b11000110100100100101000011011010110001101001001001010000110110111100011010010010010100001101110011000110100100100101000011011101 $
#82
b11000110100100100101000011011011110001101001001001010000110111001100011010010010010100001101110111000110100100100101000011011110 $
#83
b11000110100100100101000011011100110001101001001001010000110111011100011010010010010100001101111011000110100100100101000011011111 $
#84
b11000110100100100101000011011101110001101001001001010000110111101100011010010010010100001101111111000110100100100101000011100000 $
#85
b11000110100100100101000011011110110001101001001001010000110111111100011010010010010100001110000011000110100100100101000011100001 $
#86
b11000110100100100101000011011111110001101001001001010000111000001100011010010010010100001110000111000110100100100101000011100010 $
#87
b11000110100100100101000011100000110001101001001001010000111000011100011010010010010100001110001011000110100100100101000011100011 $
#88
b11000110100100100101000011100001110001101001001001010000111000101100011010010010010100001110001111000110100100100101000011100100 $
#89
b11000110100100100101000011100010110001101001001001010000111000111100011010010010010100001110010011000110100100100101000011100101 $
#90
b11000110100100100101000011100011110001101001001001010000111001001100011010010010010100001110010111000110100100100101000011100110 $
#91
b11000110100100100101000011100100110001101001001001010000111001011100011010010010010100001110011011000110100100100101000011100111 $
#92
b11000110100100100101000011100101110001101001001001010000111001101100011010010010010100001110011111000110100100100101000011101000 $
#93
b11000110100100100101000011100110110001101001001001010000111001111100011010010010010100001110100011000110100100100101000011101001 $
#94
b11000110100100100101000011100111110001101001001001010000111010001100011010010010010100001110100111000110100100100101000011101010 $
#95
b11000110100100100101000011101000110001101001001001010000111010011100011010010010010100001110101011000110100100100101000011101011 $
#96
b11000110100100100101000011101001110001101001001001010000111010101100011010010010010100001110101111000110100100100101000011101100 $
#97
b11000110100100100101000011101010110001101001001001010000111010111100011010010010010100001110110011000110100100100101000011101101 $
#98
b11000110100100100101000011101011110001101001001001010000111011001100011010010010010100001110110111000110100100100101000011101110 $
#99
b11000110100100100101000011101100110001101001001001010000111011011100011010010010010100001110111011000110100100100101000011101111 $
#100
1"
b11000110100100100101000011101101110001101001001001010000111011101100011010010010010100001110111111000110100100100101000011110000 $
1n#
#101
b11000110100100100101000011101110110001101001001001010000111011111100011010010010010100001111000011000110100100100101000011110001 $
#102
b11000110100100100101000011101111110001101001001001010000111100001100011010010010010100001111000111000110100100100101000011110010 $
#103
b11000110100100100101000011110000110001101001001001010000111100011100011010010010010100001111001011000110100100100101000011110011 $
#104
b11000110100100100101000011110001110001101001001001010000111100101100011010010010010100001111001111000110100100100101000011110100 $
#105
b11000110100100100101000011110010110001101001001001010000111100111100011010010010010100001111010011000110100100100101000011110101 $
#106
b11000110100100100101000011110011110001101001001001010000111101001100011010010010010100001111010111000110100100100101000011110110 $
#107
b11000110100100100101000011110100110001101001001001010000111101011100011010010010010100001111011011000110100100100101000011110111 $
#108
b11000110100100100101000011110101110001101001001001010000111101101100011010010010010100001111011111000110100100100101000011111000 $
#109
b11000110100100100101000011110110110001101001001001010000111101111100011010010010010100001111100011000110100100100101000011111001 $
#110
b11000110100100100101000011110111110001101001001001010000111110001100011010010010010100001111100111000110100100100101000011111010 $
#111
b11000110100100100101000011111000110001101001001001010000111110011100011010010010010100001111101011000110100100100101000011111011 $
#112
b11000110100100100101000011111001110001101001001001010000111110101100011010010010010100001111101111000110100100100101000011111100 $
#113
b11000110100100100101000011111010110001101001001001010000111110111100011010010010010100001111110011000110100100100101000011111101 $
#114
b11000110100100100101000011111011110001101001001001010000111111001100011010010010010100001111110111000110100100100101000011111110 $
#115
b11000110100100100101000011111100110001101001001001010000111111011100011010010010010100001111111011000110100100100101000011111111 $
#116
b11000110100100100101000011111101110001101001001001010000111111101100011010010010010100001111111111000110100100100101000100000000 $
#117
b11000110100100100101000011111110110001101001001001010000111111111100011010010010010100010000000011000110100100100101000100000001 $
#118
b11000110100100100101000011111111110001101001001001010001000000001100011010010010010100010000000111000110100100100101000100000010 $
#119
b11000110100100100101000100000000110001101001001001010001000000011100011010010010010100010000001011000110100100100101000100000011 $
#120
b11000110100100100101000100000001110001101001001001010001000000101100011010010010010100010000001111000110100100100101000100000100 $
#121
b11000110100100100101000100000010110001101001001001010001000000111100011010010010010100010000010011000110100100100101000100000101 $
#122
b11000110100100100101000100000011110001101001001001010001000001001100011010010010010100010000010111000110100100100101000100000110 $
#123
b11000110100100100101000100000100110001101001001001010001000001011100011010010010010100010000011011000110100100100101000100000111 $
#124
b11000110100100100101000100000101110001101001001001010001000001101100011010010010010100010000011111000110100100100101000100001000 $
#125
b11000110100100100101000100000110110001101001001001010001000001111100011010010010010100010000100011000110100100100101000100001001 $
#126
b11000110100100100101000100000111110001101001001001010001000010001100011010010010010100010000100111000110100100100101000100001010 $
#127
b11000110100100100101000100001000110001101001001001010001000010011100011010010010010100010000101011000110100100100101000100001011 $
#128
b11000110100100100101000100001001110001101001001001010001000010101100011010010010010100010000101111000110100100100101000100001100 $
#129
b11000110100100100101000100001010110001101001001001010001000010111100011010010010010100010000110011000110100100100101000100001101 $
#130
b11000110100100100101000100001011110001101001001001010001000011001100011010010010010100010000110111000110100100100101000100001110 $
#131
b11000110100100100101000100001100110001101001001001010001000011011100011010010010010100010000111011000110100100100101000100001111 $
#132
b11000110100100100101000100001101110001101001001001010001000011101100011010010010010100010000111111000110100100100101000100010000 $
#133
b11000110100100100101000100001110110001101001001001010001000011111100011010010010010100010001000011000110100100100101000100010001 $
#134
b11000110100100100101000100001111110001101001001001010001000100001100011010010010010100010001000111000110100100100101000100010010 $
#135
b11000110100100100101000100010000110001101001001001010001000100011100011010010010010100010001001011000110100100100101000100010011 $
#136
b11000110100100100101000100010001110001101001001001010001000100101100011010010010010100010001001111000110100100100101000100010100 $
#137
b11000110100100100101000100010010110001101001001001010001000100111100011010010010010100010001010011000110100100100101000100010101 $
#138
b11000110100100100101000100010011110001101001001001010001000101001100011010010010010100010001010111000110100100100101000100010110 $
#139
b11000110100100100101000100010100110001101001001001010001000101011100011010010010010100010001011011000110100100100101000100010111 $
#140
b11000110100100100101000100010101110001101001001001010001000101101100011010010010010100010001011111000110100100100101000100011000 $
#141
b11000110100100100101000100010110110001101001001001010001000101111100011010010010010100010001100011000110100100100101000100011001 $
#142
b11000110100100100101000100010111110001101001001001010001000110001100011010010010010100010001100111000110100100100101000100011010 $
#143
b11000110100100100101000100011000110001101001001001010001000110011100011010010010010100010001101011000110100100100101000100011011 $
#144
b11000110100100100101000100011001110001101001001001010001000110101100011010010010010100010001101111000110100100100101000100011100 $
#145
b11000110100100100101000100011010110001101001001001010001000110111100011010010010010100010001110011000110100100100101000100011101 $
#146
b11000110100100100101000100011011110001101001001001010001000111001100011010010010010100010001110111000110100100100101000100011110 $
#147
b11000110100100100101000100011100110001101001001001010001000111011100011010010010010100010001111011000110100100100101000100011111 $
#148
b11000110100100100101000100011101110001101001001001010001000111101100011010010010010100010001111111000110100100100101000100100000 $
#149
b11000110100100100101000100011110110001101001001001010001000111111100011010010010010100010010000011000110100100100101000100100001 $
#150
b11000110100100100101000100011111110001101001001001010001001000001100011010010010010100010010000111000110100100100101000100100010 $
#151
b11000110100100100101000100100000110001101001001001010001001000011100011010010010010100010010001011000110100100100101000100100011 $
#152
b11000110100100100101000100100001110001101001001001010001001000101100011010010010010100010010001111000110100100100101000100100100 $
#153
b11000110100100100101000100100010110001101001001001010001001000111100011010010010010100010010010011000110100100100101000100100101 $
#154
b11000110100100100101000100100011110001101001001001010001001001001100011010010010010100010010010111000110100100100101000100100110 $
#155
b11000110100100100101000100100100110001101001001001010001001001011100011010010010010100010010011011000110100100100101000100100111 $
#156
b11000110100100100101000100100101110001101001001001010001001001101100011010010010010100010010011111000110100100100101000100101000 $
#157
b11000110100100100101000100100110110001101001001001010001001001111100011010010010010100010010100011000110100100100101000100101001 $
#158
b11000110100100100101000100100111110001101001001001010001001010001100011010010010010100010010100111000110100100100101000100101010 $
#159
b11000110100100100101000100101000110001101001001001010001001010011100011010010010010100010010101011000110100100100101000100101011 $
#160
b11000110100100100101000100101001110001101001001001010001001010101100011010010010010100010010101111000110100100100101000100101100 $
#161
b11000110100100100101000100101010110001101001001001010001001010111100011010010010010100010010110011000110100100100101000100101101 $
#162
b11000110100100100101000100101011110001101001001001010001001011001100011010010010010100010010110111000110100100100101000100101110 $
#163
b11000110100100100101000100101100110001101001001001010001001011011100011010010010010100010010111011000110100100100101000100101111 $
#164
0"
b11000110100100100101000100101101110001101001001001010001001011101100011010010010010100010010111111000110100100100101000100110000 $
#165
b11000110100100100101000100101110110001101001001001010001001011111100011010010010010100010011000011000110100100100101000100110001 $
#166
b11000110100100100101000100101111110001101001001001010001001100001100011010010010010100010011000111000110100100100101000100110010 $
#167
b11000110100100100101000100110000110001101001001001010001001100011100011010010010010100010011001011000110100100100101000100110011 $
#168
b11000110100100100101000100110001110001101001001001010001001100101100011010010010010100010011001111000110100100100101000100110100 $
#169
b11000110100100100101000100110010110001101001001001010001001100111100011010010010010100010011010011000110100100100101000100110101 $
#170
b11000110100100100101000100110011110001101001001001010001001101001100011010010010010100010011010111000110100100100101000100110110 $
#171
b11000110100100100101000100110100110001101001001001010001001101011100011010010010010100010011011011000110100100100101000100110111 $
#172
b11000110100100100101000100110101110001101001001001010001001101101100011010010010010100010011011111000110100100100101000100111000 $
#173
b11000110100100100101000100110110110001101001001001010001001101111100011010010010010100010011100011000110100100100101000100111001 $
#174
b11000110100100100101000100110111110001101001001001010001001110001100011010010010010100010011100111000110100100100101000100111010 $
#175
b11000110100100100101000100111000110001101001001001010001001110011100011010010010010100010011101011000110100100100101000100111011 $
#176
b11000110100100100101000100111001110001101001001001010001001110101100011010010010010100010011101111000110100100100101000100111100 $
#177
b11000110100100100101000100111010110001101001001001010001001110111100011010010010010100010011110011000110100100100101000100111101 $
#178
b11000110100100100101000100111011110001101001001001010001001111001100011010010010010100010011110111000110100100100101000100111110 $
#179
b11000110100100100101000100111100110001101001001001010001001111011100011010010010010100010011111011000110100100100101000100111111 $
#180
b11000110100100100101000100111101110001101001001001010001001111101100011010010010010100010011111111000110100100100101000101000000 $
#181
b11000110100100100101000100111110110001101001001001010001001111111100011010010010010100010100000011000110100100100101000101000001 $
#182
b11000110100100100101000100111111110001101001001001010001010000001100011010010010010100010100000111000110100100100101000101000010 $
#183
b11000110100100100101000101000000110001101001001001010001010000011100011010010010010100010100001011000110100100100101000101000011 $
#184
b11000110100100100101000101000001110001101001001001010001010000101100011010010010010100010100001111000110100100100101000101000100 $
#185
b11000110100100100101000101000010110001101001001001010001010000111100011010010010010100010100010011000110100100100101000101000101 $
#186
b11000110100100100101000101000011110001101001001001010001010001001100011010010010010100010100010111000110100100100101000101000110 $
#187
b11000110100100100101000101000100110001101001001001010001010001011100011010010010010100010100011011000110100100100101000101000111 $
#188
b11000110100100100101000101000101110001101001001001010001010001101100011010010010010100010100011111000110100100100101000101001000 $
#189
b11000110100100100101000101000110110001101001001001010001010001111100011010010010010100010100100011000110100100100101000101001001 $
#190
b11000110100100100101000101000111110001101001001001010001010010001100011010010010010100010100100111000110100100100101000101001010 $
#191
b11000110100100100101000101001000110001101001001001010001010010011100011010010010010100010100101011000110100100100101000101001011 $
#192
b11000110100100100101000101001001110001101001001001010001010010101100011010010010010100010100101111000110100100100101000101001100 $
#193
b11000110100100100101000101001010110001101001001001010001010010111100011010010010010100010100110011000110100100100101000101001101 $
#194
b11000110100100100101000101001011110001101001001001010001010011001100011010010010010100010100110111000110100100100101000101001110 $
#195
b11000110100100100101000101001100110001101001001001010001010011011100011010010010010100010100111011000110100100100101000101001111 $
#196
b11000110100100100101000101001101110001101001001001010001010011101100011010010010010100010100111111000110100100100101000101010000 $
#197
b11000110100100100101000101001110110001101001001001010001010011111100011010010010010100010101000011000110100100100101000101010001 $
#198
b11000110100100100101000101001111110001101001001001010001010100001100011010010010010100010101000111000110100100100101000101010010 $
#199
b11000110100100100101000101010000110001101001001001010001010100011100011010010010010100010101001011000110100100100101000101010011 $
#200
b11000110100100100101000101010001110001101001001001010001010100101100011010010010010100010101001111000110100100100101000101010100 $
#201
b11000110100100100101000101010010110001101001001001010001010100111100011010010010010100010101010011000110100100100101000101010101 $
#202
b11000110100100100101000101010011110001101001001001010001010101001100011010010010010100010101010111000110100100100101000101010110 $
#203
b11000110100100100101000101010100110001101001001001010001010101011100011010010010010100010101011011000110100100100101000101010111 $
#204
b11000110100100100101000101010101110001101001001001010001010101101100011010010010010100010101011111000110100100100101000101011000 $
#205
b11000110100100100101000101010110110001101001001001010001010101111100011010010010010100010101100011000110100100100101000101011001 $
#206
b11000110100100100101000101010111110001101001001001010001010110001100011010010010010100010101100111000110100100100101000101011010 $
#207
b11000110100100100101000101011000110001101001001001010001010110011100011010010010010100010101101011000110100100100101000101011011 $
#208
b11000110100100100101000101011001110001101001001001010001010110101100011010010010010100010101101111000110100100100101000101011100 $
#209
b11000110100100100101000101011010110001101001001001010001010110111100011010010010010100010101110011000110100100100101000101011101 $
#210
b11000110100100100101000101011011110001101001001001010001010111001100011010010010010100010101110111000110100100100101000101011110 $
#211
b11000110100100100101000101011100110001101001001001010001010111011100011010010010010100010101111011000110100100100101000101011111 $
#212
b11000110100100100101000101011101110001101001001001010001010111101100011010010010010100010101111111000110100100100101000101100000 $
#213
b11000110100100100101000101011110110001101001001001010001010111111100011010010010010100010110000011000110100100100101000101100001 $
#214
b11000110100100100101000101011111110001101001001001010001011000001100011010010010010100010110000111000110100100100101000101100010 $
#215
b11000110100100100101000101100000110001101001001001010001011000011100011010010010010100010110001011000110100100100101000101100011 $
#216
b11000110100100100101000101100001110001101001001001010001011000101100011010010010010100010110001111000110100100100101000101100100 $
#217
b11000110100100100101000101100010110001101001001001010001011000111100011010010010010100010110010011000110100100100101000101100101 $
#218
b11000110100100100101000101100011110001101001001001010001011001001100011010010010010100010110010111000110100100100101000101100110 $
#219
b11000110100100100101000101100100110001101001001001010001011001011100011010010010010100010110011011000110100100100101000101100111 $
#220
b11000110100100100101000101100101110001101001001001010001011001101100011010010010010100010110011111000110100100100101000101101000 $
#221
b11000110100100100101000101100110110001101001001001010001011001111100011010010010010100010110100011000110100100100101000101101001 $
#222
b11000110100100100101000101100111110001101001001001010001011010001100011010010010010100010110100111000110100100100101000101101010 $
#223
b11000110100100100101000101101000110001101001001001010001011010011100011010010010010100010110101011000110100100100101000101101011 $
#224
b11000110100100100101000101101001110001101001001001010001011010101100011010010010010100010110101111000110100100100101000101101100 $
#225
b11000110100100100101000101101010110001101001001001010001011010111100011010010010010100010110110011000110100100100101000101101101 $
#226
b11000110100100100101000101101011110001101001001001010001011011001100011010010010010100010110110111000110100100100101000101101110 $
#227
b11000110100100100101000101101100110001101001001001010001011011011100011010010010010100010110111011000110100100100101000101101111 $
#228
1"
b11000110100100100101000101101101110001101001001001010001011011101100011010010010010100010110111111000110100100100101000101110000 $
#229
b11000110100100100101000101101110110001101001001001010001011011111100011010010010010100010111000011000110100100100101000101110001 $
#230
b11000110100100100101000101101111110001101001001001010001011100001100011010010010010100010111000111000110100100100101000101110010 $
#231
b11000110100100100101000101110000110001101001001001010001011100011100011010010010010100010111001011000110100100100101000101110011 $
#232
b11000110100100100101000101110001110001101001001001010001011100101100011010010010010100010111001111000110100100100101000101110100 $
#233
b11000110100100100101000101110010110001101001001001010001011100111100011010010010010100010111010011000110100100100101000101110101 $
#234
b11000110100100100101000101110011110001101001001001010001011101001100011010010010010100010111010111000110100100100101000101110110 $
#235
b11000110100100100101000101110100110001101001001001010001011101011100011010010010010100010111011011000110100100100101000101110111 $
#236
b11000110100100100101000101110101110001101001001001010001011101101100011010010010010100010111011111000110100100100101000101111000 $
#237
b11000110100100100101000101110110110001101001001001010001011101111100011010010010010100010111100011000110100100100101000101111001 $
#238
b11000110100100100101000101110111110001101001001001010001011110001100011010010010010100010111100111000110100100100101000101111010 $
#239
b11000110100100100101000101111000110001101001001001010001011110011100011010010010010100010111101011000110100100100101000101111011 $
#240
b11000110100100100101000101111001110001101001001001010001011110101100011010010010010100010111101111000110100100100101000101111100 $
#241
b11000110100100100101000101111010110001101001001001010001011110111100011010010010010100010111110011000110100100100101000101111101 $
#242
b11000110100100100101000101111011110001101001001001010001011111001100011010010010010100010111110111000110100100100101000101111110 $
#243
b11000110100100100101000101111100110001101001001001010001011111011100011010010010010100010111111011000110100100100101000101111111 $
#244
b11000110100100100101000101111101110001101001001001010001011111101100011010010010010100010111111111000110100100100101000110000000 $
#245
b11000110100100100101000101111110110001101001001001010001011111111100011010010010010100011000000011000110100100100101000110000001 $
#246
b11000110100100100101000101111111110001101001001001010001100000001100011010010010010100011000000111000110100100100101000110000010 $
#247
b11000110100100100101000110000000110001101001001001010001100000011100011010010010010100011000001011000110100100100101000110000011 $
#248
b11000110100100100101000110000001110001101001001001010001100000101100011010010010010100011000001111000110100100100101000110000100 $
#249
b11000110100100100101000110000010110001101001001001010001100000111100011010010010010100011000010011000110100100100101000110000101 $
#250
b11000110100100100101000110000011110001101001001001010001100001001100011010010010010100011000010111000110100100100101000110000110 $
#251
b11000110100100100101000110000100110001101001001001010001100001011100011010010010010100011000011011000110100100100101000110000111 $
#252
b11000110100100100101000110000101110001101001001001010001100001101100011010010010010100011000011111000110100100100101000110001000 $
#253
b11000110100100100101000110000110110001101001001001010001100001111100011010010010010100011000100011000110100100100101000110001001 $
#254
b11000110100100100101000110000111110001101001001001010001100010001100011010010010010100011000100111000110100100100101000110001010 $
#255
b11000110100100100101000110001000110001101001001001010001100010011100011010010010010100011000101011000110100100100101000110001011 $
#256
b11000110100100100101000110001001110001101001001001010001100010101100011010010010010100011000101111000110100100100101000110001100 $
#257
b11000110100100100101000110001010110001101001001001010001100010111100011010010010010100011000110011000110100100100101000110001101 $
#258
b11000110100100100101000110001011110001101001001001010001100011001100011010010010010100011000110111000110100100100101000110001110 $
#259
b11000110100100100101000110001100110001101001001001010001100011011100011010010010010100011000111011000110100100100101000110001111 $
#260
b11000110100100100101000110001101110001101001001001010001100011101100011010010010010100011000111111000110100100100101000110010000 $
#261
b11000110100100100101000110001110110001101001001001010001100011111100011010010010010100011001000011000110100100100101000110010001 $
#262
b11000110100100100101000110001111110001101001001001010001100100001100011010010010010100011001000111000110100100100101000110010010 $
#263
b11000110100100100101000110010000110001101001001001010001100100011100011010010010010100011001001011000110100100100101000110010011 $
#264
b11000110100100100101000110010001110001101001001001010001100100101100011010010010010100011001001111000110100100100101000110010100 $
#265
b11000110100100100101000110010010110001101001001001010001100100111100011010010010010100011001010011000110100100100101000110010101 $
#266
b11000110100100100101000110010011110001101001001001010001100101001100011010010010010100011001010111000110100100100101000110010110 $
#267
b11000110100100100101000110010100110001101001001001010001100101011100011010010010010100011001011011000110100100100101000110010111 $
#268
b11000110100100100101000110010101110001101001001001010001100101101100011010010010010100011001011111000110100100100101000110011000 $
#269
b11000110100100100101000110010110110001101001001001010001100101111100011010010010010100011001100011000110100100100101000110011001 $
#270
b11000110100100100101000110010111110001101001001001010001100110001100011010010010010100011001100111000110100100100101000110011010 $
#271
b11000110100100100101000110011000110001101001001001010001100110011100011010010010010100011001101011000110100100100101000110011011 $
#272
b11000110100100100101000110011001110001101001001001010001100110101100011010010010010100011001101111000110100100100101000110011100 $
#273
b11000110100100100101000110011010110001101001001001010001100110111100011010010010010100011001110011000110100100100101000110011101 $
#274
b11000110100100100101000110011011110001101001001001010001100111001100011010010010010100011001110111000110100100100101000110011110 $
#275
b11000110100100100101000110011100110001101001001001010001100111011100011010010010010100011001111011000110100100100101000110011111 $
#276
b11000110100100100101000110011101110001101001001001010001100111101100011010010010010100011001111111000110100100100101000110100000 $
#277
b11000110100100100101000110011110110001101001001001010001100111111100011010010010010100011010000011000110100100100101000110100001 $
#278
b11000110100100100101000110011111110001101001001001010001101000001100011010010010010100011010000111000110100100100101000110100010 $
#279
b11000110100100100101000110100000110001101001001001010001101000011100011010010010010100011010001011000110100100100101000110100011 $
#280
b11000110100100100101000110100001110001101001001001010001101000101100011010010010010100011010001111000110100100100101000110100100 $
#281
b11000110100100100101000110100010110001101001001001010001101000111100011010010010010100011010010011000110100100100101000110100101 $
#282
b11000110100100100101000110100011110001101001001001010001101001001100011010010010010100011010010111000110100100100101000110100110 $
#283
b11000110100100100101000110100100110001101001001001010001101001011100011010010010010100011010011011000110100100100101000110100111 $
#284
b11000110100100100101000110100101110001101001001001010001101001101100011010010010010100011010011111000110100100100101000110101000 $
#285
b11000110100100100101000110100110110001101001001001010001101001111100011010010010010100011010100011000110100100100101000110101001 $
#286
b11000110100100100101000110100111110001101001001001010001101010001100011010010010010100011010100111000110100100100101000110101010 $
#287
b11000110100100100101000110101000110001101001001001010001101010011100011010010010010100011010101011000110100100100101000110101011 $
#288
b11000110100100100101000110101001110001101001001001010001101010101100011010010010010100011010101111000110100100100101000110101100 $
#289
b11000110100100100101000110101010110001101001001001010001101010111100011010010010010100011010110011000110100100100101000110101101 $
#290
b11000110100100100101000110101011110001101001001001010001101011001100011010010010010100011010110111000110100100100101000110101110 $
